Nov 29 18:59:21.679 HYPERVISOR: Release 0.2.17-amd64/Linux (tag 2017072410)
Nov 29 18:59:21.679 HYPERVISOR: Started on IP = 127.0.0.1, TCP port = 45025.
Nov 29 18:59:21.696 HYPERVISOR: exec_cmd: hypervisor version 
Nov 29 18:59:21.696 HYPERVISOR: exec_cmd: hypervisor working_dir /media/actionmystique/SAMSUNG5-VMs/Labs/GNS3/TT 2-solutions-linux-/project-files/dynamips 
Nov 29 18:59:21.696 GENERAL: working_dir=/media/actionmystique/SAMSUNG5-VMs/Labs/GNS3/TT 2-solutions-linux-/project-files/dynamips
Nov 29 18:59:21.696 HYPERVISOR: exec_cmd: vm create ESW2 2 c3725 
Nov 29 18:59:21.696 VM: VM ESW2 created.
Nov 29 18:59:21.697 HYPERVISOR: exec_cmd: vm set_con_tcp_port ESW2 2002 
Nov 29 18:59:21.697 HYPERVISOR: exec_cmd: vm set_aux_tcp_port ESW2 2502 
Nov 29 18:59:21.697 HYPERVISOR: exec_cmd: c3725 get_mac_addr ESW2 
Nov 29 18:59:21.697 HYPERVISOR: exec_cmd: vm slot_add_binding ESW2 0 16 WIC-2T 
Nov 29 18:59:21.698 HYPERVISOR: exec_cmd: vm set_ios ESW2 /media/actionmystique/SAMSUNG5-VMs/Images/GNS3/IOS/c3725-adventerprisek9-mz.124-15.T10.image 
Nov 29 18:59:21.698 HYPERVISOR: exec_cmd: vm get_status ESW2 
Nov 29 18:59:21.699 HYPERVISOR: exec_cmd: vm set_idle_pc ESW2 0x6026b804 
Nov 29 18:59:21.699 HYPERVISOR: exec_cmd: vm get_status ESW2 
Nov 29 18:59:21.699 HYPERVISOR: exec_cmd: vm slot_add_binding ESW2 1 0 NM-16ESW 
Nov 29 18:59:21.700 HYPERVISOR: exec_cmd: c3725 set_mac_addr ESW2 c202.28c2.0000 
Nov 29 18:59:21.700 HYPERVISOR: exec_cmd: vm set_nvram ESW2 256 
Nov 29 18:59:21.700 HYPERVISOR: exec_cmd: vm set_disk0 ESW2 1 
Nov 29 18:59:21.701 HYPERVISOR: exec_cmd: vm set_config ESW2 configs/i2_startup-config.cfg 
Nov 29 18:59:21.702 HYPERVISOR: exec_cmd: vm set_config ESW2 configs/i2_startup-config.cfg configs/i2_private-config.cfg 
Nov 29 18:59:21.859 HYPERVISOR: exec_cmd: nio create_tap tap-4aff968c-d839-4aad-b5e8-8d4b91cce162 tap2 
Nov 29 18:59:21.860 HYPERVISOR: exec_cmd: vm slot_add_nio_binding ESW2 1 0 tap-4aff968c-d839-4aad-b5e8-8d4b91cce162 
Nov 29 18:59:21.860 HYPERVISOR: exec_cmd: vm get_status ESW2 
Nov 29 18:59:21.956 HYPERVISOR: exec_cmd: nio create_udp udp-75fcab36-bf01-4e29-8e1e-08f7d2411513 15011 127.0.0.1 15010 
Nov 29 18:59:21.957 HYPERVISOR: exec_cmd: vm slot_add_nio_binding ESW2 1 2 udp-75fcab36-bf01-4e29-8e1e-08f7d2411513 
Nov 29 18:59:21.957 HYPERVISOR: exec_cmd: vm get_status ESW2 
Nov 29 18:59:46.365 HYPERVISOR: exec_cmd: vm get_status ESW2 
Nov 29 18:59:46.366 HYPERVISOR: exec_cmd: vm extract_config ESW2 
Nov 29 18:59:46.368 HYPERVISOR: exec_cmd: vm delete ESW2 
Nov 29 18:59:46.368 VM: VM ESW2 destroyed.
Nov 29 18:59:46.369 HYPERVISOR: exec_cmd: hypervisor stop 
Nov 29 18:59:46.722 HYPERVISOR: Stopped.
Nov 29 18:59:46.722 GENERAL: reset done.
