Nov 26 21:56:02.711 HYPERVISOR: Release 0.2.17-amd64/Linux (tag 2017072410)
Nov 26 21:56:02.711 HYPERVISOR: Started on IP = 127.0.0.1, TCP port = 57115.
Nov 26 21:56:02.750 HYPERVISOR: exec_cmd: hypervisor version 
Nov 26 21:56:02.750 HYPERVISOR: exec_cmd: hypervisor working_dir /media/actionmystique/SAMSUNG5-VMs/Labs/GNS3/git-Public-Labs-Collection/CCNP/TBSHOOT/Exam-Topology/Jean-Christophe_Manciot/1+/v1-solutions-linux/project-files/dynamips 
Nov 26 21:56:02.750 GENERAL: working_dir=/media/actionmystique/SAMSUNG5-VMs/Labs/GNS3/git-Public-Labs-Collection/CCNP/TBSHOOT/Exam-Topology/Jean-Christophe_Manciot/1+/v1-solutions-linux/project-files/dynamips
Nov 26 21:56:02.751 HYPERVISOR: exec_cmd: vm create R5 9 c7200 
Nov 26 21:56:02.751 VM: VM R5 created.
Nov 26 21:56:02.752 HYPERVISOR: exec_cmd: vm set_con_tcp_port R5 2015 
Nov 26 21:56:02.753 HYPERVISOR: exec_cmd: c7200 get_mac_addr R5 
Nov 26 21:56:02.753 HYPERVISOR: exec_cmd: vm get_status R5 
Nov 26 21:56:02.754 HYPERVISOR: exec_cmd: vm slot_add_binding R5 0 0 C7200-IO-FE 
Nov 26 21:56:02.755 HYPERVISOR: exec_cmd: vm get_status R5 
Nov 26 21:56:02.756 HYPERVISOR: exec_cmd: vm slot_add_binding R5 2 0 PA-GE 
Nov 26 21:56:02.761 HYPERVISOR: exec_cmd: vm get_status R5 
Nov 26 21:56:02.762 HYPERVISOR: exec_cmd: vm set_idle_pc R5 0x6062f0e0 
Nov 26 21:56:02.763 HYPERVISOR: exec_cmd: vm get_status R5 
Nov 26 21:56:02.764 HYPERVISOR: exec_cmd: vm slot_add_binding R5 1 0 PA-GE 
Nov 26 21:56:02.764 HYPERVISOR: exec_cmd: vm set_nvram R5 256 
Nov 26 21:56:02.765 HYPERVISOR: exec_cmd: vm get_status R5 
Nov 26 21:56:02.765 HYPERVISOR: exec_cmd: vm slot_add_binding R5 3 0 PA-GE 
Nov 26 21:56:02.766 HYPERVISOR: exec_cmd: vm get_status R5 
Nov 26 21:56:02.766 HYPERVISOR: exec_cmd: vm slot_remove_binding R5 0 0 
Nov 26 21:56:02.766 HYPERVISOR: exec_cmd: vm get_status R5 
Nov 26 21:56:02.767 HYPERVISOR: exec_cmd: vm slot_add_binding R5 0 0 C7200-IO-GE-E 
Nov 26 21:56:02.767 HYPERVISOR: exec_cmd: vm set_disk0 R5 1 
Nov 26 21:56:02.768 HYPERVISOR: exec_cmd: vm get_status R5 
Nov 26 21:56:02.768 HYPERVISOR: exec_cmd: vm slot_add_binding R5 4 0 PA-4T+ 
Nov 26 21:56:02.769 HYPERVISOR: exec_cmd: vm set_ram R5 512 
Nov 26 21:56:02.769 HYPERVISOR: exec_cmd: vm get_status R5 
Nov 26 21:56:02.770 HYPERVISOR: exec_cmd: vm slot_add_binding R5 6 0 PA-POS-OC3 
Nov 26 21:56:02.778 HYPERVISOR: exec_cmd: vm get_status R5 
Nov 26 21:56:02.779 HYPERVISOR: exec_cmd: vm slot_add_binding R5 5 0 PA-POS-OC3 
Nov 26 21:56:02.781 HYPERVISOR: exec_cmd: c7200 set_mac_addr R5 ca09.71f1.0000 
Nov 26 21:56:02.782 HYPERVISOR: exec_cmd: vm set_ios R5 /media/actionmystique/SAMSUNG5-VMs/Images/GNS3/IOS/c7200-adventerprisek9-mz.152-4.M2.image 
Nov 26 21:56:02.790 HYPERVISOR: exec_cmd: vm set_config R5 configs/i9_startup-config.cfg 
Nov 26 21:56:02.795 HYPERVISOR: exec_cmd: vm set_config R5 configs/i9_startup-config.cfg configs/i9_private-config.cfg 
Nov 26 21:56:03.839 HYPERVISOR: exec_cmd: nio create_udp udp-c1d65a4b-a727-4712-ae0c-21f1d243d737 15048 127.0.0.1 15047 
Nov 26 21:56:03.840 HYPERVISOR: exec_cmd: vm slot_add_nio_binding R5 4 0 udp-c1d65a4b-a727-4712-ae0c-21f1d243d737 
Nov 26 21:56:03.841 HYPERVISOR: exec_cmd: vm get_status R5 
Nov 26 21:56:03.865 HYPERVISOR: exec_cmd: nio create_udp udp-8ff18e29-adeb-4b63-a968-354b01330a6c 15049 127.0.0.1 15046 
Nov 26 21:56:03.865 HYPERVISOR: exec_cmd: vm slot_add_nio_binding R5 2 0 udp-8ff18e29-adeb-4b63-a968-354b01330a6c 
Nov 26 21:56:03.865 HYPERVISOR: exec_cmd: vm get_status R5 
Nov 26 21:56:03.889 HYPERVISOR: exec_cmd: nio create_udp udp-806c52a3-e2eb-40b9-88b8-af32f03958f8 15050 127.0.0.1 15051 
Nov 26 21:56:03.889 HYPERVISOR: exec_cmd: vm slot_add_nio_binding R5 1 0 udp-806c52a3-e2eb-40b9-88b8-af32f03958f8 
Nov 26 21:56:03.889 HYPERVISOR: exec_cmd: vm get_status R5 
Nov 26 21:56:03.913 HYPERVISOR: exec_cmd: nio create_udp udp-f91c0b10-80fa-4e7c-99e3-61b533e8a885 15052 127.0.0.1 15053 
Nov 26 21:56:03.913 HYPERVISOR: exec_cmd: vm slot_add_nio_binding R5 3 0 udp-f91c0b10-80fa-4e7c-99e3-61b533e8a885 
Nov 26 21:56:03.914 HYPERVISOR: exec_cmd: vm get_status R5 
