Nov 28 08:11:46.262 HYPERVISOR: Release 0.2.17-amd64/Linux (tag 2017072410)
Nov 28 08:11:46.262 HYPERVISOR: Started on IP = 127.0.0.1, TCP port = 43381.
Nov 28 08:11:46.271 HYPERVISOR: exec_cmd: hypervisor version 
Nov 28 08:11:46.272 HYPERVISOR: exec_cmd: hypervisor working_dir /media/actionmystique/SAMSUNG5-VMs/Labs/GNS3/git-Public-Labs-Collection/CCNP/TBSHOOT/L3-Technologies/IPv4/PBR/Jean-Christophe_Manciot/1+/TT 1-linux/project-files/dynamips 
Nov 28 08:11:46.273 GENERAL: working_dir=/media/actionmystique/SAMSUNG5-VMs/Labs/GNS3/git-Public-Labs-Collection/CCNP/TBSHOOT/L3-Technologies/IPv4/PBR/Jean-Christophe_Manciot/1+/TT 1-linux/project-files/dynamips
Nov 28 08:11:46.274 HYPERVISOR: exec_cmd: vm create ESW5 5 c3725 
Nov 28 08:11:46.274 VM: VM ESW5 created.
Nov 28 08:11:46.276 HYPERVISOR: exec_cmd: vm set_con_tcp_port ESW5 2010 
Nov 28 08:11:46.277 HYPERVISOR: exec_cmd: c3725 get_mac_addr ESW5 
Nov 28 08:11:46.278 HYPERVISOR: exec_cmd: vm set_disk0 ESW5 1 
Nov 28 08:11:46.284 HYPERVISOR: exec_cmd: vm get_status ESW5 
Nov 28 08:11:46.292 HYPERVISOR: exec_cmd: vm slot_add_binding ESW5 1 0 NM-16ESW 
Nov 28 08:11:46.294 HYPERVISOR: exec_cmd: vm set_ios ESW5 /media/actionmystique/SAMSUNG5-VMs/Images/GNS3/IOS/c3725-adventerprisek9-mz.124-15.T10.image 
Nov 28 08:11:46.304 HYPERVISOR: exec_cmd: c3725 set_mac_addr ESW5 c205.6a03.0000 
Nov 28 08:11:46.315 HYPERVISOR: exec_cmd: vm slot_add_binding ESW5 0 16 WIC-2T 
Nov 28 08:11:46.317 HYPERVISOR: exec_cmd: vm get_status ESW5 
Nov 28 08:11:46.318 HYPERVISOR: exec_cmd: vm set_idle_pc ESW5 0x614ac27c 
Nov 28 08:11:46.318 HYPERVISOR: exec_cmd: vm set_nvram ESW5 256 
Nov 28 08:11:46.319 HYPERVISOR: exec_cmd: vm set_config ESW5 configs/ios_base_startup-config.txt 
Nov 28 08:11:46.320 HYPERVISOR: exec_cmd: vm set_config ESW5 configs/ios_base_startup-config.txt configs/ios_base_private-config.txt 
Nov 28 08:11:46.563 HYPERVISOR: exec_cmd: nio create_udp udp-f9281d87-4358-458b-b747-ff22cf4b9cab 15015 127.0.0.1 15014 
Nov 28 08:11:46.564 HYPERVISOR: exec_cmd: vm slot_add_nio_binding ESW5 1 0 udp-f9281d87-4358-458b-b747-ff22cf4b9cab 
Nov 28 08:11:46.564 HYPERVISOR: exec_cmd: vm get_status ESW5 
Nov 28 08:11:46.570 HYPERVISOR: exec_cmd: nio create_udp udp-aeccbca9-8a21-4cbe-aea5-fa12d64fd314 15016 127.0.0.1 15017 
Nov 28 08:11:46.570 HYPERVISOR: exec_cmd: vm slot_add_nio_binding ESW5 1 1 udp-aeccbca9-8a21-4cbe-aea5-fa12d64fd314 
Nov 28 08:11:46.571 HYPERVISOR: exec_cmd: vm get_status ESW5 
