Nov 27 16:24:03.945 HYPERVISOR: Release 0.2.17-amd64/Linux (tag 2017072410)
Nov 27 16:24:03.945 HYPERVISOR: Started on IP = 127.0.0.1, TCP port = 53953.
Nov 27 16:24:03.964 HYPERVISOR: exec_cmd: hypervisor version 
Nov 27 16:24:03.965 HYPERVISOR: exec_cmd: hypervisor working_dir /media/actionmystique/SAMSUNG5-VMs/Labs/GNS3/TT 2-linux-/project-files/dynamips 
Nov 27 16:24:03.965 GENERAL: working_dir=/media/actionmystique/SAMSUNG5-VMs/Labs/GNS3/TT 2-linux-/project-files/dynamips
Nov 27 16:24:03.966 HYPERVISOR: exec_cmd: vm create SW1 1 c3725 
Nov 27 16:24:03.966 VM: VM SW1 created.
Nov 27 16:24:03.967 HYPERVISOR: exec_cmd: vm set_con_tcp_port SW1 2001 
Nov 27 16:24:03.968 HYPERVISOR: exec_cmd: c3725 get_mac_addr SW1 
Nov 27 16:24:03.969 HYPERVISOR: exec_cmd: vm set_nvram SW1 256 
Nov 27 16:24:03.970 HYPERVISOR: exec_cmd: vm get_status SW1 
Nov 27 16:24:03.971 HYPERVISOR: exec_cmd: vm set_idle_pc SW1 0x60c056e4 
Nov 27 16:24:03.972 HYPERVISOR: exec_cmd: c3725 set_mac_addr SW1 aaaa.aaaa.aaaa 
Nov 27 16:24:03.973 HYPERVISOR: exec_cmd: vm set_exec_area SW1 16 
Nov 27 16:24:03.974 HYPERVISOR: exec_cmd: vm get_status SW1 
Nov 27 16:24:03.975 HYPERVISOR: exec_cmd: vm slot_add_binding SW1 1 0 NM-16ESW 
Nov 27 16:24:03.976 HYPERVISOR: exec_cmd: vm set_disk0 SW1 1 
Nov 27 16:24:03.977 HYPERVISOR: exec_cmd: vm set_ios SW1 /media/actionmystique/SAMSUNG5-VMs/Images/GNS3/IOS/c3725-adventerprisek9-mz.124-15.T10.image 
Nov 27 16:24:03.978 HYPERVISOR: exec_cmd: vm slot_add_binding SW1 0 16 WIC-2T 
Nov 27 16:24:03.979 HYPERVISOR: exec_cmd: vm set_config SW1 configs/i1_startup-config.cfg 
Nov 27 16:24:03.981 HYPERVISOR: exec_cmd: vm set_config SW1 configs/i1_startup-config.cfg configs/i1_private-config.cfg 
Nov 27 16:24:04.213 HYPERVISOR: exec_cmd: nio create_udp udp-e594f2e0-b390-4d99-a779-ca0d74f1859b 15006 127.0.0.1 15005 
Nov 27 16:24:04.213 HYPERVISOR: exec_cmd: vm slot_add_nio_binding SW1 1 5 udp-e594f2e0-b390-4d99-a779-ca0d74f1859b 
Nov 27 16:24:04.214 HYPERVISOR: exec_cmd: vm get_status SW1 
Nov 27 16:24:04.239 HYPERVISOR: exec_cmd: nio create_udp udp-686625dd-d192-44c3-bb54-404f16995c3b 15009 127.0.0.1 15008 
Nov 27 16:24:04.240 HYPERVISOR: exec_cmd: vm slot_add_nio_binding SW1 1 6 udp-686625dd-d192-44c3-bb54-404f16995c3b 
Nov 27 16:24:04.243 HYPERVISOR: exec_cmd: vm get_status SW1 
Nov 27 16:24:04.269 HYPERVISOR: exec_cmd: nio create_udp udp-7e1950aa-e7aa-48d3-ac24-1a1ae886c830 15012 127.0.0.1 15011 
Nov 27 16:24:04.269 HYPERVISOR: exec_cmd: vm slot_add_nio_binding SW1 1 0 udp-7e1950aa-e7aa-48d3-ac24-1a1ae886c830 
Nov 27 16:24:04.272 HYPERVISOR: exec_cmd: vm get_status SW1 
Nov 27 16:24:04.288 HYPERVISOR: exec_cmd: nio create_udp udp-b2d5e5ec-546f-45b8-97b9-1d8352a1217a 15010 127.0.0.1 15013 
Nov 27 16:24:04.289 HYPERVISOR: exec_cmd: vm slot_add_nio_binding SW1 1 1 udp-b2d5e5ec-546f-45b8-97b9-1d8352a1217a 
Nov 27 16:24:04.289 HYPERVISOR: exec_cmd: vm get_status SW1 
Nov 27 16:24:18.497 HYPERVISOR: exec_cmd: vm get_status SW1 
Nov 27 16:24:18.498 HYPERVISOR: exec_cmd: vm extract_config SW1 
Nov 27 16:24:18.502 HYPERVISOR: exec_cmd: vm delete SW1 
Nov 27 16:24:18.502 VM: VM SW1 destroyed.
Nov 27 16:24:18.504 HYPERVISOR: exec_cmd: hypervisor stop 
Nov 27 16:24:18.976 HYPERVISOR: Stopped.
Nov 27 16:24:18.976 GENERAL: reset done.
