Nov 27 16:23:58.609 HYPERVISOR: Release 0.2.17-amd64/Linux (tag 2017072410)
Nov 27 16:23:58.610 HYPERVISOR: Started on IP = 127.0.0.1, TCP port = 38145.
Nov 27 16:23:58.637 HYPERVISOR: exec_cmd: hypervisor version 
Nov 27 16:23:58.638 HYPERVISOR: exec_cmd: hypervisor working_dir /media/actionmystique/SAMSUNG5-VMs/Labs/GNS3/git-Public-Labs-Collection/CCNP/TBSHOOT/L3-Technologies/IPv4/High-Availability/VRRP/Jean-Christophe_Manciot/1+/TT 2-linux/project-files/dynamips 
Nov 27 16:23:58.638 GENERAL: working_dir=/media/actionmystique/SAMSUNG5-VMs/Labs/GNS3/git-Public-Labs-Collection/CCNP/TBSHOOT/L3-Technologies/IPv4/High-Availability/VRRP/Jean-Christophe_Manciot/1+/TT 2-linux/project-files/dynamips
Nov 27 16:23:58.639 HYPERVISOR: exec_cmd: vm create SW1 1 c3725 
Nov 27 16:23:58.639 VM: VM SW1 created.
Nov 27 16:23:58.640 HYPERVISOR: exec_cmd: vm set_con_tcp_port SW1 2001 
Nov 27 16:23:58.641 HYPERVISOR: exec_cmd: c3725 get_mac_addr SW1 
Nov 27 16:23:58.642 HYPERVISOR: exec_cmd: vm set_nvram SW1 256 
Nov 27 16:23:58.643 HYPERVISOR: exec_cmd: vm get_status SW1 
Nov 27 16:23:58.644 HYPERVISOR: exec_cmd: vm set_idle_pc SW1 0x60c056e4 
Nov 27 16:23:58.645 HYPERVISOR: exec_cmd: c3725 set_mac_addr SW1 aaaa.aaaa.aaaa 
Nov 27 16:23:58.646 HYPERVISOR: exec_cmd: vm set_exec_area SW1 16 
Nov 27 16:23:58.648 HYPERVISOR: exec_cmd: vm get_status SW1 
Nov 27 16:23:58.651 HYPERVISOR: exec_cmd: vm slot_add_binding SW1 1 0 NM-16ESW 
Nov 27 16:23:58.652 HYPERVISOR: exec_cmd: vm set_ios SW1 /media/actionmystique/SAMSUNG5-VMs/Images/GNS3/IOS/c3725-adventerprisek9-mz.124-15.T10.image 
Nov 27 16:23:58.654 HYPERVISOR: exec_cmd: vm slot_add_binding SW1 0 16 WIC-2T 
Nov 27 16:23:58.655 HYPERVISOR: exec_cmd: vm set_disk0 SW1 1 
Nov 27 16:23:58.656 HYPERVISOR: exec_cmd: vm set_config SW1 configs/i1_startup-config.cfg 
Nov 27 16:23:58.657 HYPERVISOR: exec_cmd: vm set_config SW1 configs/i1_startup-config.cfg configs/i1_private-config.cfg 
Nov 27 16:23:58.781 HYPERVISOR: exec_cmd: nio create_udp udp-85ff5546-7143-4ca8-8d10-4b36721fb835 15001 127.0.0.1 15002 
Nov 27 16:23:58.781 HYPERVISOR: exec_cmd: vm slot_add_nio_binding SW1 1 6 udp-85ff5546-7143-4ca8-8d10-4b36721fb835 
Nov 27 16:23:58.782 HYPERVISOR: exec_cmd: vm get_status SW1 
Nov 27 16:23:58.855 HYPERVISOR: exec_cmd: nio create_udp udp-7b0a06df-1490-4d2b-8b88-06a5038bb226 15004 127.0.0.1 15000 
Nov 27 16:23:58.857 HYPERVISOR: exec_cmd: vm slot_add_nio_binding SW1 1 5 udp-7b0a06df-1490-4d2b-8b88-06a5038bb226 
Nov 27 16:23:58.858 HYPERVISOR: exec_cmd: vm get_status SW1 
Nov 27 16:23:58.901 HYPERVISOR: exec_cmd: nio create_udp udp-73f1a7fb-a3d8-439d-959a-f613b18662fb 15005 127.0.0.1 15007 
Nov 27 16:23:58.901 HYPERVISOR: exec_cmd: vm slot_add_nio_binding SW1 1 0 udp-73f1a7fb-a3d8-439d-959a-f613b18662fb 
Nov 27 16:23:58.902 HYPERVISOR: exec_cmd: vm get_status SW1 
Nov 27 16:23:58.941 HYPERVISOR: exec_cmd: nio create_udp udp-80a61562-ae2c-4864-ab70-8de78c02ca18 15009 127.0.0.1 15011 
Nov 27 16:23:58.941 HYPERVISOR: exec_cmd: vm slot_add_nio_binding SW1 1 1 udp-80a61562-ae2c-4864-ab70-8de78c02ca18 
Nov 27 16:23:58.942 HYPERVISOR: exec_cmd: vm get_status SW1 
