Nov 27 16:23:58.627 HYPERVISOR: Release 0.2.17-amd64/Linux (tag 2017072410)
Nov 27 16:23:58.627 HYPERVISOR: Started on IP = 127.0.0.1, TCP port = 48209.
Nov 27 16:23:58.637 HYPERVISOR: exec_cmd: hypervisor version 
Nov 27 16:23:58.638 HYPERVISOR: exec_cmd: hypervisor working_dir /media/actionmystique/SAMSUNG5-VMs/Labs/GNS3/git-Public-Labs-Collection/CCNP/TBSHOOT/L3-Technologies/IPv4/High-Availability/VRRP/Jean-Christophe_Manciot/1+/TT 2-linux/project-files/dynamips 
Nov 27 16:23:58.638 GENERAL: working_dir=/media/actionmystique/SAMSUNG5-VMs/Labs/GNS3/git-Public-Labs-Collection/CCNP/TBSHOOT/L3-Technologies/IPv4/High-Availability/VRRP/Jean-Christophe_Manciot/1+/TT 2-linux/project-files/dynamips
Nov 27 16:23:58.639 HYPERVISOR: exec_cmd: vm create SW3 3 c3725 
Nov 27 16:23:58.639 VM: VM SW3 created.
Nov 27 16:23:58.640 HYPERVISOR: exec_cmd: vm set_con_tcp_port SW3 2003 
Nov 27 16:23:58.640 HYPERVISOR: exec_cmd: c3725 get_mac_addr SW3 
Nov 27 16:23:58.641 HYPERVISOR: exec_cmd: vm set_nvram SW3 256 
Nov 27 16:23:58.642 HYPERVISOR: exec_cmd: vm get_status SW3 
Nov 27 16:23:58.643 HYPERVISOR: exec_cmd: vm set_idle_pc SW3 0x60c056e4 
Nov 27 16:23:58.644 HYPERVISOR: exec_cmd: c3725 set_mac_addr SW3 cccc.cccc.cccc 
Nov 27 16:23:58.645 HYPERVISOR: exec_cmd: vm set_exec_area SW3 16 
Nov 27 16:23:58.648 HYPERVISOR: exec_cmd: vm get_status SW3 
Nov 27 16:23:58.650 HYPERVISOR: exec_cmd: vm slot_add_binding SW3 1 0 NM-16ESW 
Nov 27 16:23:58.652 HYPERVISOR: exec_cmd: vm set_ios SW3 /media/actionmystique/SAMSUNG5-VMs/Images/GNS3/IOS/c3725-adventerprisek9-mz.124-15.T10.image 
Nov 27 16:23:58.654 HYPERVISOR: exec_cmd: vm slot_add_binding SW3 0 16 WIC-2T 
Nov 27 16:23:58.655 HYPERVISOR: exec_cmd: vm set_disk0 SW3 1 
Nov 27 16:23:58.656 HYPERVISOR: exec_cmd: vm set_config SW3 configs/i3_startup-config.cfg 
Nov 27 16:23:58.657 HYPERVISOR: exec_cmd: vm set_config SW3 configs/i3_startup-config.cfg configs/i3_private-config.cfg 
Nov 27 16:23:58.801 HYPERVISOR: exec_cmd: nio create_udp udp-855b190c-5760-4291-b651-eebc5bf0eef7 15002 127.0.0.1 15001 
Nov 27 16:23:58.802 HYPERVISOR: exec_cmd: vm slot_add_nio_binding SW3 1 6 udp-855b190c-5760-4291-b651-eebc5bf0eef7 
Nov 27 16:23:58.802 HYPERVISOR: exec_cmd: vm get_status SW3 
Nov 27 16:23:58.853 HYPERVISOR: exec_cmd: nio create_udp udp-e2f8b047-e11b-4530-b611-ceaae80110c3 15000 127.0.0.1 15004 
Nov 27 16:23:58.857 HYPERVISOR: exec_cmd: vm slot_add_nio_binding SW3 1 5 udp-e2f8b047-e11b-4530-b611-ceaae80110c3 
Nov 27 16:23:58.858 HYPERVISOR: exec_cmd: vm get_status SW3 
Nov 27 16:23:58.873 HYPERVISOR: exec_cmd: nio create_udp udp-92623f39-4c26-4678-90a5-aa877c0814ce 15006 127.0.0.1 15003 
Nov 27 16:23:58.873 HYPERVISOR: exec_cmd: vm slot_add_nio_binding SW3 1 1 udp-92623f39-4c26-4678-90a5-aa877c0814ce 
Nov 27 16:23:58.874 HYPERVISOR: exec_cmd: vm get_status SW3 
Nov 27 16:23:58.961 HYPERVISOR: exec_cmd: nio create_udp udp-3cc8f5ef-595d-48c5-a811-c8c3760ea79b 15012 127.0.0.1 15013 
Nov 27 16:23:58.961 HYPERVISOR: exec_cmd: vm slot_add_nio_binding SW3 1 2 udp-3cc8f5ef-595d-48c5-a811-c8c3760ea79b 
Nov 27 16:23:58.962 HYPERVISOR: exec_cmd: vm get_status SW3 
