Nov 29 15:26:20.191 HYPERVISOR: Release 0.2.17-amd64/Linux (tag 2017072410)
Nov 29 15:26:20.191 HYPERVISOR: Started on IP = 127.0.0.1, TCP port = 49365.
Nov 29 15:26:20.228 HYPERVISOR: exec_cmd: hypervisor version 
Nov 29 15:26:20.228 HYPERVISOR: exec_cmd: hypervisor working_dir /media/actionmystique/SAMSUNG5-VMs/Labs/GNS3/TT 3-linux-/project-files/dynamips 
Nov 29 15:26:20.228 GENERAL: working_dir=/media/actionmystique/SAMSUNG5-VMs/Labs/GNS3/TT 3-linux-/project-files/dynamips
Nov 29 15:26:20.229 HYPERVISOR: exec_cmd: vm create ESW1 1 c3725 
Nov 29 15:26:20.229 VM: VM ESW1 created.
Nov 29 15:26:20.229 HYPERVISOR: exec_cmd: vm set_con_tcp_port ESW1 2004 
Nov 29 15:26:20.229 HYPERVISOR: exec_cmd: c3725 get_mac_addr ESW1 
Nov 29 15:26:20.230 HYPERVISOR: exec_cmd: vm get_status ESW1 
Nov 29 15:26:20.230 HYPERVISOR: exec_cmd: vm slot_add_binding ESW1 1 0 NM-16ESW 
Nov 29 15:26:20.230 HYPERVISOR: exec_cmd: c3725 set_mac_addr ESW1 c201.1b91.0000 
Nov 29 15:26:20.231 HYPERVISOR: exec_cmd: vm set_disk0 ESW1 1 
Nov 29 15:26:20.231 HYPERVISOR: exec_cmd: vm set_nvram ESW1 256 
Nov 29 15:26:20.232 HYPERVISOR: exec_cmd: vm set_ios ESW1 /media/actionmystique/SAMSUNG5-VMs/Images/GNS3/IOS/c3725-adventerprisek9-mz.124-15.T10.image 
Nov 29 15:26:20.232 HYPERVISOR: exec_cmd: vm get_status ESW1 
Nov 29 15:26:20.232 HYPERVISOR: exec_cmd: vm set_idle_pc ESW1 0x614ac27c 
Nov 29 15:26:20.233 HYPERVISOR: exec_cmd: vm slot_add_binding ESW1 0 16 WIC-2T 
Nov 29 15:26:20.233 HYPERVISOR: exec_cmd: vm set_config ESW1 configs/ios_base_startup-config.txt 
Nov 29 15:26:20.234 HYPERVISOR: exec_cmd: vm set_config ESW1 configs/ios_base_startup-config.txt configs/ios_base_private-config.txt 
Nov 29 15:26:20.546 HYPERVISOR: exec_cmd: nio create_udp udp-0b8a7242-c818-4eca-a2b1-1cda29808c13 15007 127.0.0.1 15003 
Nov 29 15:26:20.550 HYPERVISOR: exec_cmd: vm slot_add_nio_binding ESW1 1 0 udp-0b8a7242-c818-4eca-a2b1-1cda29808c13 
Nov 29 15:26:20.551 HYPERVISOR: exec_cmd: vm get_status ESW1 
Nov 29 15:26:20.590 HYPERVISOR: exec_cmd: nio create_udp udp-af0a8a44-04cb-4c5d-9785-f8ced8a8a11b 15009 127.0.0.1 15008 
Nov 29 15:26:20.591 HYPERVISOR: exec_cmd: vm slot_add_nio_binding ESW1 1 1 udp-af0a8a44-04cb-4c5d-9785-f8ced8a8a11b 
Nov 29 15:26:20.591 HYPERVISOR: exec_cmd: vm get_status ESW1 
Nov 29 15:26:36.533 HYPERVISOR: exec_cmd: vm get_status ESW1 
Nov 29 15:26:36.537 HYPERVISOR: exec_cmd: vm extract_config ESW1 
Nov 29 15:26:36.539 HYPERVISOR: exec_cmd: vm delete ESW1 
Nov 29 15:26:36.539 VM: VM ESW1 destroyed.
Nov 29 15:26:36.541 HYPERVISOR: exec_cmd: hypervisor stop 
Nov 29 15:26:36.745 HYPERVISOR: Stopped.
Nov 29 15:26:36.745 GENERAL: reset done.
