Nov 29 15:26:12.453 HYPERVISOR: Release 0.2.17-amd64/Linux (tag 2017072410)
Nov 29 15:26:12.453 HYPERVISOR: Started on IP = 127.0.0.1, TCP port = 51673.
Nov 29 15:26:12.481 HYPERVISOR: exec_cmd: hypervisor version 
Nov 29 15:26:12.483 HYPERVISOR: exec_cmd: hypervisor working_dir /media/actionmystique/SAMSUNG5-VMs/Labs/GNS3/git-Public-Labs-Collection/CCNP/TBSHOOT/L3-Technologies/IPv4/Routing-Protocols/Redistribution/Jean-Christophe_Manciot/1+/TT 3-linux/project-files/dynamips 
Nov 29 15:26:12.483 GENERAL: working_dir=/media/actionmystique/SAMSUNG5-VMs/Labs/GNS3/git-Public-Labs-Collection/CCNP/TBSHOOT/L3-Technologies/IPv4/Routing-Protocols/Redistribution/Jean-Christophe_Manciot/1+/TT 3-linux/project-files/dynamips
Nov 29 15:26:12.484 HYPERVISOR: exec_cmd: vm create ESW2 2 c3725 
Nov 29 15:26:12.484 VM: VM ESW2 created.
Nov 29 15:26:12.485 HYPERVISOR: exec_cmd: vm set_con_tcp_port ESW2 2005 
Nov 29 15:26:12.486 HYPERVISOR: exec_cmd: c3725 get_mac_addr ESW2 
Nov 29 15:26:12.487 HYPERVISOR: exec_cmd: vm get_status ESW2 
Nov 29 15:26:12.488 HYPERVISOR: exec_cmd: vm set_idle_pc ESW2 0x614ac27c 
Nov 29 15:26:12.495 HYPERVISOR: exec_cmd: vm set_disk0 ESW2 1 
Nov 29 15:26:12.502 HYPERVISOR: exec_cmd: vm slot_add_binding ESW2 0 16 WIC-2T 
Nov 29 15:26:12.504 HYPERVISOR: exec_cmd: vm get_status ESW2 
Nov 29 15:26:12.505 HYPERVISOR: exec_cmd: vm slot_add_binding ESW2 1 0 NM-16ESW 
Nov 29 15:26:12.505 HYPERVISOR: exec_cmd: vm set_nvram ESW2 256 
Nov 29 15:26:12.506 HYPERVISOR: exec_cmd: vm set_ios ESW2 /media/actionmystique/SAMSUNG5-VMs/Images/GNS3/IOS/c3725-adventerprisek9-mz.124-15.T10.image 
Nov 29 15:26:12.507 HYPERVISOR: exec_cmd: c3725 set_mac_addr ESW2 c202.1bd4.0000 
Nov 29 15:26:12.508 HYPERVISOR: exec_cmd: vm set_config ESW2 configs/ios_base_startup-config.txt 
Nov 29 15:26:12.508 HYPERVISOR: exec_cmd: vm set_config ESW2 configs/ios_base_startup-config.txt configs/ios_base_private-config.txt 
Nov 29 15:26:12.844 HYPERVISOR: exec_cmd: nio create_udp udp-ad6832df-84d3-4357-ab67-37065b227cf5 15015 127.0.0.1 15014 
Nov 29 15:26:12.845 HYPERVISOR: exec_cmd: vm slot_add_nio_binding ESW2 1 0 udp-ad6832df-84d3-4357-ab67-37065b227cf5 
Nov 29 15:26:12.846 HYPERVISOR: exec_cmd: vm get_status ESW2 
