Nov 27 15:45:57.825 HYPERVISOR: Release 0.2.17-amd64/Linux (tag 2017072410)
Nov 27 15:45:57.825 HYPERVISOR: Started on IP = 127.0.0.1, TCP port = 45089.
Nov 27 15:45:57.843 HYPERVISOR: exec_cmd: hypervisor version 
Nov 27 15:45:57.845 HYPERVISOR: exec_cmd: hypervisor working_dir /media/actionmystique/SAMSUNG5-VMs/Labs/GNS3/git-Public-Labs-Collection/CCNP/TBSHOOT/L2-Technologies/EtherChannel/L2/Jean-Christophe_Manciot/1+/TT 2-linux/project-files/dynamips 
Nov 27 15:45:57.845 GENERAL: working_dir=/media/actionmystique/SAMSUNG5-VMs/Labs/GNS3/git-Public-Labs-Collection/CCNP/TBSHOOT/L2-Technologies/EtherChannel/L2/Jean-Christophe_Manciot/1+/TT 2-linux/project-files/dynamips
Nov 27 15:45:57.846 HYPERVISOR: exec_cmd: vm create SW3 3 c3725 
Nov 27 15:45:57.846 VM: VM SW3 created.
Nov 27 15:45:57.847 HYPERVISOR: exec_cmd: vm set_con_tcp_port SW3 2003 
Nov 27 15:45:57.848 HYPERVISOR: exec_cmd: c3725 get_mac_addr SW3 
Nov 27 15:45:57.849 HYPERVISOR: exec_cmd: c3725 set_mac_addr SW3 cccc.cccc.cccc 
Nov 27 15:45:57.850 HYPERVISOR: exec_cmd: vm get_status SW3 
Nov 27 15:45:57.851 HYPERVISOR: exec_cmd: vm set_idle_pc SW3 0x614ac2c4 
Nov 27 15:45:57.852 HYPERVISOR: exec_cmd: vm slot_add_binding SW3 0 16 WIC-2T 
Nov 27 15:45:57.854 HYPERVISOR: exec_cmd: vm set_ios SW3 /media/actionmystique/SAMSUNG5-VMs/Images/GNS3/IOS/c3725-adventerprisek9-mz.124-15.T10.image 
Nov 27 15:45:57.855 HYPERVISOR: exec_cmd: vm set_nvram SW3 256 
Nov 27 15:45:57.856 HYPERVISOR: exec_cmd: vm get_status SW3 
Nov 27 15:45:57.857 HYPERVISOR: exec_cmd: vm slot_add_binding SW3 1 0 NM-16ESW 
Nov 27 15:45:57.859 HYPERVISOR: exec_cmd: vm set_exec_area SW3 16 
Nov 27 15:45:57.861 HYPERVISOR: exec_cmd: vm set_disk0 SW3 1 
Nov 27 15:45:57.863 HYPERVISOR: exec_cmd: vm set_config SW3 configs/i3_startup-config.cfg 
Nov 27 15:45:57.865 HYPERVISOR: exec_cmd: vm set_config SW3 configs/i3_startup-config.cfg configs/i3_private-config.cfg 
Nov 27 15:45:57.910 HYPERVISOR: exec_cmd: nio create_null null-1b5a587a-6477-4377-9051-9e519bb20778 
Nov 27 15:45:57.912 HYPERVISOR: exec_cmd: vm slot_add_nio_binding SW3 1 0 null-1b5a587a-6477-4377-9051-9e519bb20778 
Nov 27 15:45:57.914 HYPERVISOR: exec_cmd: vm get_status SW3 
Nov 27 15:45:58.050 HYPERVISOR: exec_cmd: nio create_udp udp-c2e650e3-c5f6-4f1a-b8ec-488023a8fdd4 15001 127.0.0.1 15003 
Nov 27 15:45:58.052 HYPERVISOR: exec_cmd: vm slot_add_nio_binding SW3 1 2 udp-c2e650e3-c5f6-4f1a-b8ec-488023a8fdd4 
Nov 27 15:45:58.052 HYPERVISOR: exec_cmd: vm get_status SW3 
Nov 27 15:45:58.092 HYPERVISOR: exec_cmd: nio create_udp udp-90ec6921-975a-4d3b-b475-51552a16ffc9 15004 127.0.0.1 15005 
Nov 27 15:45:58.096 HYPERVISOR: exec_cmd: vm slot_add_nio_binding SW3 1 6 udp-90ec6921-975a-4d3b-b475-51552a16ffc9 
Nov 27 15:45:58.097 HYPERVISOR: exec_cmd: vm get_status SW3 
Nov 27 15:45:58.106 HYPERVISOR: exec_cmd: nio create_udp udp-cbd53408-fcf3-48f2-ae91-9ee0151d7797 15006 127.0.0.1 15007 
Nov 27 15:45:58.106 HYPERVISOR: exec_cmd: vm slot_add_nio_binding SW3 1 5 udp-cbd53408-fcf3-48f2-ae91-9ee0151d7797 
Nov 27 15:45:58.107 HYPERVISOR: exec_cmd: vm get_status SW3 
