Nov 29 15:33:59.862 HYPERVISOR: Release 0.2.17-amd64/Linux (tag 2017072410)
Nov 29 15:33:59.862 HYPERVISOR: Started on IP = 127.0.0.1, TCP port = 43235.
Nov 29 15:33:59.870 HYPERVISOR: exec_cmd: hypervisor version 
Nov 29 15:33:59.870 HYPERVISOR: exec_cmd: hypervisor working_dir /media/actionmystique/SAMSUNG5-VMs/Labs/GNS3/git-Public-Labs-Collection/CCNP/TBSHOOT/L3-Technologies/IPv4/VRF/Jean-Christophe_Manciot/1+/Leaf & Spine DC-1-solutions-linux/project-files/dynamips 
Nov 29 15:33:59.870 GENERAL: working_dir=/media/actionmystique/SAMSUNG5-VMs/Labs/GNS3/git-Public-Labs-Collection/CCNP/TBSHOOT/L3-Technologies/IPv4/VRF/Jean-Christophe_Manciot/1+/Leaf & Spine DC-1-solutions-linux/project-files/dynamips
Nov 29 15:33:59.871 HYPERVISOR: exec_cmd: vm create Mgt 1 c3725 
Nov 29 15:33:59.871 VM: VM Mgt created.
Nov 29 15:33:59.871 HYPERVISOR: exec_cmd: vm set_con_tcp_port Mgt 2011 
Nov 29 15:33:59.871 HYPERVISOR: exec_cmd: c3725 get_mac_addr Mgt 
Nov 29 15:33:59.872 HYPERVISOR: exec_cmd: vm set_nvram Mgt 256 
Nov 29 15:33:59.872 HYPERVISOR: exec_cmd: vm slot_add_binding Mgt 0 16 WIC-2T 
Nov 29 15:33:59.872 HYPERVISOR: exec_cmd: c3725 set_mac_addr Mgt c201.1066.0000 
Nov 29 15:33:59.873 HYPERVISOR: exec_cmd: vm set_disk0 Mgt 1 
Nov 29 15:33:59.873 HYPERVISOR: exec_cmd: vm set_ios Mgt /media/actionmystique/SAMSUNG5-VMs/Images/GNS3/IOS/c3725-adventerprisek9-mz.124-15.T10.image 
Nov 29 15:33:59.876 HYPERVISOR: exec_cmd: vm get_status Mgt 
Nov 29 15:33:59.877 HYPERVISOR: exec_cmd: vm set_idle_pc Mgt 0x6026b804 
Nov 29 15:33:59.878 HYPERVISOR: exec_cmd: vm get_status Mgt 
Nov 29 15:33:59.878 HYPERVISOR: exec_cmd: vm slot_add_binding Mgt 1 0 NM-16ESW 
Nov 29 15:33:59.879 HYPERVISOR: exec_cmd: vm set_config Mgt configs/i1_startup-config.cfg 
Nov 29 15:33:59.881 HYPERVISOR: exec_cmd: vm set_config Mgt configs/i1_startup-config.cfg configs/i1_private-config.cfg 
Nov 29 15:34:00.912 HYPERVISOR: exec_cmd: nio create_udp udp-b1e5b6a4-e104-415b-84aa-2f466dddd5f9 15058 127.0.0.1 15059 
Nov 29 15:34:00.913 HYPERVISOR: exec_cmd: vm slot_add_nio_binding Mgt 1 5 udp-b1e5b6a4-e104-415b-84aa-2f466dddd5f9 
Nov 29 15:34:00.913 HYPERVISOR: exec_cmd: vm get_status Mgt 
Nov 29 15:34:00.932 HYPERVISOR: exec_cmd: nio create_udp udp-be06da02-6bec-42f8-a742-342dc66235b5 15060 127.0.0.1 15061 
Nov 29 15:34:00.933 HYPERVISOR: exec_cmd: vm slot_add_nio_binding Mgt 1 6 udp-be06da02-6bec-42f8-a742-342dc66235b5 
Nov 29 15:34:00.933 HYPERVISOR: exec_cmd: vm get_status Mgt 
Nov 29 15:34:00.945 HYPERVISOR: exec_cmd: nio create_udp udp-4a3d3a58-8e73-4d6e-b26d-94bf34fce5ea 15062 127.0.0.1 15063 
Nov 29 15:34:00.946 HYPERVISOR: exec_cmd: vm slot_add_nio_binding Mgt 1 1 udp-4a3d3a58-8e73-4d6e-b26d-94bf34fce5ea 
Nov 29 15:34:00.946 HYPERVISOR: exec_cmd: vm get_status Mgt 
Nov 29 15:34:00.973 HYPERVISOR: exec_cmd: nio create_udp udp-867e8097-f4dc-4e7b-9729-ce625e2b3ff8 15064 127.0.0.1 15065 
Nov 29 15:34:00.973 HYPERVISOR: exec_cmd: vm slot_add_nio_binding Mgt 1 2 udp-867e8097-f4dc-4e7b-9729-ce625e2b3ff8 
Nov 29 15:34:00.974 HYPERVISOR: exec_cmd: vm get_status Mgt 
Nov 29 15:34:00.992 HYPERVISOR: exec_cmd: nio create_udp udp-ffb6c93d-e7b1-41e4-b203-4a5eb33fb9cc 15066 127.0.0.1 15067 
Nov 29 15:34:00.992 HYPERVISOR: exec_cmd: vm slot_add_nio_binding Mgt 1 3 udp-ffb6c93d-e7b1-41e4-b203-4a5eb33fb9cc 
Nov 29 15:34:00.992 HYPERVISOR: exec_cmd: vm get_status Mgt 
Nov 29 15:34:01.009 HYPERVISOR: exec_cmd: nio create_udp udp-60aa5c33-ed1b-49c1-95b6-c21a4968d2b9 15068 127.0.0.1 15069 
Nov 29 15:34:01.009 HYPERVISOR: exec_cmd: vm slot_add_nio_binding Mgt 1 4 udp-60aa5c33-ed1b-49c1-95b6-c21a4968d2b9 
Nov 29 15:34:01.009 HYPERVISOR: exec_cmd: vm get_status Mgt 
Nov 29 15:34:01.032 HYPERVISOR: exec_cmd: nio create_udp udp-e9602175-1db4-4713-b0c7-f66aae095d63 15070 127.0.0.1 15071 
Nov 29 15:34:01.033 HYPERVISOR: exec_cmd: vm slot_add_nio_binding Mgt 1 11 udp-e9602175-1db4-4713-b0c7-f66aae095d63 
Nov 29 15:34:01.033 HYPERVISOR: exec_cmd: vm get_status Mgt 
Nov 29 15:34:01.048 HYPERVISOR: exec_cmd: nio create_udp udp-8c150fc6-af86-47d4-b7fb-500147647936 15072 127.0.0.1 15073 
Nov 29 15:34:01.049 HYPERVISOR: exec_cmd: vm slot_add_nio_binding Mgt 1 12 udp-8c150fc6-af86-47d4-b7fb-500147647936 
Nov 29 15:34:01.049 HYPERVISOR: exec_cmd: vm get_status Mgt 
Nov 29 15:34:06.342 HYPERVISOR: exec_cmd: nio create_tap tap-f9376c5e-487f-46da-998b-d05accad7abe tap1 
Nov 29 15:34:06.342 HYPERVISOR: exec_cmd: vm slot_add_nio_binding Mgt 1 0 tap-f9376c5e-487f-46da-998b-d05accad7abe 
Nov 29 15:34:06.343 HYPERVISOR: exec_cmd: vm get_status Mgt 
