autostart = False
[localhost:7202]
    workingdir = working
    udp = 10200
    [[3725]]
        image = /home/joshua/gns3/images/ios-3725/c3725-advipservicesk9-mz.124-15.T14.bin
        ram = 256
        idlepc = 0x60bbf000
        ghostios = True
    [[ROUTER ISP2_R2]]
        model = 3725
        console = 2025
        aux = 2124
        cnfg = configs/ISP2_R2.cfg
        wic0/0 = WIC-2T
        wic0/1 = WIC-2T
        wic0/2 = WIC-2T
        s0/0 = ISP1_R1 s0/0
        s0/1 = ISP1_R1 s0/1
        s0/2 = ISP4_R1 s0/2
        f0/0 = ISP2_R1 f0/0
        f0/1 = ISP2_R5 f0/1
        slot1 = NM-1FE-TX
        f1/0 = ISP2_R3 f0/1
        slot2 = NM-1FE-TX
        x = -1341.79898987
        y = 90.0
    [[ROUTER ISP2_R3]]
        model = 3725
        console = 2024
        aux = 2123
        cnfg = configs/ISP2_R3.cfg
        wic0/0 = WIC-2T
        wic0/1 = WIC-2T
        wic0/2 = WIC-2T
        f0/0 = ISP2_R1 f1/0
        f0/1 = ISP2_R2 f1/0
        slot1 = NM-1FE-TX
        f1/0 = ISP2_R5 f1/0
        slot2 = NM-1FE-TX
        f2/0 = ISP2_R4 f1/0
        x = -1346.79898987
        y = 314.0
    [[ROUTER ISP3_R4]]
        model = 3725
        console = 2009
        aux = 2100
        wic0/0 = WIC-2T
        wic0/1 = WIC-2T
        wic0/2 = WIC-2T
        s0/0 = C_R2 s0/0
        f0/0 = ISP3_R5 f0/0
        f0/1 = ISP3_R1 f0/1
        slot1 = NM-1FE-TX
        f1/0 = ISP3_R3 f2/0
        slot2 = NM-1FE-TX
        x = -254.220346111
        y = 546.230447378
    [[ROUTER ISP3_R1]]
        model = 3725
        console = 2010
        aux = 2101
        wic0/0 = WIC-2T
        wic0/1 = WIC-2T
        wic0/2 = WIC-2T
        s0/2 = ISP1_R4 s0/2
        s0/3 = ISP1_R4 s0/3
        f0/0 = ISP3_R2 f0/0
        f0/1 = ISP3_R4 f0/1
        slot1 = NM-1FE-TX
        f1/0 = ISP3_R3 f0/0
        slot2 = NM-1FE-TX
        x = -520.220346111
        y = 306.230447378
    [[ROUTER A_R2]]
        model = 3725
        console = 2022
        aux = 2102
        cnfg = configs/A_R2.cfg
        wic0/0 = WIC-2T
        wic0/1 = WIC-2T
        wic0/2 = WIC-2T
        f0/0 = A_R1 f0/0
        slot1 = NM-1FE-TX
        f1/0 = A_R3 f1/0
        slot2 = NM-1FE-TX
        x = -1606.07647738
        y = -440.12279964
    [[ROUTER A_R3]]
        model = 3725
        console = 2023
        aux = 2103
        cnfg = configs/A_R3.cfg
        wic0/0 = WIC-2T
        wic0/1 = WIC-2T
        wic0/2 = WIC-2T
        f0/1 = A_R1 f0/1
        slot1 = NM-1FE-TX
        f1/0 = A_R2 f1/0
        slot2 = NM-1FE-TX
        f2/0 = ISP2_R1 f2/0
        x = -1542.48354827
        y = -127.931890781
    [[ROUTER D_R2]]
        model = 3725
        console = 2027
        aux = 2127
        cnfg = configs/D_R2.cfg
        wic0/0 = WIC-2T
        wic0/1 = WIC-2T
        wic0/2 = WIC-2T
        f0/0 = SW1 3
        slot1 = NM-1FE-TX
        slot2 = NM-1FE-TX
        x = 515.714862201
        y = 307.511760033
[localhost:7203]
    workingdir = working
    udp = 10300
    [[3725]]
        image = /home/joshua/gns3/images/ios-3725/c3725-advipservicesk9-mz.124-15.T14.bin
        ram = 256
        idlepc = 0x60bbf000
        ghostios = True
    [[ROUTER ISP2_R5]]
        model = 3725
        console = 2028
        aux = 2128
        cnfg = configs/ISP2_R5.cfg
        wic0/0 = WIC-2T
        wic0/1 = WIC-2T
        wic0/2 = WIC-2T
        s0/4 = ISP1_R4 s0/4
        s0/5 = ISP1_R4 s0/5
        f0/0 = ISP2_R4 f0/0
        f0/1 = ISP2_R2 f0/1
        slot1 = NM-1FE-TX
        f1/0 = ISP2_R3 f1/0
        slot2 = NM-1FE-TX
        x = -1081.8023074
        y = 315.976226127
    [[ROUTER ISP2_R1]]
        model = 3725
        console = 2025
        aux = 2125
        cnfg = configs/ISP2_R1.cfg
        wic0/0 = WIC-2T
        wic0/1 = WIC-2T
        wic0/2 = WIC-2T
        s0/0 = ISP4_R1 s0/0
        f0/0 = ISP2_R2 f0/0
        f0/1 = ISP2_R4 f0/1
        slot1 = NM-1FE-TX
        f1/0 = ISP2_R3 f0/0
        slot2 = NM-1FE-TX
        f2/0 = A_R3 f2/0
        x = -1614.79898987
        y = 317.0
    [[ROUTER E_R1]]
        model = 3725
        console = 2045
        aux = 2145
        cnfg = configs/E_R1.cfg
        wic0/0 = WIC-2T
        wic0/1 = WIC-2T
        wic0/2 = WIC-2T
        s0/5 = ISP4_R1 s0/5
        slot1 = NM-1FE-TX
        slot2 = NM-1FE-TX
        x = -2120.79898987
        y = 304.0
    [[ROUTER B_R2]]
        model = 3725
        console = 2015
        aux = 2107
        cnfg = configs/B_R2.cfg
        wic0/0 = WIC-2T
        wic0/1 = WIC-2T
        wic0/2 = WIC-2T
        s0/0 = ISP1_R5 s0/0
        f0/0 = B_R1 f0/0
        slot1 = NM-1FE-TX
        slot2 = NM-1FE-TX
        x = -294.101730553
        y = -341.147186257
    [[ROUTER B_R1]]
        model = 3725
        console = 2014
        aux = 2104
        cnfg = configs/B_R1.cfg
        wic0/0 = WIC-2T
        wic0/1 = WIC-2T
        wic0/2 = WIC-2T
        s0/0 = ISP1_R2 s0/0
        f0/0 = B_R2 f0/0
        slot1 = NM-1FE-TX
        slot2 = NM-1FE-TX
        x = -553.415439052
        y = -535.497474683
[localhost:7200]
    workingdir = working
    udp = 10000
    [[3725]]
        image = /home/joshua/gns3/images/ios-3725/c3725-advipservicesk9-mz.124-15.T14.bin
        ram = 256
        idlepc = 0x60bbf000
        ghostios = True
    [[ROUTER ISP2_R4]]
        model = 3725
        console = 2027
        aux = 2127
        cnfg = configs/ISP2_R4.cfg
        wic0/0 = WIC-2T
        wic0/1 = WIC-2T
        wic0/2 = WIC-2T
        s0/0 = C_R1 s0/0
        f0/0 = ISP2_R5 f0/0
        f0/1 = ISP2_R1 f0/1
        slot1 = NM-1FE-TX
        f1/0 = ISP2_R3 f2/0
        slot2 = NM-1FE-TX
        x = -1346.79898987
        y = 558.0
        hx = 0.5
        hy = -27.0
    [[ROUTER C_R3]]
        model = 3725
        console = 2020
        aux = 2108
        cnfg = configs/C_R3.cfg
        wic0/0 = WIC-2T
        wic0/1 = WIC-2T
        wic0/2 = WIC-2T
        f0/1 = C_R1 f0/1
        slot1 = NM-1FE-TX
        f1/0 = C_R2 f1/0
        slot2 = NM-1FE-TX
        x = -787.343145751
        y = 951.0
    [[ROUTER ISP1_R5]]
        model = 3725
        console = 2000
        aux = 2109
        cnfg = configs/ISP1_R5.cfg
        wic0/0 = WIC-2T
        wic0/1 = WIC-2T
        wic0/2 = WIC-2T
        s0/0 = B_R2 s0/0
        f0/0 = ISP1_R4 f0/0
        f0/1 = ISP1_R2 f0/1
        slot1 = NM-1FE-TX
        f1/0 = ISP1_R3 f1/0
        slot2 = NM-1FE-TX
        f2/0 = ISP3_R2 f2/0
        x = -545.806132548
        y = -103.627416998
    [[ROUTER ISP1_R1]]
        model = 3725
        console = 2003
        aux = 2110
        cnfg = configs/ISP1_R1.cfg
        wic0/0 = WIC-2T
        wic0/1 = WIC-2T
        wic0/2 = WIC-2T
        s0/0 = ISP2_R2 s0/0
        s0/1 = ISP2_R2 s0/1
        f0/0 = ISP1_R2 f0/0
        f0/1 = ISP1_R4 f0/1
        slot1 = NM-1FE-TX
        f1/0 = ISP1_R3 f0/0
        slot2 = NM-1FE-TX
        x = -1089.80613255
        y = -104.627416998
    [[ROUTER A_R1]]
        model = 3725
        console = 2021
        aux = 2111
        cnfg = configs/A_R1.cfg
        wic0/0 = WIC-2T
        wic0/1 = WIC-2T
        wic0/2 = WIC-2T
        f0/0 = A_R2 f0/0
        f0/1 = A_R3 f0/1
        slot1 = NM-1FE-TX
        slot2 = NM-1FE-TX
        f2/0 = ISP1_R2 f2/0
        x = -1274.97388028
        y = -334.649711575
[localhost:7201]
    workingdir = working
    udp = 10100
    [[3725]]
        image = /home/joshua/gns3/images/ios-3725/c3725-advipservicesk9-mz.124-15.T14.bin
        ram = 256
        idlepc = 0x60bbf000
        ghostios = True
    [[ROUTER ISP3_R5]]
        model = 3725
        console = 2007
        aux = 2113
        cnfg = configs/ISP3_R5.cfg
        wic0/0 = WIC-2T
        wic0/1 = WIC-2T
        wic0/2 = WIC-2T
        f0/0 = ISP3_R4 f0/0
        f0/1 = ISP3_R2 f0/1
        slot1 = NM-1FE-TX
        f1/0 = ISP3_R3 f1/0
        slot2 = NM-1FE-TX
        f2/0 = SW1 1
        x = 18.779653889
        y = 304.230447378
    [[ROUTER ISP3_R2]]
        model = 3725
        console = 2006
        aux = 2115
        cnfg = configs/ISP3_R2.cfg
        wic0/0 = WIC-2T
        wic0/1 = WIC-2T
        wic0/2 = WIC-2T
        f0/0 = ISP3_R1 f0/0
        f0/1 = ISP3_R5 f0/1
        slot1 = NM-1FE-TX
        f1/0 = ISP3_R3 f0/1
        slot2 = NM-1FE-TX
        f2/0 = ISP1_R5 f2/0
        x = -249.220346111
        y = 82.230447378
    [[ROUTER ISP1_R4]]
        model = 3725
        console = 2004
        aux = 2112
        cnfg = configs/ISP1_R4.cfg
        wic0/0 = WIC-2T
        wic0/1 = WIC-2T
        wic0/2 = WIC-2T
        s0/2 = ISP3_R1 s0/2
        s0/3 = ISP3_R1 s0/3
        s0/4 = ISP2_R5 s0/4
        s0/5 = ISP2_R5 s0/5
        f0/0 = ISP1_R5 f0/0
        f0/1 = ISP1_R1 f0/1
        slot1 = NM-1FE-TX
        f1/0 = ISP1_R3 f2/0
        slot2 = NM-1FE-TX
        x = -818.806132548
        y = 141.372583002
    [[ROUTER ISP1_R2]]
        model = 3725
        console = 2005
        aux = 2114
        cnfg = configs/ISP1_R2.cfg
        wic0/0 = WIC-2T
        wic0/1 = WIC-2T
        wic0/2 = WIC-2T
        s0/0 = B_R1 s0/0
        f0/0 = ISP1_R1 f0/0
        f0/1 = ISP1_R5 f0/1
        slot1 = NM-1FE-TX
        f1/0 = ISP1_R3 f0/1
        slot2 = NM-1FE-TX
        f2/0 = A_R1 f2/0
        x = -810.806132548
        y = -326.627416998
[localhost:7204]
    workingdir = working
    udp = 10400
    [[3725]]
        image = /home/joshua/gns3/images/ios-3725/c3725-advipservicesk9-mz.124-15.T14.bin
        ram = 256
        idlepc = 0x60bbf000
        ghostios = True
    [[ROUTER C_R1]]
        model = 3725
        console = 2017
        aux = 2116
        wic0/0 = WIC-2T
        wic0/1 = WIC-2T
        wic0/2 = WIC-2T
        s0/0 = ISP2_R4 s0/0
        f0/0 = C_R2 f0/0
        f0/1 = C_R3 f0/1
        slot1 = NM-1FE-TX
        slot2 = NM-1FE-TX
        x = -986.343145751
        y = 658.0
    [[ROUTER C_R2]]
        model = 3725
        console = 2016
        aux = 2117
        wic0/0 = WIC-2T
        wic0/1 = WIC-2T
        wic0/2 = WIC-2T
        s0/0 = ISP3_R4 s0/0
        f0/0 = C_R1 f0/0
        slot1 = NM-1FE-TX
        f1/0 = C_R3 f1/0
        slot2 = NM-1FE-TX
        x = -605.072293302
        y = 661.124025129
        hx = 6.5
        hy = -25.0
    [[ROUTER D_R1]]
        model = 3725
        console = 2025
        aux = 2118
        cnfg = configs/D_R1.cfg
        wic0/0 = WIC-2T
        wic0/1 = WIC-2T
        wic0/2 = WIC-2T
        f0/0 = SW1 2
        slot1 = NM-1FE-TX
        slot2 = NM-1FE-TX
        x = 275.395490323
        y = 71.3345237791
    [[ETHSW SW1]]
        1 = access 1 ISP3_R5 f2/0
        2 = access 1 D_R1 f0/0
        3 = access 1 D_R2 f0/0
        x = 271.384343035
        y = 312.097546471
    [[ROUTER ISP4_R1]]
        model = 3725
        console = 2043
        aux = 2143
        cnfg = configs/ISP4_R1.cfg
        wic0/0 = WIC-2T
        wic0/1 = WIC-2T
        wic0/2 = WIC-2T
        s0/0 = ISP2_R1 s0/0
        s0/2 = ISP2_R2 s0/2
        s0/5 = E_R1 s0/5
        slot1 = NM-1FE-TX
        slot2 = NM-1FE-TX
        x = -1814.79898987
        y = 66.0
[localhost:7205]
    workingdir = working
    udp = 10500
    [[3725]]
        image = /home/joshua/gns3/images/ios-3725/c3725-advipservicesk9-mz.124-15.T14.bin
        ram = 256
        idlepc = 0x60bbf000
        ghostios = True
    [[ROUTER ISP3_R3]]
        model = 3725
        console = 2028
        aux = 2120
        cnfg = configs/ISP3_R3.cfg
        wic0/0 = WIC-2T
        wic0/1 = WIC-2T
        wic0/2 = WIC-2T
        f0/0 = ISP3_R1 f1/0
        f0/1 = ISP3_R2 f1/0
        slot1 = NM-1FE-TX
        f1/0 = ISP3_R5 f1/0
        slot2 = NM-1FE-TX
        f2/0 = ISP3_R4 f1/0
        x = -253.0
        y = 306.0
    [[ROUTER ISP1_R3]]
        model = 3725
        console = 2027
        aux = 2121
        cnfg = configs/ISP1_R3.cfg
        wic0/0 = WIC-2T
        wic0/1 = WIC-2T
        wic0/2 = WIC-2T
        f0/0 = ISP1_R1 f1/0
        f0/1 = ISP1_R2 f1/0
        slot1 = NM-1FE-TX
        f1/0 = ISP1_R5 f1/0
        slot2 = NM-1FE-TX
        f2/0 = ISP1_R4 f1/0
        x = -814.0
        y = -96.0
[GNS3-DATA]
    configs = configs
    workdir = working
    m11 = 0.5
    m22 = 0.5
    width = 5000
    height = 2500
    [[NOTE 1]]
        text = s0/3\n68.0.0.46/30
        x = -630.251262658
        y = 260.823593129
        rotate = 26
    [[NOTE 2]]
        text = L0\n75.0.1.2/32
        x = -1354.81659275
        y = 27.0979797464
    [[NOTE 3]]
        text = L0\n68.0.1.1/32
        x = -1195.01046021
        y = -116.139610307
    [[NOTE 4]]
        text = L0\n75.0.1.5/32
        x = -1008.92005641
        y = 365.011760033
    [[NOTE 5]]
        text = L0\n68.0.1.4/32
        x = -934.795164729
        y = 123.063491861
    [[NOTE 6]]
        text = L0\n75.0.1.4/32
        x = -1359.05923344
        y = 615.410821694
    [[NOTE 7]]
        text = L0\n68.0.1.3/32
        x = -748.118974495
        y = -144.021861301
    [[NOTE 8]]
        text = L0\n75.0.1.1/32
        x = -1723.92633253
        y = 317.011760033
    [[NOTE 9]]
        text = fa2/0\n69.57.112.2/30
        x = -936.209378291
        y = -328.070634536
    [[NOTE 10]]
        text = fa2/0\n69.57.112.1/30
        x = -1195.01046021
        y = -333.526478659
    [[NOTE 11]]
        text = L0\n192.59.129.3/32
        x = -702.0
        y = 948.5
    [[NOTE 12]]
        text = L0\n69.57.113.3/32
        x = -1473.61053199
        y = -117.151803616
    [[NOTE 13]]
        text = L0\n192.59.129.1/32
        x = -1012.0
        y = 591.5
    [[NOTE 14]]
        text = L0\n69.57.113.2/32
        x = -1730.99740034
        y = -457.977272148
    [[NOTE 15]]
        text = fa2/0\n69.57.112.6/30
        x = -1595.23289836
        y = 284.082827845
        rotate = -80
    [[NOTE 16]]
        text = L0\n69.57.113.1/32
        x = -1288.34855532
        y = -395.751875403
    [[NOTE 17]]
        text = L0\n192.59.129.2/32
        x = -640.0
        y = 596.5
    [[NOTE 18]]
        text = fa2/0\n69.57.112.5/30
        x = -1557.04913217
        y = 43.8675323681
        rotate = -80
    [[NOTE 19]]
        text = L0\n67.0.1.4/32
        x = -189.159379566
        y = 546.058441228
    [[NOTE 20]]
        text = L0\n99.89.48.129/32
        x = -2210.41579799
        y = 242.058441227
    [[NOTE 21]]
        text = fa0/0\n67.0.0.2/30
        x = -72.0
        y = 407.0
        rotate = -42
    [[NOTE 22]]
        text = L0\n96.0.1.1/32
        x = -1821.50706834
        y = 4.47056274848
    [[NOTE 23]]
        text = L0\n67.0.1.1/32
        x = -552.875108319
        y = 349.857431101
    [[NOTE 24]]
        text = L0\n67.0.1.3/32
        x = -189.745166004
        y = 265.47265479
        color = "#000000"
    [[NOTE 25]]
        text = fa2/0\n67.0.0.34/30
        x = -365.574205873
        y = -15.0233405971
        rotate = 32
    [[NOTE 26]]
        text = L0\n67.0.1.2/32
        x = -181.745166004
        y = 68.47265479
    [[NOTE 27]]
        text = fa2/0\n67.0.0.33/.0
        x = -457.498087428
        y = -72.0979797464
        rotate = 32
    [[NOTE 28]]
        text = fa1/0\n67.0.0.18/30
        x = -218.0
        y = 142.0
        rotate = 90
    [[NOTE 29]]
        text = fa0/0\n67.0.0.26/30
        x = -351.0
        y = 309.0
    [[NOTE 30]]
        text = s0/2\n68.0.0.41/30
        x = -726.528174593
        y = 150.05151519
        rotate = 26
    [[NOTE 31]]
        text = s0/2\n75.0.0.42/30
        x = -1459.54772722
        y = 89.4913780287
    [[NOTE 32]]
        text = s0/5\n68.0.0.37/30
        x = -1026.75
        y = 263.156854249
        rotate = -38
    [[NOTE 33]]
        text = s0/1\n75.0.0.37/30
        x = -1289.25
        y = 31.5
        rotate = -41
    [[NOTE 34]]
        text = fa0/0\n70.2.128.6/30
        x = -351.769552622
        y = -444.068542495
        rotate = 37
    [[NOTE 35]]
        text = s0/4\n68.0.0.34/30
        x = -893.5
        y = 242.0
        rotate = -38
    [[NOTE 36]]
        text = fa0/0\n64.1.16.1/29
        x = 265.872149726
        y = 229.129509039
        rotate = -90
    [[NOTE 37]]
        text = L0\n67.0.1.5/32
        x = 26.870057685
        y = 236.401586978
    [[NOTE 38]]
        text = fa0/0\n68.0.0.9/30
        x = -899.226622234
        y = -238.41883092
        rotate = -37
    [[NOTE 39]]
        text = s0/0\n192.59.128.2/30
        x = -400.884343035
        y = 613.398628385
        rotate = -20
    [[NOTE 40]]
        text = fa0/1\n67.0.0.30/30
        x = -321.0
        y = 451.0
        rotate = 42
    [[NOTE 41]]
        text = fa2/0\n64.1.16.3/29
        x = 99.066017178
        y = 305.325468532
    [[NOTE 42]]
        text = fa0/1\n68.0.0.2/30
        x = -605.46717088
        y = -188.661471607
        rotate = 40
    [[NOTE 43]]
        text = fa0/0\n68.0.0.10/30
        x = -1030.76572748
        y = -133.708152802
        rotate = -37
    [[NOTE 44]]
        text = s0/2\n75.0.0.41/30
        x = -1740.50609665
        y = 66.7426406871
    [[NOTE 45]]
        text = Company C\nAS 303 - Public\n\n192.59.128.0/17 (PI)\n(C Interconnections 192.59.128.0/24)\n(C Loopbacks 192.59.129.0/24)\n(C LANs 192.59.130.0 - 192.59.255.255)
        x = -879.213203436
        y = 1015.29898987
        font = "Sans Serif,20,-1,5,75,0,0,0,0,0"
    [[NOTE 46]]
        text = s0/0\n192.59.128.1/30
        x = -537.058007951
        y = 645.00880144
        rotate = -20
    [[NOTE 47]]
        text = fa0/1\n68.0.0.22/30
        x = -884.670273048
        y = 45.926406871
        rotate = 42
    [[NOTE 48]]
        text = fa0/1\n68.0.0.1/30
        x = -731.520994749
        y = -294.11731573
        rotate = 40
    [[NOTE 49]]
        text = s0/5\n99.89.48.2/.0
        x = -1908.36396103
        y = 168.189862838
        rotate = -42
    [[NOTE 50]]
        text = ISP2\nAS 2 Public\n\n75.0.0.0/16\n(ISP2 Interconnections 75.0.0.0/24)\n(ISP2 Loopbacks 75.0.1.0/24)\n\n72.0.0.0/8\n73.0.0.0/8\n74.0.0.0/8\n75.0.0.0/8
        x = -1601.02229457
        y = 659.701010127
        font = "Sans Serif,20,-1,5,75,0,0,0,0,0"
    [[NOTE 51]]
        text = fa0/1\n192.59.128.14/30
        x = -835.0
        y = 817.5
        rotate = 56
    [[NOTE 52]]
        text = fa1/0\n67.0.0.13/30
        x = -183.5
        y = 424.0
        rotate = 90
    [[NOTE 53]]
        text = s0/5\n68.0.0.38/30
        x = -926.992640687
        y = 214.5
        rotate = -38
    [[NOTE 54]]
        text = Company B\nAS 65534 Private\n\n70.2.128.0/17 (PA)\n(B Interconnections 70.2.128.0/24)\n(B Loopbacks 70.2.129.0/24)\n(B LANs 70.2.130.0 - 70.2.255.255)
        x = -337.414213562
        y = -661.210678119
        font = "Sans Serif,20,-1,5,75,0,0,0,0,0"
    [[NOTE 55]]
        text = Company A\nAS 101 Public\n\n69.57.112.0/20 (PA)\n72.81.240.0/20 (PA)\n(A Interconnections 69.57.112.0/24)\n(A Loopbacks 69.57.113.0/24)\n(A LANs 69.57.114.0 - 69.57.128.255)\n(A LANs 72.81.240.0 - 72.81.255.255)
        x = -1785.32085117
        y = -773.477705424
        font = "Sans Serif,20,-1,5,75,0,0,0,0,0"
    [[NOTE 56]]
        text = s0/0\n70.2.128.2/30
        x = -773.69848481
        y = -372.943650814
        rotate = -42
    [[NOTE 57]]
        text = s0/0\n96.0.0.1/30
        x = -1735.33095245
        y = 108.851767721
        rotate = 49
    [[NOTE 58]]
        text = Company E\n65000 Private\n\n99.89.48.0/22 (PA)\n(E Interconnections 99.89.48.0/25)\n(E Loopbacks 99.89.48.128/25)\n(E LANs 99.89.49.0 - 99.89.51.255)
        x = -2278.69343417
        y = 373.742640687
        font = "Sans Serif,20,-1,5,75,0,0,0,0,0"
    [[NOTE 59]]
        text = fa0/0\n68.0.0.30/30
        x = -633.496608131
        y = -2.127416998
        rotate = -42
    [[NOTE 60]]
        text = fa0/0\n69.57.112.13/30
        x = -1525.92893219
        y = -425.813708499
        rotate = 18
    [[NOTE 61]]
        text = fa1/0\n69.57.112.10/30
        x = -1523.55277785
        y = -276.323376491
        rotate = 78
    [[NOTE 62]]
        text = s0/0\n70.2.128.9/30
        x = -352.112698372
        y = -221.558874503
        rotate = -47
    [[NOTE 63]]
        text = s0/5\n99.89.48.1/30
        x = -2064.9411255
        y = 278.014718626
        rotate = -42
    [[NOTE 64]]
        text = ISP1\nAS 1 Public\n\n68.0.0.0/16\n(ISP1 Interconnections 68.0.0.0/24)\n(ISP Loopbacks 68.0.1.0/24)\n\n68.0.0.0/8\n69.0.0.0/8\n70.0.0.0/8\n71.0.0.0/8
        x = -1135.76450199
        y = -768.281745931
        font = "Sans Serif,20,-1,5,75,0,0,0,0,0"
    [[NOTE 65]]
        text = fa1/0\n69.57.112.9/30
        x = -1547.49033201
        y = -399.097979747
        rotate = 78
    [[NOTE 66]]
        text = s0/3\n68.0.0.45/30
        x = -745.943650814
        y = 183.844408409
        rotate = 26
    [[NOTE 67]]
        text = fa0/0\n67.0.0.22/30
        x = -352.5
        y = 190.0
        rotate = -41
    [[NOTE 68]]
        text = fa1/0\n68.0.0.17/30
        x = -744.491557497
        y = -97.039105243
    [[NOTE 69]]
        text = fa1/0\n192.59.128.17/30
        x = -679.928932188
        y = 814.399494937
        rotate = -58
    [[NOTE 70]]
        text = s0/0\n192.59.128.5/30
        x = -1115.0
        y = 622.5
        rotate = 13
    [[NOTE 71]]
        text = fa0/1\n67.0.0.5/30
        x = -167.0
        y = 117.0
        rotate = 40
    [[NOTE 72]]
        text = fa0/0\n67.0.0.21/30
        x = -463.5
        y = 281.0
        rotate = -41
    [[NOTE 73]]
        text = s0/2\n68.0.0.42/30
        x = -609.400757595
        y = 227.75
        rotate = 26
    [[NOTE 74]]
        text = fa0/1\n67.0.0.6/30
        x = -50.0
        y = 212.5
        rotate = 40
    [[NOTE 75]]
        text = s0/0\n75.0.0.34/30
        x = -1183.75
        y = 23.75
        rotate = -41
    [[NOTE 76]]
        text = fa0/0\n68.0.0.29/30
        x = -765.763635436
        y = 115.382250994
        rotate = -42
    [[NOTE 77]]
        text = fa1/0\n68.0.0.13/30
        x = -1022.72409692
        y = -101.838095117
    [[NOTE 78]]
        text = fa0/1\n68.0.0.6/30
        x = -739.503750806
        y = -207.578210487
        rotate = 91
    [[NOTE 79]]
        text = fa2/0\n68.0.0.25/30
        x = -780.089537244
        y = -47.441125497
        rotate = 91
    [[NOTE 80]]
        text = fa1/0\n68.0.0.26/30
        x = -745.089537244
        y = 19.7426406871
        rotate = 91
    [[NOTE 81]]
        text = fa0/0\n67.0.0.1/30
        x = -192.0
        y = 514.0
        rotate = -42
    [[NOTE 82]]
        text = fa0/0\n68.0.0.14/30
        x = -910.285496737
        y = -97.423881554
    [[NOTE 83]]
        text = fa0/0\n192.59.128.9/30
        x = -910.0
        y = 659.5
    [[NOTE 84]]
        text = fa0/1\n67.0.0.17/30
        x = -180.5
        y = 187.0
        rotate = 90
    [[NOTE 85]]
        text = fa0/0\n70.2.128.5/30
        x = -462.95836944
        y = -528.884776311
        rotate = 37
    [[NOTE 86]]
        text = fa0/0\n192.59.128.10/30
        x = -747.0
        y = 660.5
    [[NOTE 87]]
        text = fa0/1\n75.0.0.9/30
        x = -1261.0
        y = 122.5
        rotate = 43
    [[NOTE 88]]
        text = s0/0\n75.0.0.33/30
        x = -1276.75
        y = 80.75
        rotate = -41
    [[NOTE 89]]
        text = fa0/1\n192.59.128.13/30
        x = -914.0
        y = 699.5
        rotate = 56
    [[NOTE 90]]
        text = s0/0\n96.0.0.2/30
        x = -1673.02943725
        y = 204.910642225
        rotate = 49
    [[NOTE 91]]
        text = fa0/1\n75.0.0.10/30
        x = -1150.0
        y = 219.5
        rotate = 43
    [[NOTE 92]]
        text = s0/0\n192.59.128.6/30
        x = -1251.0
        y = 571.5
        rotate = 13
    [[NOTE 93]]
        text = L0\n68.0.1.2/32
        x = -862.670273048
        y = -398.580302528
    [[NOTE 94]]
        text = fa2/0\n67.0.0.14/30
        x = -219.5
        y = 347.5
        rotate = 90
    [[NOTE 95]]
        text = fa1/0\n68.0.0.18/30
        x = -645.538238692
        y = -99.423881554
    [[NOTE 96]]
        text = fa1/0\n68.0.0.5/30
        x = -774.089537244
        y = -256.933549546
        rotate = 91
    [[NOTE 97]]
        text = s0/4\n68.0.0.33/30
        x = -1014.5
        y = 308.242640687
        rotate = -38
    [[NOTE 98]]
        text = fa0/1\n67.0.0.29/30
        x = -441.0
        y = 341.5
        rotate = 42
    [[NOTE 99]]
        text = fa1/0\n67.0.0.10/30
        x = -83.0
        y = 306.0
    [[NOTE 100]]
        text = s0/0\n70.2.128.10/30
        x = -481.69848481
        y = -115.044155877
        rotate = -47
    [[NOTE 101]]
        text = fa1/0\n75.0.0.18/30
        x = -1180.0
        y = 317.5
    [[NOTE 102]]
        text = ISP3\nAS 3 Public\n\n67.0.0.0/16\n(ISP3 Interconnections 67.0.0.0/24)\n(ISP3 Loopbacks 67.0.1.0/24)\n\n64.0.0.0/8\n65.0.0.0/8\n66.0.0.0/8\n67.0.0.0/8
        x = 63.0
        y = 530.5
        font = "Sans Serif,20,-1,5,75,0,0,0,0,0"
    [[NOTE 103]]
        text = L0\n64.1.17.1/32
        x = 360.624458405
        y = 44.0685424949
    [[NOTE 104]]
        text = L0\n64.1.17.2/32\n\nLAN_L100\n64.1.18.1/24\n
        x = 591.141269072
        y = 247.51428535
    [[NOTE 105]]
        text = fa0/0\n64.1.16.2/29
        x = 395.536146651
        y = 306.982322781
    [[NOTE 106]]
        text = fa1/0\n75.0.0.26/30
        x = -1273.0
        y = 438.5
        rotate = 91
    [[NOTE 107]]
        text = fa2/0\n75.0.0.25/30
        x = -1312.0
        y = 364.5
        rotate = 91
    [[NOTE 108]]
        text = fa0/1\n69.57.112.17/30
        x = -1379.25840533
        y = -234.659379566
        rotate = -37
    [[NOTE 109]]
        text = L0\n68.0.1.5/32
        x = -543.058007951
        y = -180.791413922
    [[NOTE 110]]
        text = L0\n70.2.129.1/32\nLAN_L100 70.2.130.1/24
        x = -555.957502888
        y = -619.298123321
    [[NOTE 111]]
        text = fa0/0\n75.0.0.1/30
        x = -1557.0
        y = 291.5
        rotate = -42
    [[NOTE 112]]
        text = fa0/1\n75.0.0.21/30
        x = -1536.0
        y = 349.5
        rotate = 43
    [[NOTE 113]]
        text = fa0/0\n75.0.0.14/30
        x = -1444.43502884
        y = 315.621320344
    [[NOTE 114]]
        text = <<<<<<EBGP>>>>>>
        x = 114.793939239
        y = 250.543722601
        rotate = -45
    [[NOTE 115]]
        text = <<<<<<OSPF>>>>>>
        x = 371.938166904
        y = 122.477705423
        rotate = 45
    [[NOTE 116]]
        text = fa0/0\n75.0.0.2/30
        x = -1428.0
        y = 185.5
        rotate = -43
    [[NOTE 117]]
        text = fa1/0\n75.0.0.13/30
        x = -1543.0
        y = 316.5
    [[NOTE 118]]
        text = fa0/1\n69.57.112.18/30
        x = -1490.23401872
        y = -148.106601718
        rotate = -37
    [[NOTE 119]]
        text = fa0/0\n75.0.0.29/30
        x = -1287.0
        y = 526.5
        rotate = -43
    [[NOTE 120]]
        text = fa0/0\n75.0.0.30/30
        x = -1173.02081528
        y = 422.035533906
        rotate = -43
    [[NOTE 121]]
        text = fa1/0\n75.0.0.17/30
        x = -1279.0
        y = 316.5
    [[NOTE 122]]
        text = L0\n70.2.129.2/32
        x = -220.61731573
        y = -360.396536344
    [[NOTE 123]]
        text = fa0/1\n68.0.0.21/30
        x = -1010.00836816
        y = -68.6421356237
        rotate = 42
    [[NOTE 124]]
        text = fa0/1\n75.0.0.6/30
        x = -1273.0
        y = 204.5
        rotate = 91
    [[NOTE 125]]
        text = Company D\nAS 64512 Private\n\n64.1.16.0/20 (PA)\n(D Interconnections 64.1.16.0/24)\n(D Loopbacks 64.1.17.0/24)\n(D LANs 64.1.18.0 - 64.1.31.255)
        x = 235.053823869
        y = -202.767027305
        font = "Sans Serif,20,-1,5,75,0,0,0,0,0"
    [[NOTE 126]]
        text = s0/1\n75.0.0.38/30
        x = -1200.25
        y = -20.5
        rotate = -41
    [[NOTE 127]]
        text = fa1/0\n75.0.0.5/30
        x = -1307.0
        y = 155.5
        rotate = 91
    [[NOTE 128]]
        text = fa0/1\n75.0.0.22/30
        x = -1408.0
        y = 466.5
        rotate = 43
    [[NOTE 129]]
        text = fa0/0\n69.57.112.14/30
        x = -1389.88225099
        y = -381.985281374
        rotate = 18
    [[NOTE 130]]
        text = fa1/0\n67.0.0.9/30
        x = -182.5
        y = 307.0
    [[NOTE 131]]
        text = s0/0\n70.2.128.1/30
        x = -658.497474683
        y = -452.316233816
        rotate = -42
    [[NOTE 132]]
        text = fa1/0\n192.59.128.18/30
        x = -751.681240867
        y = 928.05486989
        rotate = -58
    [[NOTE 133]]
        text = fa1/0\n67.0.0.25/30
        x = -452.0
        y = 306.5
    [[NOTE 134]]
        text = ISP4\nAS 4\n\n96.0.0.0/16\n(ISP4 Interconnections 96.0.0.0/24)\n(ISP4 Loopbacks 96.0.1.0/24)\n\n96.0.0.0/8\n97.0.0.0/8\n98.0.0.0/8\n99.0.0.0/8
        x = -2387.43860018
        y = -531.955844123
        font = "Sans Serif,20,-1,5,75,0,0,0,0,0"
    [[SHAPE 1]]
        type = ellipse
        x = -2225.00923471
        y = -334.384163566
        width = 622.0
        height = 546.0
        border_style = 2
        z = -2.0
    [[SHAPE 2]]
        type = ellipse
        x = -1629.00923471
        y = 69.615836434
        width = 622.0
        height = 546.0
        border_style = 2
        z = -2.0
    [[SHAPE 3]]
        type = ellipse
        x = -1097.21024484
        y = -350.384163566
        width = 622.0
        height = 546.0
        border_style = 2
        z = -2.0
    [[SHAPE 4]]
        type = ellipse
        x = -530.0
        y = 58.0
        width = 622.0
        height = 546.0
        border_style = 2
        z = -2.0
