Nov 28 08:28:29.001 HYPERVISOR: Release 0.2.17-amd64/Linux (tag 2017072410)
Nov 28 08:28:29.001 HYPERVISOR: Started on IP = 127.0.0.1, TCP port = 44523.
Nov 28 08:28:29.003 HYPERVISOR: exec_cmd: hypervisor version 
Nov 28 08:28:29.003 HYPERVISOR: exec_cmd: hypervisor working_dir /media/actionmystique/SAMSUNG5-VMs/Labs/GNS3/git-Public-Labs-Collection/CCNP/TBSHOOT/L3-Technologies/IPv4/Routing/SVI/Jean-Christophe_Manciot/1+/TT 2-solutions-linux/project-files/dynamips 
Nov 28 08:28:29.003 GENERAL: working_dir=/media/actionmystique/SAMSUNG5-VMs/Labs/GNS3/git-Public-Labs-Collection/CCNP/TBSHOOT/L3-Technologies/IPv4/Routing/SVI/Jean-Christophe_Manciot/1+/TT 2-solutions-linux/project-files/dynamips
Nov 28 08:28:29.004 HYPERVISOR: exec_cmd: vm create ESW1 1 c3725 
Nov 28 08:28:29.004 VM: VM ESW1 created.
Nov 28 08:28:29.004 HYPERVISOR: exec_cmd: vm set_con_tcp_port ESW1 2001 
Nov 28 08:28:29.004 HYPERVISOR: exec_cmd: vm set_aux_tcp_port ESW1 2501 
Nov 28 08:28:29.005 HYPERVISOR: exec_cmd: c3725 get_mac_addr ESW1 
Nov 28 08:28:29.005 HYPERVISOR: exec_cmd: vm set_disk0 ESW1 1 
Nov 28 08:28:29.005 HYPERVISOR: exec_cmd: vm get_status ESW1 
Nov 28 08:28:29.006 HYPERVISOR: exec_cmd: vm slot_add_binding ESW1 1 0 NM-16ESW 
Nov 28 08:28:29.006 HYPERVISOR: exec_cmd: vm set_ios ESW1 /media/actionmystique/SAMSUNG5-VMs/Images/GNS3/IOS/c3725-adventerprisek9-mz.124-15.T10.image 
Nov 28 08:28:29.007 HYPERVISOR: exec_cmd: c3725 set_mac_addr ESW1 c201.3297.0000 
Nov 28 08:28:29.007 HYPERVISOR: exec_cmd: vm slot_add_binding ESW1 0 16 WIC-2T 
Nov 28 08:28:29.007 HYPERVISOR: exec_cmd: vm get_status ESW1 
Nov 28 08:28:29.008 HYPERVISOR: exec_cmd: vm set_idle_pc ESW1 0x60c06d20 
Nov 28 08:28:29.008 HYPERVISOR: exec_cmd: vm set_nvram ESW1 256 
Nov 28 08:28:29.008 HYPERVISOR: exec_cmd: vm set_config ESW1 configs/i1_startup-config.cfg 
Nov 28 08:28:29.011 HYPERVISOR: exec_cmd: vm set_config ESW1 configs/i1_startup-config.cfg configs/i1_private-config.cfg 
Nov 28 08:28:29.089 HYPERVISOR: exec_cmd: nio create_udp udp-9c488ac5-cf0e-4afe-976e-d2c16f10ef4a 15000 127.0.0.1 15001 
Nov 28 08:28:29.089 HYPERVISOR: exec_cmd: vm slot_add_nio_binding ESW1 1 1 udp-9c488ac5-cf0e-4afe-976e-d2c16f10ef4a 
Nov 28 08:28:29.090 HYPERVISOR: exec_cmd: vm get_status ESW1 
Nov 28 08:28:29.119 HYPERVISOR: exec_cmd: nio create_udp udp-2467fdb1-1e74-412c-8068-47d39678b13f 15002 127.0.0.1 15003 
Nov 28 08:28:29.125 HYPERVISOR: exec_cmd: vm slot_add_nio_binding ESW1 1 2 udp-2467fdb1-1e74-412c-8068-47d39678b13f 
Nov 28 08:28:29.126 HYPERVISOR: exec_cmd: vm get_status ESW1 
