Nov 27 16:14:21.706 HYPERVISOR: Release 0.2.17-amd64/Linux (tag 2017072410)
Nov 27 16:14:21.706 HYPERVISOR: Started on IP = 127.0.0.1, TCP port = 42409.
Nov 27 16:14:21.715 HYPERVISOR: exec_cmd: hypervisor version 
Nov 27 16:14:21.715 HYPERVISOR: exec_cmd: hypervisor working_dir /media/actionmystique/SAMSUNG5-VMs/Labs/GNS3/git-Public-Labs-Collection/CCNP/TBSHOOT/L2-Technologies/STP/Jean-Christophe_Manciot/1+/TT 2-linux/project-files/dynamips 
Nov 27 16:14:21.715 GENERAL: working_dir=/media/actionmystique/SAMSUNG5-VMs/Labs/GNS3/git-Public-Labs-Collection/CCNP/TBSHOOT/L2-Technologies/STP/Jean-Christophe_Manciot/1+/TT 2-linux/project-files/dynamips
Nov 27 16:14:21.716 HYPERVISOR: exec_cmd: vm create SW3 3 c3725 
Nov 27 16:14:21.716 VM: VM SW3 created.
Nov 27 16:14:21.716 HYPERVISOR: exec_cmd: vm set_con_tcp_port SW3 2003 
Nov 27 16:14:21.717 HYPERVISOR: exec_cmd: c3725 get_mac_addr SW3 
Nov 27 16:14:21.717 HYPERVISOR: exec_cmd: vm get_status SW3 
Nov 27 16:14:21.718 HYPERVISOR: exec_cmd: vm slot_add_binding SW3 1 0 NM-16ESW 
Nov 27 16:14:21.718 HYPERVISOR: exec_cmd: vm set_nvram SW3 256 
Nov 27 16:14:21.719 HYPERVISOR: exec_cmd: vm get_status SW3 
Nov 27 16:14:21.719 HYPERVISOR: exec_cmd: vm set_idle_pc SW3 0x614ac2c4 
Nov 27 16:14:21.720 HYPERVISOR: exec_cmd: c3725 set_mac_addr SW3 cccc.cccc.cccc 
Nov 27 16:14:21.721 HYPERVISOR: exec_cmd: vm set_ios SW3 /media/actionmystique/SAMSUNG5-VMs/Images/GNS3/IOS/c3725-adventerprisek9-mz.124-15.T10.image 
Nov 27 16:14:21.721 HYPERVISOR: exec_cmd: vm set_exec_area SW3 16 
Nov 27 16:14:21.722 HYPERVISOR: exec_cmd: vm slot_add_binding SW3 0 16 WIC-2T 
Nov 27 16:14:21.722 HYPERVISOR: exec_cmd: vm set_disk0 SW3 1 
Nov 27 16:14:21.723 HYPERVISOR: exec_cmd: vm set_config SW3 configs/i3_startup-config.cfg 
Nov 27 16:14:21.724 HYPERVISOR: exec_cmd: vm set_config SW3 configs/i3_startup-config.cfg configs/i3_private-config.cfg 
Nov 27 16:14:21.748 HYPERVISOR: exec_cmd: nio create_null null-36a11394-3c0d-4b02-a017-cca4a4865cc3 
Nov 27 16:14:21.749 HYPERVISOR: exec_cmd: vm slot_add_nio_binding SW3 1 0 null-36a11394-3c0d-4b02-a017-cca4a4865cc3 
Nov 27 16:14:21.754 HYPERVISOR: exec_cmd: vm get_status SW3 
Nov 27 16:14:21.909 HYPERVISOR: exec_cmd: nio create_udp udp-e6e73c6a-901d-48b5-8b66-fcf60ac0ecfa 15002 127.0.0.1 15001 
Nov 27 16:14:21.911 HYPERVISOR: exec_cmd: vm slot_add_nio_binding SW3 1 2 udp-e6e73c6a-901d-48b5-8b66-fcf60ac0ecfa 
Nov 27 16:14:21.911 HYPERVISOR: exec_cmd: vm get_status SW3 
Nov 27 16:14:21.964 HYPERVISOR: exec_cmd: nio create_udp udp-d12ddfb3-9cc3-49cf-9d81-01407c38bd72 15005 127.0.0.1 15006 
Nov 27 16:14:21.968 HYPERVISOR: exec_cmd: vm slot_add_nio_binding SW3 1 5 udp-d12ddfb3-9cc3-49cf-9d81-01407c38bd72 
Nov 27 16:14:21.968 HYPERVISOR: exec_cmd: vm get_status SW3 
Nov 27 16:14:22.005 HYPERVISOR: exec_cmd: nio create_udp udp-8fe96531-8726-48d5-8bc8-f5778b681ba5 15009 127.0.0.1 15008 
Nov 27 16:14:22.005 HYPERVISOR: exec_cmd: vm slot_add_nio_binding SW3 1 6 udp-8fe96531-8726-48d5-8bc8-f5778b681ba5 
Nov 27 16:14:22.006 HYPERVISOR: exec_cmd: vm get_status SW3 
