Nov 27 16:14:38.991 HYPERVISOR: Release 0.2.17-amd64/Linux (tag 2017072410)
Nov 27 16:14:38.991 HYPERVISOR: Started on IP = 127.0.0.1, TCP port = 33393.
Nov 27 16:14:39.010 HYPERVISOR: exec_cmd: hypervisor version 
Nov 27 16:14:39.011 HYPERVISOR: exec_cmd: hypervisor working_dir /media/actionmystique/SAMSUNG5-VMs/Labs/GNS3/TT 2-linux-/project-files/dynamips 
Nov 27 16:14:39.011 GENERAL: working_dir=/media/actionmystique/SAMSUNG5-VMs/Labs/GNS3/TT 2-linux-/project-files/dynamips
Nov 27 16:14:39.012 HYPERVISOR: exec_cmd: vm create SW1 1 c3725 
Nov 27 16:14:39.012 VM: VM SW1 created.
Nov 27 16:14:39.013 HYPERVISOR: exec_cmd: vm set_con_tcp_port SW1 2001 
Nov 27 16:14:39.014 HYPERVISOR: exec_cmd: c3725 get_mac_addr SW1 
Nov 27 16:14:39.015 HYPERVISOR: exec_cmd: vm set_nvram SW1 256 
Nov 27 16:14:39.016 HYPERVISOR: exec_cmd: vm get_status SW1 
Nov 27 16:14:39.016 HYPERVISOR: exec_cmd: vm set_idle_pc SW1 0x614ac2c4 
Nov 27 16:14:39.017 HYPERVISOR: exec_cmd: c3725 set_mac_addr SW1 aaaa.aaaa.aaaa 
Nov 27 16:14:39.018 HYPERVISOR: exec_cmd: vm set_exec_area SW1 16 
Nov 27 16:14:39.019 HYPERVISOR: exec_cmd: vm get_status SW1 
Nov 27 16:14:39.020 HYPERVISOR: exec_cmd: vm slot_add_binding SW1 1 0 NM-16ESW 
Nov 27 16:14:39.021 HYPERVISOR: exec_cmd: vm set_disk0 SW1 1 
Nov 27 16:14:39.022 HYPERVISOR: exec_cmd: vm set_ios SW1 /media/actionmystique/SAMSUNG5-VMs/Images/GNS3/IOS/c3725-adventerprisek9-mz.124-15.T10.image 
Nov 27 16:14:39.023 HYPERVISOR: exec_cmd: vm slot_add_binding SW1 0 16 WIC-2T 
Nov 27 16:14:39.024 HYPERVISOR: exec_cmd: vm set_config SW1 configs/i1_startup-config.cfg 
Nov 27 16:14:39.025 HYPERVISOR: exec_cmd: vm set_config SW1 configs/i1_startup-config.cfg configs/i1_private-config.cfg 
Nov 27 16:14:39.120 HYPERVISOR: exec_cmd: nio create_null null-2580bc86-cfd9-4cb3-8508-1332491df062 
Nov 27 16:14:39.122 HYPERVISOR: exec_cmd: vm slot_add_nio_binding SW1 1 0 null-2580bc86-cfd9-4cb3-8508-1332491df062 
Nov 27 16:14:39.123 HYPERVISOR: exec_cmd: vm get_status SW1 
Nov 27 16:14:39.210 HYPERVISOR: exec_cmd: nio create_udp udp-f2d0aa2c-e6a3-4415-aaaa-89698be72411 15003 127.0.0.1 15005 
Nov 27 16:14:39.217 HYPERVISOR: exec_cmd: vm slot_add_nio_binding SW1 1 1 udp-f2d0aa2c-e6a3-4415-aaaa-89698be72411 
Nov 27 16:14:39.218 HYPERVISOR: exec_cmd: vm get_status SW1 
Nov 27 16:14:39.253 HYPERVISOR: exec_cmd: nio create_udp udp-d9377068-3f24-49ea-b874-20832292e74f 15006 127.0.0.1 15008 
Nov 27 16:14:39.253 HYPERVISOR: exec_cmd: vm slot_add_nio_binding SW1 1 5 udp-d9377068-3f24-49ea-b874-20832292e74f 
Nov 27 16:14:39.254 HYPERVISOR: exec_cmd: vm get_status SW1 
Nov 27 16:14:39.264 HYPERVISOR: exec_cmd: nio create_udp udp-7983b84c-789e-4a70-95a2-ed3213fc47d8 15007 127.0.0.1 15009 
Nov 27 16:14:39.268 HYPERVISOR: exec_cmd: vm slot_add_nio_binding SW1 1 6 udp-7983b84c-789e-4a70-95a2-ed3213fc47d8 
Nov 27 16:14:39.271 HYPERVISOR: exec_cmd: vm get_status SW1 
Nov 27 16:14:55.964 HYPERVISOR: exec_cmd: vm get_status SW1 
Nov 27 16:14:55.965 HYPERVISOR: exec_cmd: vm extract_config SW1 
Nov 27 16:14:55.967 HYPERVISOR: exec_cmd: vm delete SW1 
Nov 27 16:14:55.967 VM: VM SW1 destroyed.
Nov 27 16:14:55.969 HYPERVISOR: exec_cmd: hypervisor stop 
Nov 27 16:14:56.025 HYPERVISOR: Stopped.
Nov 27 16:14:56.025 GENERAL: reset done.
