Nov 28 08:12:54.376 HYPERVISOR: Release 0.2.17-amd64/Linux (tag 2017072410)
Nov 28 08:12:54.376 HYPERVISOR: Started on IP = 127.0.0.1, TCP port = 37979.
Nov 28 08:12:54.398 HYPERVISOR: exec_cmd: hypervisor version 
Nov 28 08:12:54.399 HYPERVISOR: exec_cmd: hypervisor working_dir /media/actionmystique/SAMSUNG5-VMs/Labs/GNS3/git-Public-Labs-Collection/CCNP/TBSHOOT/L3-Technologies/IPv4/PBR/Jean-Christophe_Manciot/1+/TT 1-solutions-linux/project-files/dynamips 
Nov 28 08:12:54.399 GENERAL: working_dir=/media/actionmystique/SAMSUNG5-VMs/Labs/GNS3/git-Public-Labs-Collection/CCNP/TBSHOOT/L3-Technologies/IPv4/PBR/Jean-Christophe_Manciot/1+/TT 1-solutions-linux/project-files/dynamips
Nov 28 08:12:54.399 HYPERVISOR: exec_cmd: vm create ESW5 5 c3725 
Nov 28 08:12:54.399 VM: VM ESW5 created.
Nov 28 08:12:54.400 HYPERVISOR: exec_cmd: vm set_con_tcp_port ESW5 2010 
Nov 28 08:12:54.400 HYPERVISOR: exec_cmd: c3725 get_mac_addr ESW5 
Nov 28 08:12:54.401 HYPERVISOR: exec_cmd: vm set_disk0 ESW5 1 
Nov 28 08:12:54.401 HYPERVISOR: exec_cmd: vm get_status ESW5 
Nov 28 08:12:54.401 HYPERVISOR: exec_cmd: vm slot_add_binding ESW5 1 0 NM-16ESW 
Nov 28 08:12:54.402 HYPERVISOR: exec_cmd: vm set_ios ESW5 /media/actionmystique/SAMSUNG5-VMs/Images/GNS3/IOS/c3725-adventerprisek9-mz.124-15.T10.image 
Nov 28 08:12:54.402 HYPERVISOR: exec_cmd: c3725 set_mac_addr ESW5 c205.6a03.0000 
Nov 28 08:12:54.403 HYPERVISOR: exec_cmd: vm slot_add_binding ESW5 0 16 WIC-2T 
Nov 28 08:12:54.403 HYPERVISOR: exec_cmd: vm get_status ESW5 
Nov 28 08:12:54.403 HYPERVISOR: exec_cmd: vm set_idle_pc ESW5 0x6026b804 
Nov 28 08:12:54.404 HYPERVISOR: exec_cmd: vm set_nvram ESW5 256 
Nov 28 08:12:54.404 HYPERVISOR: exec_cmd: vm set_config ESW5 configs/ios_base_startup-config.txt 
Nov 28 08:12:54.405 HYPERVISOR: exec_cmd: vm set_config ESW5 configs/ios_base_startup-config.txt configs/ios_base_private-config.txt 
Nov 28 08:12:54.665 HYPERVISOR: exec_cmd: nio create_udp udp-326dbd92-2f92-44f4-86e2-c010f2cc1b8e 15015 127.0.0.1 15014 
Nov 28 08:12:54.667 HYPERVISOR: exec_cmd: vm slot_add_nio_binding ESW5 1 0 udp-326dbd92-2f92-44f4-86e2-c010f2cc1b8e 
Nov 28 08:12:54.667 HYPERVISOR: exec_cmd: vm get_status ESW5 
Nov 28 08:12:54.684 HYPERVISOR: exec_cmd: nio create_udp udp-31ce64ad-4c80-4129-befd-c2721da67efd 15016 127.0.0.1 15018 
Nov 28 08:12:54.684 HYPERVISOR: exec_cmd: vm slot_add_nio_binding ESW5 1 1 udp-31ce64ad-4c80-4129-befd-c2721da67efd 
Nov 28 08:12:54.685 HYPERVISOR: exec_cmd: vm get_status ESW5 
