Nov 28 08:13:13.859 HYPERVISOR: Release 0.2.17-amd64/Linux (tag 2017072410)
Nov 28 08:13:13.859 HYPERVISOR: Started on IP = 127.0.0.1, TCP port = 56081.
Nov 28 08:13:13.875 HYPERVISOR: exec_cmd: hypervisor version 
Nov 28 08:13:13.876 HYPERVISOR: exec_cmd: hypervisor working_dir /media/actionmystique/SAMSUNG5-VMs/Labs/GNS3/TT 1-solutions-linux-/project-files/dynamips 
Nov 28 08:13:13.876 GENERAL: working_dir=/media/actionmystique/SAMSUNG5-VMs/Labs/GNS3/TT 1-solutions-linux-/project-files/dynamips
Nov 28 08:13:13.876 HYPERVISOR: exec_cmd: vm create ESW5 5 c3725 
Nov 28 08:13:13.876 VM: VM ESW5 created.
Nov 28 08:13:13.878 HYPERVISOR: exec_cmd: vm set_con_tcp_port ESW5 2010 
Nov 28 08:13:13.878 HYPERVISOR: exec_cmd: c3725 get_mac_addr ESW5 
Nov 28 08:13:13.879 HYPERVISOR: exec_cmd: vm set_disk0 ESW5 1 
Nov 28 08:13:13.879 HYPERVISOR: exec_cmd: vm get_status ESW5 
Nov 28 08:13:13.880 HYPERVISOR: exec_cmd: vm slot_add_binding ESW5 1 0 NM-16ESW 
Nov 28 08:13:13.880 HYPERVISOR: exec_cmd: vm set_ios ESW5 /media/actionmystique/SAMSUNG5-VMs/Images/GNS3/IOS/c3725-adventerprisek9-mz.124-15.T10.image 
Nov 28 08:13:13.881 HYPERVISOR: exec_cmd: c3725 set_mac_addr ESW5 c205.6a03.0000 
Nov 28 08:13:13.882 HYPERVISOR: exec_cmd: vm slot_add_binding ESW5 0 16 WIC-2T 
Nov 28 08:13:13.883 HYPERVISOR: exec_cmd: vm get_status ESW5 
Nov 28 08:13:13.883 HYPERVISOR: exec_cmd: vm set_idle_pc ESW5 0x6026b804 
Nov 28 08:13:13.884 HYPERVISOR: exec_cmd: vm set_nvram ESW5 256 
Nov 28 08:13:13.884 HYPERVISOR: exec_cmd: vm set_config ESW5 configs/ios_base_startup-config.txt 
Nov 28 08:13:13.885 HYPERVISOR: exec_cmd: vm set_config ESW5 configs/ios_base_startup-config.txt configs/ios_base_private-config.txt 
Nov 28 08:13:14.223 HYPERVISOR: exec_cmd: nio create_udp udp-a6e97c1e-9dc1-4dae-8ca8-2e94ae446425 15017 127.0.0.1 15016 
Nov 28 08:13:14.224 HYPERVISOR: exec_cmd: vm slot_add_nio_binding ESW5 1 0 udp-a6e97c1e-9dc1-4dae-8ca8-2e94ae446425 
Nov 28 08:13:14.224 HYPERVISOR: exec_cmd: vm get_status ESW5 
Nov 28 08:13:14.230 HYPERVISOR: exec_cmd: nio create_udp udp-f3929ec7-5fc9-42ef-b5c2-b8ebfb952309 15018 127.0.0.1 15019 
Nov 28 08:13:14.230 HYPERVISOR: exec_cmd: vm slot_add_nio_binding ESW5 1 1 udp-f3929ec7-5fc9-42ef-b5c2-b8ebfb952309 
Nov 28 08:13:14.231 HYPERVISOR: exec_cmd: vm get_status ESW5 
Nov 28 08:13:25.114 HYPERVISOR: exec_cmd: vm extract_config ESW5 
Nov 28 08:13:40.052 HYPERVISOR: exec_cmd: vm get_status ESW5 
Nov 28 08:13:40.055 HYPERVISOR: exec_cmd: vm extract_config ESW5 
Nov 28 08:13:40.056 HYPERVISOR: exec_cmd: vm delete ESW5 
Nov 28 08:13:40.056 VM: VM ESW5 destroyed.
Nov 28 08:13:40.058 HYPERVISOR: exec_cmd: hypervisor stop 
Nov 28 08:13:40.402 HYPERVISOR: Stopped.
Nov 28 08:13:40.402 GENERAL: reset done.
