autostart = False
version = 0.8.3
[127.0.0.1:7200]
    workingdir = C:\Users\ActionMystique\Documents\Missions\GNS3\Temp
    udp = 10200
    [[3640]]
        image = C:\Users\ActionMystique\Documents\Missions\IOS\Binaries\c3640-jk9o3s-mz.124-16a.bin
        idlepc = 0x603e2770
        sparsemem = True
        ghostios = True
        chassis = 3640
    [[ROUTER R4]]
        model = 3640
        console = 2009
        aux = 2100
        cnfg = configs\R4.cfg
        slot0 = NM-1FE-TX
        f0/0 = R2 f1/0
        slot1 = NM-1FE-TX
        f1/0 = R3 f1/0
        x = -289.828427125
        y = 11.1593795664
        z = 1.0
    [[ROUTER R1]]
        model = 3640
        console = 2006
        aux = 2101
        cnfg = configs\R1.cfg
        slot0 = NM-1FE-TX
        f0/0 = R2 f0/0
        slot1 = NM-1FE-TX
        f1/0 = R3 f0/0
        x = -293.656854249
        y = -319.129942315
        z = 1.0
    [[ROUTER R2]]
        model = 3640
        console = 2007
        aux = 2102
        cnfg = configs\R2.cfg
        slot0 = NM-1FE-TX
        f0/0 = R1 f0/0
        slot1 = NM-1FE-TX
        f1/0 = R4 f0/0
        x = -434.769552622
        y = -159.071067812
        z = 1.0
    [[ROUTER R3]]
        model = 3640
        console = 2008
        aux = 2103
        cnfg = configs\R3.cfg
        slot0 = NM-1FE-TX
        f0/0 = R1 f1/0
        slot1 = NM-1FE-TX
        f1/0 = R4 f1/0
        x = -136.573593129
        y = -157.464466094
        z = 1.0
[GNS3-DATA]
    configs = configs
    m11 = 0.999999999998
    m22 = 0.999999999998
    [[NOTE 1]]
        text = ".4"
        x = -255.265548008
        y = -9.17157287525
        color = "#0000ff"
    [[NOTE 2]]
        text = "RIP"
        x = -46.6690475584
        y = -371.210244844
        color = "#1a1a1a"
    [[NOTE 3]]
        text = ".4"
        x = -282.135605693
        y = -9.87867965644
        color = "#0000ff"
    [[NOTE 4]]
        text = "L0: 1.1.1.1 /24"
        x = -313.955410847
        y = -371.210244843
        color = "#0000ff"
    [[NOTE 5]]
        text = ".3"
        x = -153.442171517
        y = -126.551298552
        color = "#0000ff"
    [[NOTE 6]]
        text = ".3"
        x = -154.85638508
        y = -168.270598642
        color = "#0000ff"
    [[NOTE 7]]
        text = "192.168.12.0 /24"
        x = -470.226009489
        y = -239.688383542
        color = "#0000ff"
    [[NOTE 8]]
        text = "L0: 4.4.4.4 /24"
        x = -306.177236254
        y = 83.4594154602
        color = "#0000ff"
    [[NOTE 9]]
        text = "192.168.34.0 /24"
        x = -173.241161391
        y = -58.6690475583
        color = "#0000ff"
    [[NOTE 10]]
        text = "Flipper"
        x = -225.03510063
        y = -311.925973595
        color = "#1a1a1a"
    [[NOTE 11]]
        text = "192.168.13.0 /24"
        x = -179.605122421
        y = -240.395490323
        color = "#0000ff"
    [[NOTE 12]]
        text = "192.168.24.0 /24"
        x = -471.640223051
        y = -61.4974746831
        color = "#0000ff"
    [[NOTE 13]]
        text = "Skippy"
        x = -282.842712475
        y = 53.7609306503
        color = "#1a1a1a"
    [[NOTE 14]]
        text = "Lassie"
        x = -492.853426487
        y = -156.249783362
        color = "#1a1a1a"
    [[NOTE 15]]
        text = "Willy"
        x = -67.6898628385
        y = -159.663996924
        color = "#1a1a1a"
    [[NOTE 16]]
        text = ".1"
        x = -286.378246381
        y = -281.407683632
        color = "#0000ff"
    [[NOTE 17]]
        text = ".1"
        x = -261.629509039
        y = -281.407683632
        color = "#0000ff"
    [[NOTE 18]]
        text = "EIGRP AS 234"
        x = -128.693434176
        y = 72.1457069614
        color = "#1a1a1a"
    [[NOTE 19]]
        text = ".2"
        x = -376.887914372
        y = -172.513239329
        color = "#0000ff"
    [[NOTE 20]]
        text = ".2"
        x = -376.887914372
        y = -126.752308679
        color = "#0000ff"
    [[SHAPE 1]]
        type = rectangle
        x = -495.681853612
        y = -377.595021154
        width = 492.146319706
        height = 243.951839509
        fill_color = "#55ff7f"
        z = -3.0
    [[SHAPE 2]]
        type = rectangle
        x = -495.681853612
        y = -133.643181644
        width = 492.146319706
        height = 248.194480196
        fill_color = "#ffaaff"
        z = -3.0
