autostart = False
version = 0.8.2
[127.0.0.1:7200]
    workingdir = C:\Users\ActionMystique\Documents\Missions\GNS3\Temp
    udp = 10000
    [[3725]]
        image = C:\Users\ActionMystique\Documents\Missions\IOS\Binaries\c3725-adventerprisek9-mz.124-15.T5.image
        ram = 128
        idlepc = 0x62af9f1c
        sparsemem = True
        ghostios = True
    [[ROUTER R4]]
        model = 3725
        console = 2007
        aux = 2123
        cnfg = configs\R4.cfg
        wic0/0 = WIC-2T
        wic0/1 = WIC-2T
        wic0/2 = WIC-2T
        s0/0 = R3_FR s0/0
        f0/0 = SW1 4
        slot1 = NM-1FE-TX
        slot2 = NM-1FE-TX
        x = -303.0
        y = -319.0
        z = 1.0
    [[ETHSW SW1]]
        2 = access 1 R2 f0/0
        4 = access 1 R4 f0/0
        x = -30.5
        y = -313.0
        z = 1.0
    [[ROUTER R1]]
        model = 3725
        console = 2004
        aux = 2124
        cnfg = configs\R1.cfg
        wic0/0 = WIC-2T
        wic0/1 = WIC-2T
        wic0/2 = WIC-2T
        s0/2 = R3_FR s0/2
        slot1 = NM-1FE-TX
        slot2 = NM-1FE-TX
        x = -23.0
        y = 121.0
        z = 1.0
        hx = 23.5
        hy = 42.0
    [[ROUTER R2]]
        model = 3725
        console = 2005
        aux = 2125
        cnfg = configs\R2.cfg
        wic0/0 = WIC-2T
        wic0/1 = WIC-2T
        wic0/2 = WIC-2T
        s0/1 = R3_FR s0/1
        f0/0 = SW1 2
        slot1 = NM-1FE-TX
        slot2 = NM-1FE-TX
        x = 274.0
        y = -319.0
        z = 1.0
    [[ROUTER R3_FR]]
        model = 3725
        console = 2006
        aux = 2126
        cnfg = configs\R3_FR.cfg
        wic0/0 = WIC-2T
        wic0/1 = WIC-2T
        wic0/2 = WIC-2T
        s0/0 = R4 s0/0
        s0/1 = R2 s0/1
        s0/2 = R1 s0/2
        slot1 = NM-1FE-TX
        slot2 = NM-1FE-TX
        x = -24.0
        y = -67.0
        z = 1.0
[GNS3-DATA]
    configs = configs
    width = 5000
    height = 2500
    [[NOTE 1]]
        text = Frame-Relay\n10.1.123.0/24
        x = -37.0
        y = -150.5
    [[NOTE 2]]
        text = s0/1\nDCE\nDLCI 201
        x = 47.0
        y = -80.5
    [[NOTE 3]]
        text = s0/0\nDCE\nDLCI 301
        x = -94.0
        y = -92.5
    [[NOTE 4]]
        text = s0/2\nDCE\nDLCI 102/103
        x = 20.0
        y = -19.5
    [[NOTE 5]]
        text = West Branch\nlo3: 10.1.3.1/24
        x = -304.0
        y = -400.5
    [[NOTE 6]]
        text = East Branch\nLo2: 10.1.2.1/24
        x = 218.0
        y = -401.5
    [[NOTE 7]]
        text = fa0/0\n.2
        x = 229.0
        y = -340.5
    [[NOTE 8]]
        text = s0/0\n.3
        x = -265.0
        y = -262.5
    [[NOTE 9]]
        text = fa0/0\n.3
        x = -226.0
        y = -339.5
    [[NOTE 10]]
        text = 10.1.23.0/24
        x = -35.0
        y = -362.5
    [[NOTE 11]]
        text = Headquarters\nLo1: 10.1.1.1/24
        x = 74.0
        y = 122.5
    [[NOTE 12]]
        text = s0/1\n.2
        x = 272.0
        y = -265.5
    [[NOTE 13]]
        text = s0/2\n.1
        x = -40.0
        y = 82.5
    [[SHAPE 1]]
        type = ellipse
        x = 36.0
        y = 125.0
        width = 32.0
        height = 32.0
        border_style = 2
    [[SHAPE 2]]
        type = ellipse
        x = -304.0
        y = -355.0
        width = 21.0
        height = 44.0
        border_style = 2
        z = -2.0
    [[SHAPE 3]]
        type = ellipse
        x = 317.0
        y = -358.0
        width = 21.0
        height = 44.0
        border_style = 2
        z = -2.0
