Nov 28 08:54:53.364 HYPERVISOR: Release 0.2.17-amd64/Linux (tag 2017072410)
Nov 28 08:54:53.364 HYPERVISOR: Started on IP = 127.0.0.1, TCP port = 44765.
Nov 28 08:54:53.378 HYPERVISOR: exec_cmd: hypervisor version 
Nov 28 08:54:53.378 HYPERVISOR: exec_cmd: hypervisor working_dir /media/actionmystique/SAMSUNG5-VMs/Labs/GNS3/TT 3-solutions-linux-/project-files/dynamips 
Nov 28 08:54:53.378 GENERAL: working_dir=/media/actionmystique/SAMSUNG5-VMs/Labs/GNS3/TT 3-solutions-linux-/project-files/dynamips
Nov 28 08:54:53.378 HYPERVISOR: exec_cmd: vm create ESW4 4 c3725 
Nov 28 08:54:53.378 VM: VM ESW4 created.
Nov 28 08:54:53.379 HYPERVISOR: exec_cmd: vm set_con_tcp_port ESW4 2009 
Nov 28 08:54:53.379 HYPERVISOR: exec_cmd: c3725 get_mac_addr ESW4 
Nov 28 08:54:53.379 HYPERVISOR: exec_cmd: vm set_disk0 ESW4 1 
Nov 28 08:54:53.380 HYPERVISOR: exec_cmd: vm get_status ESW4 
Nov 28 08:54:53.380 HYPERVISOR: exec_cmd: vm slot_add_binding ESW4 1 0 NM-16ESW 
Nov 28 08:54:53.380 HYPERVISOR: exec_cmd: vm set_ios ESW4 /media/actionmystique/SAMSUNG5-VMs/Images/GNS3/IOS/c3725-adventerprisek9-mz.124-15.T10.image 
Nov 28 08:54:53.381 HYPERVISOR: exec_cmd: c3725 set_mac_addr ESW4 c204.11f4.0000 
Nov 28 08:54:53.381 HYPERVISOR: exec_cmd: vm slot_add_binding ESW4 0 16 WIC-2T 
Nov 28 08:54:53.382 HYPERVISOR: exec_cmd: vm get_status ESW4 
Nov 28 08:54:53.382 HYPERVISOR: exec_cmd: vm set_idle_pc ESW4 0x6026b804 
Nov 28 08:54:53.382 HYPERVISOR: exec_cmd: vm set_nvram ESW4 256 
Nov 28 08:54:53.383 HYPERVISOR: exec_cmd: vm set_config ESW4 configs/ios_base_startup-config.txt 
Nov 28 08:54:53.383 HYPERVISOR: exec_cmd: vm set_config ESW4 configs/ios_base_startup-config.txt configs/ios_base_private-config.txt 
Nov 28 08:54:53.720 HYPERVISOR: exec_cmd: nio create_udp udp-eb80215c-7b70-4c2b-8a00-ee5448670253 15014 127.0.0.1 15015 
Nov 28 08:54:53.720 HYPERVISOR: exec_cmd: vm slot_add_nio_binding ESW4 1 0 udp-eb80215c-7b70-4c2b-8a00-ee5448670253 
Nov 28 08:54:53.721 HYPERVISOR: exec_cmd: vm get_status ESW4 
Nov 28 08:54:53.735 HYPERVISOR: exec_cmd: nio create_udp udp-ca6b7fe6-7c78-4d4c-8e1b-d5c98fd6f93d 15016 127.0.0.1 15017 
Nov 28 08:54:53.736 HYPERVISOR: exec_cmd: vm slot_add_nio_binding ESW4 1 1 udp-ca6b7fe6-7c78-4d4c-8e1b-d5c98fd6f93d 
Nov 28 08:54:53.736 HYPERVISOR: exec_cmd: vm get_status ESW4 
Nov 28 08:55:04.311 HYPERVISOR: exec_cmd: vm get_status ESW4 
Nov 28 08:55:04.313 HYPERVISOR: exec_cmd: vm extract_config ESW4 
Nov 28 08:55:04.315 HYPERVISOR: exec_cmd: vm delete ESW4 
Nov 28 08:55:04.315 VM: VM ESW4 destroyed.
Nov 28 08:55:04.325 HYPERVISOR: exec_cmd: hypervisor stop 
Nov 28 08:55:04.388 HYPERVISOR: Stopped.
Nov 28 08:55:04.388 GENERAL: reset done.
