autostart = False
version = 0.8.3
[127.0.0.1:7200]
    workingdir = C:\Users\ActionMystique\Documents\Missions\GNS3\Temp
    udp = 10000
    [[3640]]
        image = C:\Users\ActionMystique\Documents\Missions\IOS\Binaries\c3640-jk9o3s-mz.124-16a.bin
        idlepc = 0x603e2770
        sparsemem = True
        ghostios = True
        chassis = 3640
    [[FRSW FR1]]
        1:102 = 2:201
        1:103 = 3:301
        2:201 = 1:102
        3:301 = 1:103
        1 = Moe s0/0
        2 = Curly s0/0
        3 = Larry s0/0
        x = -54.5
        y = -17.5
        z = 1.0
    [[ROUTER Larry]]
        model = 3640
        console = 2002
        aux = 2100
        cnfg = C:\Users\ActionMystique\Documents\Missions\GNS3\CCNP GNS3 Labs - Solutions\ROUTE\EIGRP\GNS3vault\EIGRP over Frame-Relay P2MP\configs\Larry.cfg
        slot0 = NM-4T
        s0/0 = FR1 3
        x = 127.0
        y = 92.0
        z = 1.0
    [[ROUTER Moe]]
        model = 3640
        console = 2000
        aux = 2101
        cnfg = C:\Users\ActionMystique\Documents\Missions\GNS3\CCNP GNS3 Labs - Solutions\ROUTE\EIGRP\GNS3vault\EIGRP over Frame-Relay P2MP\configs\Moe.cfg
        slot0 = NM-4T
        s0/0 = FR1 1
        x = -291.0
        y = -18.0
        z = 1.0
    [[ROUTER Curly]]
        model = 3640
        console = 2001
        aux = 2102
        cnfg = C:\Users\ActionMystique\Documents\Missions\GNS3\CCNP GNS3 Labs - Solutions\ROUTE\EIGRP\GNS3vault\EIGRP over Frame-Relay P2MP\configs\Curly.cfg
        slot0 = NM-4T
        s0/0 = FR1 2
        x = 139.0
        y = -106.0
        z = 1.0
[GNS3-DATA]
    configs = C:\Users\ActionMystique\Documents\Missions\GNS3\CCNP GNS3 Labs - Solutions\ROUTE\EIGRP\GNS3vault\EIGRP over Frame-Relay P2MP\configs
    m11 = 0.999999999998
    m22 = 0.999999999998
    [[NOTE 1]]
        text = ".1"
        x = -224.0
        y = -29.0
        color = "#0000ff"
    [[NOTE 2]]
        text = ".2"
        x = 123.0
        y = -62.0
        color = "#0000ff"
    [[NOTE 3]]
        text = "192.168.13.0 /24"
        x = -95.7279220609
        y = 61.3654403275
        color = "#0000ff"
    [[NOTE 4]]
        text = ".3"
        x = 111.0
        y = 64.0
        color = "#0000ff"
    [[NOTE 5]]
        text = "192.168.12.0 /24"
        x = -97.7279220609
        y = -74.6345596729
        color = "#0000ff"
