Nov 26 20:12:28.490 HYPERVISOR: Release 0.2.17-amd64/Linux (tag 2017072410)
Nov 26 20:12:28.490 HYPERVISOR: Started on IP = 127.0.0.1, TCP port = 34017.
Nov 26 20:12:28.520 HYPERVISOR: exec_cmd: hypervisor version 
Nov 26 20:12:28.522 HYPERVISOR: exec_cmd: hypervisor working_dir /media/actionmystique/SAMSUNG5-VMs/Labs/GNS3/OSPF-EIGRP/project-files/dynamips 
Nov 26 20:12:28.522 GENERAL: working_dir=/media/actionmystique/SAMSUNG5-VMs/Labs/GNS3/OSPF-EIGRP/project-files/dynamips
Nov 26 20:12:28.524 HYPERVISOR: exec_cmd: vm create R5 6 c7200 
Nov 26 20:12:28.524 VM: VM R5 created.
Nov 26 20:12:28.525 HYPERVISOR: exec_cmd: vm set_con_tcp_port R5 2004 
Nov 26 20:12:28.526 HYPERVISOR: exec_cmd: vm set_aux_tcp_port R5 2103 
Nov 26 20:12:28.527 HYPERVISOR: exec_cmd: c7200 get_mac_addr R5 
Nov 26 20:12:28.528 HYPERVISOR: exec_cmd: vm get_status R5 
Nov 26 20:12:28.530 HYPERVISOR: exec_cmd: vm slot_add_binding R5 0 0 C7200-IO-FE 
Nov 26 20:12:28.532 HYPERVISOR: exec_cmd: vm set_ios R5 /media/actionmystique/SAMSUNG5-VMs/Images/GNS3/IOS/c7200-adventerprisek9-mz.152-4.M2.image 
Nov 26 20:12:28.534 HYPERVISOR: exec_cmd: vm get_status R5 
Nov 26 20:12:28.535 HYPERVISOR: exec_cmd: vm slot_add_binding R5 1 0 PA-8T 
Nov 26 20:12:28.537 HYPERVISOR: exec_cmd: vm get_status R5 
Nov 26 20:12:28.539 HYPERVISOR: exec_cmd: vm set_idle_pc R5 0x60188e14 
Nov 26 20:12:28.540 HYPERVISOR: exec_cmd: vm get_status R5 
Nov 26 20:12:28.549 HYPERVISOR: exec_cmd: vm slot_remove_binding R5 0 0 
Nov 26 20:12:28.560 HYPERVISOR: exec_cmd: vm get_status R5 
Nov 26 20:12:28.569 HYPERVISOR: exec_cmd: vm slot_add_binding R5 0 0 C7200-IO-GE-E 
Nov 26 20:12:28.572 HYPERVISOR: exec_cmd: vm set_con_tcp_port R5 2004 
Nov 26 20:12:28.573 HYPERVISOR: exec_cmd: vm set_ram R5 512 
Nov 26 20:12:28.575 HYPERVISOR: exec_cmd: vm set_config R5 configs/i6_startup-config.cfg 
Nov 26 20:12:29.954 HYPERVISOR: exec_cmd: vm extract_config R5 
Nov 26 20:12:30.001 HYPERVISOR: exec_cmd: nio create_udp udp-262f0d35-7f08-497e-bf3f-8355aa4a7a7b 15009 127.0.0.1 15005 
Nov 26 20:12:30.004 HYPERVISOR: exec_cmd: vm slot_add_nio_binding R5 1 0 udp-262f0d35-7f08-497e-bf3f-8355aa4a7a7b 
Nov 26 20:12:30.006 HYPERVISOR: exec_cmd: vm get_status R5 
Nov 26 20:12:30.685 HYPERVISOR: exec_cmd: nio create_udp udp-1f4d4b41-f92e-4c2d-89fd-0036a11ae5ee 15070 127.0.0.1 15068 
Nov 26 20:12:30.685 HYPERVISOR: exec_cmd: vm slot_add_nio_binding R5 1 1 udp-1f4d4b41-f92e-4c2d-89fd-0036a11ae5ee 
Nov 26 20:12:30.685 HYPERVISOR: exec_cmd: vm get_status R5 
Nov 26 20:14:16.134 HYPERVISOR: exec_cmd: vm get_status R5 
Nov 26 20:14:16.148 HYPERVISOR: exec_cmd: vm extract_config R5 
Nov 26 20:14:16.163 HYPERVISOR: exec_cmd: vm delete R5 
Nov 26 20:14:16.163 VM: VM R5 destroyed.
Nov 26 20:14:16.176 HYPERVISOR: exec_cmd: hypervisor stop 
Nov 26 20:14:16.610 HYPERVISOR: Stopped.
Nov 26 20:14:16.610 GENERAL: reset done.
