Nov 26 20:12:28.771 HYPERVISOR: Release 0.2.17-amd64/Linux (tag 2017072410)
Nov 26 20:12:28.771 HYPERVISOR: Started on IP = 127.0.0.1, TCP port = 36249.
Nov 26 20:12:28.805 HYPERVISOR: exec_cmd: hypervisor version 
Nov 26 20:12:28.815 HYPERVISOR: exec_cmd: hypervisor working_dir /media/actionmystique/SAMSUNG5-VMs/Labs/GNS3/OSPF-EIGRP/project-files/dynamips 
Nov 26 20:12:28.815 GENERAL: working_dir=/media/actionmystique/SAMSUNG5-VMs/Labs/GNS3/OSPF-EIGRP/project-files/dynamips
Nov 26 20:12:28.817 HYPERVISOR: exec_cmd: vm create R14 17 c7200 
Nov 26 20:12:28.818 VM: VM R14 created.
Nov 26 20:12:28.819 HYPERVISOR: exec_cmd: vm set_con_tcp_port R14 2019 
Nov 26 20:12:28.821 HYPERVISOR: exec_cmd: vm set_aux_tcp_port R14 2119 
Nov 26 20:12:28.822 HYPERVISOR: exec_cmd: c7200 get_mac_addr R14 
Nov 26 20:12:28.824 HYPERVISOR: exec_cmd: vm get_status R14 
Nov 26 20:12:28.829 HYPERVISOR: exec_cmd: vm slot_add_binding R14 0 0 C7200-IO-FE 
Nov 26 20:12:28.840 HYPERVISOR: exec_cmd: vm set_ios R14 /media/actionmystique/SAMSUNG5-VMs/Images/GNS3/IOS/c7200-adventerprisek9-mz.152-4.M2.image 
Nov 26 20:12:28.842 HYPERVISOR: exec_cmd: vm get_status R14 
Nov 26 20:12:28.844 HYPERVISOR: exec_cmd: vm slot_add_binding R14 1 0 PA-2FE-TX 
Nov 26 20:12:28.845 HYPERVISOR: exec_cmd: vm get_status R14 
Nov 26 20:12:28.846 HYPERVISOR: exec_cmd: vm set_idle_pc R14 0x60188e14 
Nov 26 20:12:28.854 HYPERVISOR: exec_cmd: vm get_status R14 
Nov 26 20:12:28.863 HYPERVISOR: exec_cmd: vm slot_remove_binding R14 0 0 
Nov 26 20:12:28.866 HYPERVISOR: exec_cmd: vm get_status R14 
Nov 26 20:12:28.868 HYPERVISOR: exec_cmd: vm slot_add_binding R14 0 0 C7200-IO-GE-E 
Nov 26 20:12:28.869 HYPERVISOR: exec_cmd: vm get_status R14 
Nov 26 20:12:28.871 HYPERVISOR: exec_cmd: vm slot_add_binding R14 2 0 PA-2FE-TX 
Nov 26 20:12:28.872 HYPERVISOR: exec_cmd: vm set_ram R14 512 
Nov 26 20:12:28.874 HYPERVISOR: exec_cmd: vm set_config R14 configs/i17_startup-config.cfg 
Nov 26 20:12:29.952 HYPERVISOR: exec_cmd: vm extract_config R14 
Nov 26 20:12:30.480 HYPERVISOR: exec_cmd: nio create_udp udp-9243166b-88eb-47db-87f6-5e50f3269f58 15050 127.0.0.1 15048 
Nov 26 20:12:30.481 HYPERVISOR: exec_cmd: vm slot_add_nio_binding R14 0 0 udp-9243166b-88eb-47db-87f6-5e50f3269f58 
Nov 26 20:12:30.481 HYPERVISOR: exec_cmd: vm get_status R14 
Nov 26 20:12:30.492 HYPERVISOR: exec_cmd: nio create_udp udp-c8dc36c6-a3c7-4183-8d95-b97afd040056 15049 127.0.0.1 15052 
Nov 26 20:12:30.493 HYPERVISOR: exec_cmd: vm slot_add_nio_binding R14 1 0 udp-c8dc36c6-a3c7-4183-8d95-b97afd040056 
Nov 26 20:12:30.493 HYPERVISOR: exec_cmd: vm get_status R14 
Nov 26 20:12:30.513 HYPERVISOR: exec_cmd: nio create_udp udp-ac238144-76ae-4415-9460-c54507f94d09 15051 127.0.0.1 15053 
Nov 26 20:12:30.513 HYPERVISOR: exec_cmd: vm slot_add_nio_binding R14 1 1 udp-ac238144-76ae-4415-9460-c54507f94d09 
Nov 26 20:12:30.514 HYPERVISOR: exec_cmd: vm get_status R14 
Nov 26 20:12:30.529 HYPERVISOR: exec_cmd: nio create_udp udp-def62549-87d0-42b8-a649-189b46660904 15055 127.0.0.1 15054 
Nov 26 20:12:30.529 HYPERVISOR: exec_cmd: vm slot_add_nio_binding R14 2 0 udp-def62549-87d0-42b8-a649-189b46660904 
Nov 26 20:12:30.530 HYPERVISOR: exec_cmd: vm get_status R14 
Nov 26 20:14:16.135 HYPERVISOR: exec_cmd: vm get_status R14 
Nov 26 20:14:16.148 HYPERVISOR: exec_cmd: vm extract_config R14 
Nov 26 20:14:16.164 HYPERVISOR: exec_cmd: vm delete R14 
Nov 26 20:14:16.164 VM: VM R14 destroyed.
Nov 26 20:14:16.176 HYPERVISOR: exec_cmd: hypervisor stop 
Nov 26 20:14:16.397 HYPERVISOR: Stopped.
Nov 26 20:14:16.397 GENERAL: reset done.
