Nov 26 20:12:28.723 HYPERVISOR: Release 0.2.17-amd64/Linux (tag 2017072410)
Nov 26 20:12:28.723 HYPERVISOR: Started on IP = 127.0.0.1, TCP port = 36171.
Nov 26 20:12:28.755 HYPERVISOR: exec_cmd: hypervisor version 
Nov 26 20:12:28.760 HYPERVISOR: exec_cmd: hypervisor working_dir /media/actionmystique/SAMSUNG5-VMs/Labs/GNS3/OSPF-EIGRP/project-files/dynamips 
Nov 26 20:12:28.760 GENERAL: working_dir=/media/actionmystique/SAMSUNG5-VMs/Labs/GNS3/OSPF-EIGRP/project-files/dynamips
Nov 26 20:12:28.771 HYPERVISOR: exec_cmd: vm create I5 15 c7200 
Nov 26 20:12:28.771 VM: VM I5 created.
Nov 26 20:12:28.773 HYPERVISOR: exec_cmd: vm set_con_tcp_port I5 2056 
Nov 26 20:12:28.775 HYPERVISOR: exec_cmd: vm set_aux_tcp_port I5 2156 
Nov 26 20:12:28.776 HYPERVISOR: exec_cmd: c7200 get_mac_addr I5 
Nov 26 20:12:28.778 HYPERVISOR: exec_cmd: vm get_status I5 
Nov 26 20:12:28.779 HYPERVISOR: exec_cmd: vm slot_add_binding I5 0 0 C7200-IO-FE 
Nov 26 20:12:28.785 HYPERVISOR: exec_cmd: vm set_ios I5 /media/actionmystique/SAMSUNG5-VMs/Images/GNS3/IOS/c7200-adventerprisek9-mz.152-4.M2.image 
Nov 26 20:12:28.795 HYPERVISOR: exec_cmd: vm get_status I5 
Nov 26 20:12:28.797 HYPERVISOR: exec_cmd: vm slot_add_binding I5 1 0 PA-8T 
Nov 26 20:12:28.799 HYPERVISOR: exec_cmd: vm get_status I5 
Nov 26 20:12:28.804 HYPERVISOR: exec_cmd: vm set_idle_pc I5 0x60188e14 
Nov 26 20:12:28.813 HYPERVISOR: exec_cmd: vm get_status I5 
Nov 26 20:12:28.816 HYPERVISOR: exec_cmd: vm slot_remove_binding I5 0 0 
Nov 26 20:12:28.818 HYPERVISOR: exec_cmd: vm get_status I5 
Nov 26 20:12:28.820 HYPERVISOR: exec_cmd: vm slot_add_binding I5 0 0 C7200-IO-GE-E 
Nov 26 20:12:28.822 HYPERVISOR: exec_cmd: vm set_ram I5 512 
Nov 26 20:12:28.823 HYPERVISOR: exec_cmd: vm set_config I5 configs/i15_startup-config.cfg 
Nov 26 20:12:29.955 HYPERVISOR: exec_cmd: vm extract_config I5 
Nov 26 20:12:30.384 HYPERVISOR: exec_cmd: nio create_udp udp-8f96594b-0873-48b3-8f62-08833d8a7127 15040 127.0.0.1 15038 
Nov 26 20:12:30.385 HYPERVISOR: exec_cmd: vm slot_add_nio_binding I5 1 2 udp-8f96594b-0873-48b3-8f62-08833d8a7127 
Nov 26 20:12:30.385 HYPERVISOR: exec_cmd: vm get_status I5 
Nov 26 20:12:30.399 HYPERVISOR: exec_cmd: nio create_udp udp-64596cd4-c68f-46e2-b88e-fa24eb744559 15042 127.0.0.1 15039 
Nov 26 20:12:30.400 HYPERVISOR: exec_cmd: vm slot_add_nio_binding I5 1 0 udp-64596cd4-c68f-46e2-b88e-fa24eb744559 
Nov 26 20:12:30.401 HYPERVISOR: exec_cmd: vm get_status I5 
Nov 26 20:12:30.411 HYPERVISOR: exec_cmd: nio create_udp udp-5510e731-d82b-427b-af91-5fe7de48f373 15043 127.0.0.1 15041 
Nov 26 20:12:30.411 HYPERVISOR: exec_cmd: vm slot_add_nio_binding I5 0 0 udp-5510e731-d82b-427b-af91-5fe7de48f373 
Nov 26 20:12:30.412 HYPERVISOR: exec_cmd: vm get_status I5 
Nov 26 20:12:30.460 HYPERVISOR: exec_cmd: nio create_udp udp-848785e9-b363-490c-975a-1ea63fe39b9e 15046 127.0.0.1 15047 
Nov 26 20:12:30.461 HYPERVISOR: exec_cmd: vm slot_add_nio_binding I5 1 1 udp-848785e9-b363-490c-975a-1ea63fe39b9e 
Nov 26 20:12:30.462 HYPERVISOR: exec_cmd: vm get_status I5 
Nov 26 20:12:30.562 HYPERVISOR: exec_cmd: nio create_udp udp-bb1c3658-952b-435b-9f04-0f9d0ff9ee7a 15056 127.0.0.1 15057 
Nov 26 20:12:30.563 HYPERVISOR: exec_cmd: vm slot_add_nio_binding I5 1 3 udp-bb1c3658-952b-435b-9f04-0f9d0ff9ee7a 
Nov 26 20:12:30.563 HYPERVISOR: exec_cmd: vm get_status I5 
Nov 26 20:12:30.624 HYPERVISOR: exec_cmd: nio create_udp udp-d484c01d-8e1f-49ba-9479-3c91bfd9aa7d 15063 127.0.0.1 15061 
Nov 26 20:12:30.625 HYPERVISOR: exec_cmd: vm slot_add_nio_binding I5 1 4 udp-d484c01d-8e1f-49ba-9479-3c91bfd9aa7d 
Nov 26 20:12:30.625 HYPERVISOR: exec_cmd: vm get_status I5 
Nov 26 20:14:16.138 HYPERVISOR: exec_cmd: vm get_status I5 
Nov 26 20:14:16.153 HYPERVISOR: exec_cmd: vm extract_config I5 
Nov 26 20:14:16.167 HYPERVISOR: exec_cmd: vm delete I5 
Nov 26 20:14:16.167 VM: VM I5 destroyed.
Nov 26 20:14:16.179 HYPERVISOR: exec_cmd: hypervisor stop 
Nov 26 20:14:16.353 HYPERVISOR: Stopped.
Nov 26 20:14:16.353 GENERAL: reset done.
