Nov 29 15:24:55.750 HYPERVISOR: Release 0.2.17-amd64/Linux (tag 2017072410)
Nov 29 15:24:55.750 HYPERVISOR: Started on IP = 127.0.0.1, TCP port = 50745.
Nov 29 15:24:55.759 HYPERVISOR: exec_cmd: hypervisor version 
Nov 29 15:24:55.760 HYPERVISOR: exec_cmd: hypervisor working_dir /media/actionmystique/SAMSUNG5-VMs/Labs/GNS3/git-Public-Labs-Collection/CCNP/TBSHOOT/L3-Technologies/IPv4/Routing-Protocols/Redistribution/Jean-Christophe_Manciot/1+/TT 2-linux/project-files/dynamips 
Nov 29 15:24:55.760 GENERAL: working_dir=/media/actionmystique/SAMSUNG5-VMs/Labs/GNS3/git-Public-Labs-Collection/CCNP/TBSHOOT/L3-Technologies/IPv4/Routing-Protocols/Redistribution/Jean-Christophe_Manciot/1+/TT 2-linux/project-files/dynamips
Nov 29 15:24:55.761 HYPERVISOR: exec_cmd: vm create ESW5 5 c3725 
Nov 29 15:24:55.761 VM: VM ESW5 created.
Nov 29 15:24:55.763 HYPERVISOR: exec_cmd: vm set_con_tcp_port ESW5 2010 
Nov 29 15:24:55.764 HYPERVISOR: exec_cmd: c3725 get_mac_addr ESW5 
Nov 29 15:24:55.766 HYPERVISOR: exec_cmd: vm get_status ESW5 
Nov 29 15:24:55.768 HYPERVISOR: exec_cmd: vm set_idle_pc ESW5 0x614ac27c 
Nov 29 15:24:55.769 HYPERVISOR: exec_cmd: vm set_disk0 ESW5 1 
Nov 29 15:24:55.770 HYPERVISOR: exec_cmd: vm slot_add_binding ESW5 0 16 WIC-2T 
Nov 29 15:24:55.772 HYPERVISOR: exec_cmd: vm get_status ESW5 
Nov 29 15:24:55.773 HYPERVISOR: exec_cmd: vm slot_add_binding ESW5 1 0 NM-16ESW 
Nov 29 15:24:55.774 HYPERVISOR: exec_cmd: vm set_nvram ESW5 256 
Nov 29 15:24:55.775 HYPERVISOR: exec_cmd: vm set_ios ESW5 /media/actionmystique/SAMSUNG5-VMs/Images/GNS3/IOS/c3725-adventerprisek9-mz.124-15.T10.image 
Nov 29 15:24:55.777 HYPERVISOR: exec_cmd: c3725 set_mac_addr ESW5 c205.6a03.0000 
Nov 29 15:24:55.781 HYPERVISOR: exec_cmd: vm set_config ESW5 configs/ios_base_startup-config.txt 
Nov 29 15:24:55.787 HYPERVISOR: exec_cmd: vm set_config ESW5 configs/ios_base_startup-config.txt configs/ios_base_private-config.txt 
Nov 29 15:24:56.085 HYPERVISOR: exec_cmd: nio create_udp udp-073e594b-3d52-4dcb-b6f6-e20bfca7b6b7 15009 127.0.0.1 15008 
Nov 29 15:24:56.086 HYPERVISOR: exec_cmd: vm slot_add_nio_binding ESW5 1 0 udp-073e594b-3d52-4dcb-b6f6-e20bfca7b6b7 
Nov 29 15:24:56.087 HYPERVISOR: exec_cmd: vm get_status ESW5 
Nov 29 15:24:56.092 HYPERVISOR: exec_cmd: nio create_udp udp-507392b5-2a31-4c99-9a1d-a7055ca196f6 15010 127.0.0.1 15011 
Nov 29 15:24:56.093 HYPERVISOR: exec_cmd: vm slot_add_nio_binding ESW5 1 1 udp-507392b5-2a31-4c99-9a1d-a7055ca196f6 
Nov 29 15:24:56.094 HYPERVISOR: exec_cmd: vm get_status ESW5 
