Nov 28 08:36:36.090 HYPERVISOR: Release 0.2.17-amd64/Linux (tag 2017072410)
Nov 28 08:36:36.090 HYPERVISOR: Started on IP = 127.0.0.1, TCP port = 56581.
Nov 28 08:36:36.103 HYPERVISOR: exec_cmd: hypervisor version 
Nov 28 08:36:36.104 HYPERVISOR: exec_cmd: hypervisor working_dir /media/actionmystique/SAMSUNG5-VMs/Labs/GNS3/TT 2-linux-/project-files/dynamips 
Nov 28 08:36:36.104 GENERAL: working_dir=/media/actionmystique/SAMSUNG5-VMs/Labs/GNS3/TT 2-linux-/project-files/dynamips
Nov 28 08:36:36.104 HYPERVISOR: exec_cmd: vm create ESW2 2 c3725 
Nov 28 08:36:36.104 VM: VM ESW2 created.
Nov 28 08:36:36.104 HYPERVISOR: exec_cmd: vm set_con_tcp_port ESW2 2005 
Nov 28 08:36:36.105 HYPERVISOR: exec_cmd: c3725 get_mac_addr ESW2 
Nov 28 08:36:36.105 HYPERVISOR: exec_cmd: vm set_disk0 ESW2 1 
Nov 28 08:36:36.105 HYPERVISOR: exec_cmd: vm get_status ESW2 
Nov 28 08:36:36.106 HYPERVISOR: exec_cmd: vm slot_add_binding ESW2 1 0 NM-16ESW 
Nov 28 08:36:36.106 HYPERVISOR: exec_cmd: vm set_ios ESW2 /media/actionmystique/SAMSUNG5-VMs/Images/GNS3/IOS/c3725-adventerprisek9-mz.124-15.T10.image 
Nov 28 08:36:36.107 HYPERVISOR: exec_cmd: c3725 set_mac_addr ESW2 c202.1bd4.0000 
Nov 28 08:36:36.107 HYPERVISOR: exec_cmd: vm slot_add_binding ESW2 0 16 WIC-2T 
Nov 28 08:36:36.107 HYPERVISOR: exec_cmd: vm get_status ESW2 
Nov 28 08:36:36.108 HYPERVISOR: exec_cmd: vm set_idle_pc ESW2 0x614ac27c 
Nov 28 08:36:36.108 HYPERVISOR: exec_cmd: vm set_nvram ESW2 256 
Nov 28 08:36:36.109 HYPERVISOR: exec_cmd: vm set_config ESW2 configs/ios_base_startup-config.txt 
Nov 28 08:36:36.109 HYPERVISOR: exec_cmd: vm set_config ESW2 configs/ios_base_startup-config.txt configs/ios_base_private-config.txt 
Nov 28 08:36:36.319 HYPERVISOR: exec_cmd: nio create_udp udp-97445062-b31d-4718-b4e3-43cb66918568 15000 127.0.0.1 15002 
Nov 28 08:36:36.329 HYPERVISOR: exec_cmd: vm slot_add_nio_binding ESW2 1 0 udp-97445062-b31d-4718-b4e3-43cb66918568 
Nov 28 08:36:36.335 HYPERVISOR: exec_cmd: vm get_status ESW2 
Nov 28 08:36:49.513 HYPERVISOR: exec_cmd: vm get_status ESW2 
Nov 28 08:36:49.514 HYPERVISOR: exec_cmd: vm extract_config ESW2 
Nov 28 08:36:49.515 HYPERVISOR: exec_cmd: vm delete ESW2 
Nov 28 08:36:49.515 VM: VM ESW2 destroyed.
Nov 28 08:36:49.516 HYPERVISOR: exec_cmd: hypervisor stop 
Nov 28 08:36:49.617 HYPERVISOR: Stopped.
Nov 28 08:36:49.617 GENERAL: reset done.
