Nov 29 18:57:41.586 HYPERVISOR: Release 0.2.17-amd64/Linux (tag 2017072410)
Nov 29 18:57:41.586 HYPERVISOR: Started on IP = 127.0.0.1, TCP port = 37247.
Nov 29 18:57:41.598 HYPERVISOR: exec_cmd: hypervisor version 
Nov 29 18:57:41.598 HYPERVISOR: exec_cmd: hypervisor working_dir /media/actionmystique/SAMSUNG5-VMs/Labs/GNS3/git-Public-Labs-Collection/CCNP/TBSHOOT/L3-Technologies/IPv6/Addressing/Jean-Christophe_Manciot/1+/TT 1-linux/project-files/dynamips 
Nov 29 18:57:41.598 GENERAL: working_dir=/media/actionmystique/SAMSUNG5-VMs/Labs/GNS3/git-Public-Labs-Collection/CCNP/TBSHOOT/L3-Technologies/IPv6/Addressing/Jean-Christophe_Manciot/1+/TT 1-linux/project-files/dynamips
Nov 29 18:57:41.599 HYPERVISOR: exec_cmd: vm create ESW1 1 c3725 
Nov 29 18:57:41.599 VM: VM ESW1 created.
Nov 29 18:57:41.599 HYPERVISOR: exec_cmd: vm set_con_tcp_port ESW1 2001 
Nov 29 18:57:41.599 HYPERVISOR: exec_cmd: vm set_aux_tcp_port ESW1 2501 
Nov 29 18:57:41.600 HYPERVISOR: exec_cmd: c3725 get_mac_addr ESW1 
Nov 29 18:57:41.600 HYPERVISOR: exec_cmd: vm slot_add_binding ESW1 0 16 WIC-2T 
Nov 29 18:57:41.600 HYPERVISOR: exec_cmd: vm set_ios ESW1 /media/actionmystique/SAMSUNG5-VMs/Images/GNS3/IOS/c3725-adventerprisek9-mz.124-15.T10.image 
Nov 29 18:57:41.601 HYPERVISOR: exec_cmd: vm get_status ESW1 
Nov 29 18:57:41.601 HYPERVISOR: exec_cmd: vm set_idle_pc ESW1 0x614ac27c 
Nov 29 18:57:41.601 HYPERVISOR: exec_cmd: vm get_status ESW1 
Nov 29 18:57:41.602 HYPERVISOR: exec_cmd: vm slot_add_binding ESW1 1 0 NM-16ESW 
Nov 29 18:57:41.602 HYPERVISOR: exec_cmd: c3725 set_mac_addr ESW1 c201.281a.0000 
Nov 29 18:57:41.602 HYPERVISOR: exec_cmd: vm set_disk0 ESW1 1 
Nov 29 18:57:41.603 HYPERVISOR: exec_cmd: vm set_nvram ESW1 256 
Nov 29 18:57:41.603 HYPERVISOR: exec_cmd: vm set_config ESW1 configs/i1_startup-config.cfg 
Nov 29 18:57:41.604 HYPERVISOR: exec_cmd: vm set_config ESW1 configs/i1_startup-config.cfg configs/i1_private-config.cfg 
Nov 29 18:57:41.732 HYPERVISOR: exec_cmd: nio create_udp udp-51680a42-c04b-4df6-b1e3-59e22ae57563 15005 127.0.0.1 15004 
Nov 29 18:57:41.737 HYPERVISOR: exec_cmd: vm slot_add_nio_binding ESW1 1 2 udp-51680a42-c04b-4df6-b1e3-59e22ae57563 
Nov 29 18:57:41.738 HYPERVISOR: exec_cmd: vm get_status ESW1 
Nov 29 18:57:41.769 HYPERVISOR: exec_cmd: nio create_udp udp-731c40fa-1021-4312-bbef-00e169db5c46 15002 127.0.0.1 15006 
Nov 29 18:57:41.781 HYPERVISOR: exec_cmd: vm slot_add_nio_binding ESW1 1 1 udp-731c40fa-1021-4312-bbef-00e169db5c46 
Nov 29 18:57:41.783 HYPERVISOR: exec_cmd: vm get_status ESW1 
Nov 29 18:57:41.793 HYPERVISOR: exec_cmd: nio create_udp udp-5a0147b8-6c7c-4aae-80f9-eb3fc3b12e3a 15003 127.0.0.1 15008 
Nov 29 18:57:41.795 HYPERVISOR: exec_cmd: vm slot_add_nio_binding ESW1 1 0 udp-5a0147b8-6c7c-4aae-80f9-eb3fc3b12e3a 
Nov 29 18:57:41.795 HYPERVISOR: exec_cmd: vm get_status ESW1 
Nov 29 18:57:41.832 HYPERVISOR: exec_cmd: nio create_udp udp-4d6d820c-d033-4e8b-8c95-fb42259e783e 15007 127.0.0.1 15011 
Nov 29 18:57:41.832 HYPERVISOR: exec_cmd: vm slot_add_nio_binding ESW1 1 3 udp-4d6d820c-d033-4e8b-8c95-fb42259e783e 
Nov 29 18:57:41.833 HYPERVISOR: exec_cmd: vm get_status ESW1 
