Nov 29 15:24:29.691 HYPERVISOR: Release 0.2.17-amd64/Linux (tag 2017072410)
Nov 29 15:24:29.691 HYPERVISOR: Started on IP = 127.0.0.1, TCP port = 33529.
Nov 29 15:24:29.704 HYPERVISOR: exec_cmd: hypervisor version 
Nov 29 15:24:29.706 HYPERVISOR: exec_cmd: hypervisor working_dir /media/actionmystique/SAMSUNG5-VMs/Labs/GNS3/git-Public-Labs-Collection/CCNP/TBSHOOT/L3-Technologies/IPv4/Routing-Protocols/Redistribution/Jean-Christophe_Manciot/1+/TT 1-solutions-linux/project-files/dynamips 
Nov 29 15:24:29.706 GENERAL: working_dir=/media/actionmystique/SAMSUNG5-VMs/Labs/GNS3/git-Public-Labs-Collection/CCNP/TBSHOOT/L3-Technologies/IPv4/Routing-Protocols/Redistribution/Jean-Christophe_Manciot/1+/TT 1-solutions-linux/project-files/dynamips
Nov 29 15:24:29.707 HYPERVISOR: exec_cmd: vm create ESW2 2 c3725 
Nov 29 15:24:29.707 VM: VM ESW2 created.
Nov 29 15:24:29.707 HYPERVISOR: exec_cmd: vm set_con_tcp_port ESW2 2005 
Nov 29 15:24:29.708 HYPERVISOR: exec_cmd: c3725 get_mac_addr ESW2 
Nov 29 15:24:29.708 HYPERVISOR: exec_cmd: vm get_status ESW2 
Nov 29 15:24:29.709 HYPERVISOR: exec_cmd: vm set_idle_pc ESW2 0x60c06d20 
Nov 29 15:24:29.710 HYPERVISOR: exec_cmd: vm get_status ESW2 
Nov 29 15:24:29.710 HYPERVISOR: exec_cmd: vm slot_add_binding ESW2 1 0 NM-16ESW 
Nov 29 15:24:29.711 HYPERVISOR: exec_cmd: vm set_disk0 ESW2 1 
Nov 29 15:24:29.711 HYPERVISOR: exec_cmd: vm set_nvram ESW2 256 
Nov 29 15:24:29.712 HYPERVISOR: exec_cmd: vm set_ios ESW2 /media/actionmystique/SAMSUNG5-VMs/Images/GNS3/IOS/c3725-adventerprisek9-mz.124-15.T10.image 
Nov 29 15:24:29.713 HYPERVISOR: exec_cmd: c3725 set_mac_addr ESW2 c202.1bd4.0000 
Nov 29 15:24:29.714 HYPERVISOR: exec_cmd: vm slot_add_binding ESW2 0 16 WIC-2T 
Nov 29 15:24:29.716 HYPERVISOR: exec_cmd: vm set_config ESW2 configs/ios_base_startup-config.txt 
Nov 29 15:24:29.718 HYPERVISOR: exec_cmd: vm set_config ESW2 configs/ios_base_startup-config.txt configs/ios_base_private-config.txt 
Nov 29 15:24:30.001 HYPERVISOR: exec_cmd: nio create_udp udp-cc109594-63c0-481c-81c7-76362da6f5b7 15002 127.0.0.1 15006 
Nov 29 15:24:30.002 HYPERVISOR: exec_cmd: vm slot_add_nio_binding ESW2 1 0 udp-cc109594-63c0-481c-81c7-76362da6f5b7 
Nov 29 15:24:30.008 HYPERVISOR: exec_cmd: vm get_status ESW2 
