Nov 29 15:24:29.714 HYPERVISOR: Release 0.2.17-amd64/Linux (tag 2017072410)
Nov 29 15:24:29.714 HYPERVISOR: Started on IP = 127.0.0.1, TCP port = 55505.
Nov 29 15:24:29.736 HYPERVISOR: exec_cmd: hypervisor version 
Nov 29 15:24:29.738 HYPERVISOR: exec_cmd: hypervisor working_dir /media/actionmystique/SAMSUNG5-VMs/Labs/GNS3/git-Public-Labs-Collection/CCNP/TBSHOOT/L3-Technologies/IPv4/Routing-Protocols/Redistribution/Jean-Christophe_Manciot/1+/TT 1-solutions-linux/project-files/dynamips 
Nov 29 15:24:29.738 GENERAL: working_dir=/media/actionmystique/SAMSUNG5-VMs/Labs/GNS3/git-Public-Labs-Collection/CCNP/TBSHOOT/L3-Technologies/IPv4/Routing-Protocols/Redistribution/Jean-Christophe_Manciot/1+/TT 1-solutions-linux/project-files/dynamips
Nov 29 15:24:29.739 HYPERVISOR: exec_cmd: vm create ESW3 3 c3725 
Nov 29 15:24:29.739 VM: VM ESW3 created.
Nov 29 15:24:29.739 HYPERVISOR: exec_cmd: vm set_con_tcp_port ESW3 2006 
Nov 29 15:24:29.740 HYPERVISOR: exec_cmd: c3725 get_mac_addr ESW3 
Nov 29 15:24:29.741 HYPERVISOR: exec_cmd: vm get_status ESW3 
Nov 29 15:24:29.743 HYPERVISOR: exec_cmd: vm set_idle_pc ESW3 0x60c06d20 
Nov 29 15:24:29.744 HYPERVISOR: exec_cmd: vm get_status ESW3 
Nov 29 15:24:29.745 HYPERVISOR: exec_cmd: vm slot_add_binding ESW3 1 0 NM-16ESW 
Nov 29 15:24:29.745 HYPERVISOR: exec_cmd: vm set_disk0 ESW3 1 
Nov 29 15:24:29.746 HYPERVISOR: exec_cmd: vm set_nvram ESW3 256 
Nov 29 15:24:29.747 HYPERVISOR: exec_cmd: vm set_ios ESW3 /media/actionmystique/SAMSUNG5-VMs/Images/GNS3/IOS/c3725-adventerprisek9-mz.124-15.T10.image 
Nov 29 15:24:29.749 HYPERVISOR: exec_cmd: c3725 set_mac_addr ESW3 c203.1bfb.0000 
Nov 29 15:24:29.750 HYPERVISOR: exec_cmd: vm slot_add_binding ESW3 0 16 WIC-2T 
Nov 29 15:24:29.752 HYPERVISOR: exec_cmd: vm set_config ESW3 configs/ios_base_startup-config.txt 
Nov 29 15:24:29.759 HYPERVISOR: exec_cmd: vm set_config ESW3 configs/ios_base_startup-config.txt configs/ios_base_private-config.txt 
Nov 29 15:24:29.901 HYPERVISOR: exec_cmd: nio create_tap tap-22283c7a-46e3-4653-b307-9259a551ea9d tap0 
Nov 29 15:24:29.903 HYPERVISOR: exec_cmd: vm slot_add_nio_binding ESW3 1 1 tap-22283c7a-46e3-4653-b307-9259a551ea9d 
Nov 29 15:24:29.904 HYPERVISOR: exec_cmd: vm get_status ESW3 
Nov 29 15:24:30.105 HYPERVISOR: exec_cmd: nio create_udp udp-16d7727d-7247-4a70-a6db-e515df3e95da 15015 127.0.0.1 15014 
Nov 29 15:24:30.105 HYPERVISOR: exec_cmd: vm slot_add_nio_binding ESW3 1 0 udp-16d7727d-7247-4a70-a6db-e515df3e95da 
Nov 29 15:24:30.106 HYPERVISOR: exec_cmd: vm get_status ESW3 
