Nov 28 08:24:16.080 HYPERVISOR: Release 0.2.17-amd64/Linux (tag 2017072410)
Nov 28 08:24:16.080 HYPERVISOR: Started on IP = 127.0.0.1, TCP port = 59795.
Nov 28 08:24:16.084 HYPERVISOR: exec_cmd: hypervisor version 
Nov 28 08:24:16.084 HYPERVISOR: exec_cmd: hypervisor working_dir /media/actionmystique/SAMSUNG5-VMs/Labs/GNS3/git-Public-Labs-Collection/CCNP/TBSHOOT/L3-Technologies/IPv4/Routing/Router-on-a-Stick/Jean-Christophe_Manciot/1+/TT 2-solutions-linux/project-files/dynamips 
Nov 28 08:24:16.084 GENERAL: working_dir=/media/actionmystique/SAMSUNG5-VMs/Labs/GNS3/git-Public-Labs-Collection/CCNP/TBSHOOT/L3-Technologies/IPv4/Routing/Router-on-a-Stick/Jean-Christophe_Manciot/1+/TT 2-solutions-linux/project-files/dynamips
Nov 28 08:24:16.084 HYPERVISOR: exec_cmd: vm create ESW1 1 c3725 
Nov 28 08:24:16.084 VM: VM ESW1 created.
Nov 28 08:24:16.085 HYPERVISOR: exec_cmd: vm set_con_tcp_port ESW1 2001 
Nov 28 08:24:16.085 HYPERVISOR: exec_cmd: vm set_aux_tcp_port ESW1 2501 
Nov 28 08:24:16.085 HYPERVISOR: exec_cmd: c3725 get_mac_addr ESW1 
Nov 28 08:24:16.086 HYPERVISOR: exec_cmd: vm set_disk0 ESW1 1 
Nov 28 08:24:16.086 HYPERVISOR: exec_cmd: vm get_status ESW1 
Nov 28 08:24:16.086 HYPERVISOR: exec_cmd: vm slot_add_binding ESW1 1 0 NM-16ESW 
Nov 28 08:24:16.087 HYPERVISOR: exec_cmd: vm set_ios ESW1 /media/actionmystique/SAMSUNG5-VMs/Images/GNS3/IOS/c3725-adventerprisek9-mz.124-15.T10.image 
Nov 28 08:24:16.087 HYPERVISOR: exec_cmd: c3725 set_mac_addr ESW1 c201.3297.0000 
Nov 28 08:24:16.087 HYPERVISOR: exec_cmd: vm slot_add_binding ESW1 0 16 WIC-2T 
Nov 28 08:24:16.088 HYPERVISOR: exec_cmd: vm get_status ESW1 
Nov 28 08:24:16.088 HYPERVISOR: exec_cmd: vm set_idle_pc ESW1 0x6026b804 
Nov 28 08:24:16.089 HYPERVISOR: exec_cmd: vm set_nvram ESW1 256 
Nov 28 08:24:16.089 HYPERVISOR: exec_cmd: vm set_config ESW1 configs/i1_startup-config.cfg 
Nov 28 08:24:16.091 HYPERVISOR: exec_cmd: vm set_config ESW1 configs/i1_startup-config.cfg configs/i1_private-config.cfg 
Nov 28 08:24:16.204 HYPERVISOR: exec_cmd: nio create_udp udp-3bddfc62-cf2b-4619-bb45-0b5c988f4a81 15002 127.0.0.1 15000 
Nov 28 08:24:16.215 HYPERVISOR: exec_cmd: vm slot_add_nio_binding ESW1 1 1 udp-3bddfc62-cf2b-4619-bb45-0b5c988f4a81 
Nov 28 08:24:16.216 HYPERVISOR: exec_cmd: vm get_status ESW1 
Nov 28 08:24:16.221 HYPERVISOR: exec_cmd: nio create_udp udp-57b0e156-d21f-4454-9a69-12b28c685105 15003 127.0.0.1 15004 
Nov 28 08:24:16.222 HYPERVISOR: exec_cmd: vm slot_add_nio_binding ESW1 1 2 udp-57b0e156-d21f-4454-9a69-12b28c685105 
Nov 28 08:24:16.222 HYPERVISOR: exec_cmd: vm get_status ESW1 
Nov 28 08:24:16.247 HYPERVISOR: exec_cmd: nio create_udp udp-01d80ce3-b414-4ddd-b121-0479fa1bccbf 15005 127.0.0.1 15001 
Nov 28 08:24:16.248 HYPERVISOR: exec_cmd: vm slot_add_nio_binding ESW1 1 0 udp-01d80ce3-b414-4ddd-b121-0479fa1bccbf 
Nov 28 08:24:16.248 HYPERVISOR: exec_cmd: vm get_status ESW1 
