Aug 31 18:28:02.162 HYPERVISOR: Release 0.2.16-amd64/Linux (tag 2015060118)
Aug 31 18:28:02.162 HYPERVISOR: Started on IP = 127.0.0.1, TCP port = 59455.
Aug 31 18:28:02.168 HYPERVISOR: exec_cmd: hypervisor version 
Aug 31 18:28:02.168 HYPERVISOR: exec_cmd: hypervisor working_dir /media/actionmystique/SAMSUNG-850-Ext4/Labs/GNS3/Route Reflectors/project-files/dynamips 
Aug 31 18:28:02.168 GENERAL: working_dir=/media/actionmystique/SAMSUNG-850-Ext4/Labs/GNS3/Route Reflectors/project-files/dynamips
Aug 31 18:28:02.170 HYPERVISOR: exec_cmd: vm create RR-Amsterdam 2 c7200 
Aug 31 18:28:02.170 VM: VM RR-Amsterdam created.
Aug 31 18:28:02.170 HYPERVISOR: exec_cmd: vm set_con_tcp_port RR-Amsterdam 2102 
Aug 31 18:28:02.171 HYPERVISOR: exec_cmd: vm set_aux_tcp_port RR-Amsterdam 2502 
Aug 31 18:28:02.172 HYPERVISOR: exec_cmd: c7200 get_mac_addr RR-Amsterdam 
Aug 31 18:28:02.172 HYPERVISOR: exec_cmd: vm get_status RR-Amsterdam 
Aug 31 18:28:02.172 HYPERVISOR: exec_cmd: vm slot_add_binding RR-Amsterdam 0 0 C7200-IO-FE 
Aug 31 18:28:02.173 HYPERVISOR: exec_cmd: vm get_status RR-Amsterdam 
Aug 31 18:28:02.173 HYPERVISOR: exec_cmd: vm slot_add_binding RR-Amsterdam 2 0 PA-GE 
Aug 31 18:28:02.174 HYPERVISOR: exec_cmd: vm get_status RR-Amsterdam 
Aug 31 18:28:02.175 HYPERVISOR: exec_cmd: vm set_idle_pc RR-Amsterdam 0x6062d534 
Aug 31 18:28:02.176 HYPERVISOR: exec_cmd: vm set_ram RR-Amsterdam 512 
Aug 31 18:28:02.179 HYPERVISOR: exec_cmd: vm get_status RR-Amsterdam 
Aug 31 18:28:02.181 HYPERVISOR: exec_cmd: vm slot_add_binding RR-Amsterdam 1 0 PA-GE 
Aug 31 18:28:02.183 HYPERVISOR: exec_cmd: vm get_status RR-Amsterdam 
Aug 31 18:28:02.186 HYPERVISOR: exec_cmd: vm slot_add_binding RR-Amsterdam 3 0 PA-GE 
Aug 31 18:28:02.188 HYPERVISOR: exec_cmd: vm get_status RR-Amsterdam 
Aug 31 18:28:02.189 HYPERVISOR: exec_cmd: vm slot_remove_binding RR-Amsterdam 0 0 
Aug 31 18:28:02.190 HYPERVISOR: exec_cmd: vm get_status RR-Amsterdam 
Aug 31 18:28:02.191 HYPERVISOR: exec_cmd: vm slot_add_binding RR-Amsterdam 0 0 C7200-IO-GE-E 
Aug 31 18:28:02.192 HYPERVISOR: exec_cmd: vm set_ios RR-Amsterdam /media/actionmystique/SAMSUNG-850-Ext4/Images/GNS3/IOS/c7200-adventerprisek9-mz.152-4.M2.image 
Aug 31 18:28:02.193 HYPERVISOR: exec_cmd: vm set_config RR-Amsterdam configs/i2_startup-config.cfg 
Aug 31 18:28:02.689 HYPERVISOR: exec_cmd: nio create_udp udp-733b0364-6cfd-4f2b-bdb6-bd3307d614e3 15001 127.0.0.1 15000 
Aug 31 18:28:02.691 HYPERVISOR: exec_cmd: vm slot_add_nio_binding RR-Amsterdam 2 0 udp-733b0364-6cfd-4f2b-bdb6-bd3307d614e3 
Aug 31 18:28:02.694 HYPERVISOR: exec_cmd: vm extract_config RR-Amsterdam 
Aug 31 18:28:02.696 HYPERVISOR: exec_cmd: vm get_status RR-Amsterdam 
Aug 31 18:28:02.715 HYPERVISOR: exec_cmd: nio create_udp udp-5832c051-b0fd-47c4-a7e8-fede7f43f364 15003 127.0.0.1 15002 
Aug 31 18:28:02.719 HYPERVISOR: exec_cmd: vm slot_add_nio_binding RR-Amsterdam 3 0 udp-5832c051-b0fd-47c4-a7e8-fede7f43f364 
Aug 31 18:28:02.720 HYPERVISOR: exec_cmd: vm get_status RR-Amsterdam 
Aug 31 18:28:02.736 HYPERVISOR: exec_cmd: nio create_udp udp-7283e18a-1f17-4735-b3f4-dd5556988482 15004 127.0.0.1 15005 
Aug 31 18:28:02.736 HYPERVISOR: exec_cmd: vm slot_add_nio_binding RR-Amsterdam 1 0 udp-7283e18a-1f17-4735-b3f4-dd5556988482 
Aug 31 18:28:02.740 HYPERVISOR: exec_cmd: vm get_status RR-Amsterdam 
Aug 31 18:28:02.827 HYPERVISOR: exec_cmd: nio create_udp udp-79b7fc14-3abc-4e69-8877-6bdef6ea5ae5 15013 127.0.0.1 15015 
Aug 31 18:28:02.827 HYPERVISOR: exec_cmd: vm slot_add_nio_binding RR-Amsterdam 0 0 udp-79b7fc14-3abc-4e69-8877-6bdef6ea5ae5 
Aug 31 18:28:02.827 HYPERVISOR: exec_cmd: vm get_status RR-Amsterdam 
Aug 31 18:28:08.012 HYPERVISOR: exec_cmd: vm set_ghost_status RR-Amsterdam 2 
Aug 31 18:28:08.015 HYPERVISOR: exec_cmd: vm set_ghost_file RR-Amsterdam c7200-adventerprisek9-mz.152-4.M2.image-512.ghost 
Aug 31 18:28:08.017 HYPERVISOR: exec_cmd: vm get_status RR-Amsterdam 
Aug 31 18:28:08.019 HYPERVISOR: exec_cmd: vm start RR-Amsterdam 
Aug 31 18:40:58.204 HYPERVISOR: exec_cmd: vm extract_config RR-Amsterdam 
Aug 31 18:46:15.780 HYPERVISOR: exec_cmd: vm extract_config RR-Amsterdam 
Aug 31 18:46:19.028 HYPERVISOR: exec_cmd: vm get_status RR-Amsterdam 
Aug 31 18:46:19.030 HYPERVISOR: exec_cmd: vm stop RR-Amsterdam 
Aug 31 18:46:19.174 VM: VM RR-Amsterdam shutdown.
Aug 31 18:46:19.175 HYPERVISOR: exec_cmd: vm extract_config RR-Amsterdam 
Aug 31 18:46:36.235 HYPERVISOR: exec_cmd: vm get_status RR-Amsterdam 
Aug 31 18:46:36.239 HYPERVISOR: exec_cmd: vm extract_config RR-Amsterdam 
Aug 31 18:46:36.243 HYPERVISOR: exec_cmd: vm delete RR-Amsterdam 
Aug 31 18:46:36.243 VM: VM RR-Amsterdam destroyed.
Aug 31 18:46:36.248 HYPERVISOR: exec_cmd: hypervisor stop 
Aug 31 18:46:36.685 HYPERVISOR: Stopped.
Aug 31 18:46:36.685 GENERAL: reset done.
