Nov 28 08:37:08.970 HYPERVISOR: Release 0.2.17-amd64/Linux (tag 2017072410)
Nov 28 08:37:08.970 HYPERVISOR: Started on IP = 127.0.0.1, TCP port = 40845.
Nov 28 08:37:08.983 HYPERVISOR: exec_cmd: hypervisor version 
Nov 28 08:37:08.984 HYPERVISOR: exec_cmd: hypervisor working_dir /media/actionmystique/SAMSUNG5-VMs/Labs/GNS3/TT 2-solutions-linux-/project-files/dynamips 
Nov 28 08:37:08.984 GENERAL: working_dir=/media/actionmystique/SAMSUNG5-VMs/Labs/GNS3/TT 2-solutions-linux-/project-files/dynamips
Nov 28 08:37:08.984 HYPERVISOR: exec_cmd: vm create ESW2 2 c3725 
Nov 28 08:37:08.984 VM: VM ESW2 created.
Nov 28 08:37:08.984 HYPERVISOR: exec_cmd: vm set_con_tcp_port ESW2 2005 
Nov 28 08:37:08.985 HYPERVISOR: exec_cmd: c3725 get_mac_addr ESW2 
Nov 28 08:37:08.985 HYPERVISOR: exec_cmd: vm set_disk0 ESW2 1 
Nov 28 08:37:08.985 HYPERVISOR: exec_cmd: vm get_status ESW2 
Nov 28 08:37:08.986 HYPERVISOR: exec_cmd: vm slot_add_binding ESW2 1 0 NM-16ESW 
Nov 28 08:37:08.986 HYPERVISOR: exec_cmd: vm set_ios ESW2 /media/actionmystique/SAMSUNG5-VMs/Images/GNS3/IOS/c3725-adventerprisek9-mz.124-15.T10.image 
Nov 28 08:37:08.987 HYPERVISOR: exec_cmd: c3725 set_mac_addr ESW2 c202.1bd4.0000 
Nov 28 08:37:08.987 HYPERVISOR: exec_cmd: vm slot_add_binding ESW2 0 16 WIC-2T 
Nov 28 08:37:08.987 HYPERVISOR: exec_cmd: vm get_status ESW2 
Nov 28 08:37:08.988 HYPERVISOR: exec_cmd: vm set_idle_pc ESW2 0x6026b804 
Nov 28 08:37:08.988 HYPERVISOR: exec_cmd: vm set_nvram ESW2 256 
Nov 28 08:37:08.988 HYPERVISOR: exec_cmd: vm set_config ESW2 configs/ios_base_startup-config.txt 
Nov 28 08:37:08.989 HYPERVISOR: exec_cmd: vm set_config ESW2 configs/ios_base_startup-config.txt configs/ios_base_private-config.txt 
Nov 28 08:37:09.215 HYPERVISOR: exec_cmd: nio create_udp udp-5c57021b-43d2-44b9-80f9-21682bb4d074 15004 127.0.0.1 15000 
Nov 28 08:37:09.216 HYPERVISOR: exec_cmd: vm slot_add_nio_binding ESW2 1 0 udp-5c57021b-43d2-44b9-80f9-21682bb4d074 
Nov 28 08:37:09.220 HYPERVISOR: exec_cmd: vm get_status ESW2 
Nov 28 08:37:27.932 HYPERVISOR: exec_cmd: vm get_status ESW2 
Nov 28 08:37:27.934 HYPERVISOR: exec_cmd: vm extract_config ESW2 
Nov 28 08:37:27.936 HYPERVISOR: exec_cmd: vm delete ESW2 
Nov 28 08:37:27.936 VM: VM ESW2 destroyed.
Nov 28 08:37:27.937 HYPERVISOR: exec_cmd: hypervisor stop 
Nov 28 08:37:28.003 HYPERVISOR: Stopped.
Nov 28 08:37:28.003 GENERAL: reset done.
