Nov 28 08:36:50.243 HYPERVISOR: Release 0.2.17-amd64/Linux (tag 2017072410)
Nov 28 08:36:50.243 HYPERVISOR: Started on IP = 127.0.0.1, TCP port = 42379.
Nov 28 08:36:50.251 HYPERVISOR: exec_cmd: hypervisor version 
Nov 28 08:36:50.252 HYPERVISOR: exec_cmd: hypervisor working_dir /media/actionmystique/SAMSUNG5-VMs/Labs/GNS3/git-Public-Labs-Collection/CCNP/TBSHOOT/L3-Technologies/IPv4/Routing-Protocols/EIGRP/Jean-Christophe_Manciot/1+/TT 2-solutions-linux/project-files/dynamips 
Nov 28 08:36:50.252 GENERAL: working_dir=/media/actionmystique/SAMSUNG5-VMs/Labs/GNS3/git-Public-Labs-Collection/CCNP/TBSHOOT/L3-Technologies/IPv4/Routing-Protocols/EIGRP/Jean-Christophe_Manciot/1+/TT 2-solutions-linux/project-files/dynamips
Nov 28 08:36:50.253 HYPERVISOR: exec_cmd: vm create ESW2 2 c3725 
Nov 28 08:36:50.253 VM: VM ESW2 created.
Nov 28 08:36:50.254 HYPERVISOR: exec_cmd: vm set_con_tcp_port ESW2 2005 
Nov 28 08:36:50.254 HYPERVISOR: exec_cmd: c3725 get_mac_addr ESW2 
Nov 28 08:36:50.255 HYPERVISOR: exec_cmd: vm set_disk0 ESW2 1 
Nov 28 08:36:50.255 HYPERVISOR: exec_cmd: vm get_status ESW2 
Nov 28 08:36:50.256 HYPERVISOR: exec_cmd: vm slot_add_binding ESW2 1 0 NM-16ESW 
Nov 28 08:36:50.257 HYPERVISOR: exec_cmd: vm set_ios ESW2 /media/actionmystique/SAMSUNG5-VMs/Images/GNS3/IOS/c3725-adventerprisek9-mz.124-15.T10.image 
Nov 28 08:36:50.258 HYPERVISOR: exec_cmd: c3725 set_mac_addr ESW2 c202.1bd4.0000 
Nov 28 08:36:50.258 HYPERVISOR: exec_cmd: vm slot_add_binding ESW2 0 16 WIC-2T 
Nov 28 08:36:50.260 HYPERVISOR: exec_cmd: vm get_status ESW2 
Nov 28 08:36:50.262 HYPERVISOR: exec_cmd: vm set_idle_pc ESW2 0x6026b804 
Nov 28 08:36:50.265 HYPERVISOR: exec_cmd: vm set_nvram ESW2 256 
Nov 28 08:36:50.266 HYPERVISOR: exec_cmd: vm set_config ESW2 configs/ios_base_startup-config.txt 
Nov 28 08:36:50.266 HYPERVISOR: exec_cmd: vm set_config ESW2 configs/ios_base_startup-config.txt configs/ios_base_private-config.txt 
Nov 28 08:36:50.355 HYPERVISOR: exec_cmd: nio create_udp udp-dc3a4627-8b60-4059-983a-3d4e22729dfc 15006 127.0.0.1 15005 
Nov 28 08:36:50.363 HYPERVISOR: exec_cmd: vm slot_add_nio_binding ESW2 1 0 udp-dc3a4627-8b60-4059-983a-3d4e22729dfc 
Nov 28 08:36:50.364 HYPERVISOR: exec_cmd: vm get_status ESW2 
