Nov 26 21:57:52.313 HYPERVISOR: Release 0.2.17-amd64/Linux (tag 2017072410)
Nov 26 21:57:52.313 HYPERVISOR: Started on IP = 127.0.0.1, TCP port = 37669.
Nov 26 21:57:52.334 HYPERVISOR: exec_cmd: hypervisor version 
Nov 26 21:57:52.336 HYPERVISOR: exec_cmd: hypervisor working_dir /media/actionmystique/SAMSUNG5-VMs/Labs/GNS3/v2-solutions-linux-/project-files/dynamips 
Nov 26 21:57:52.336 GENERAL: working_dir=/media/actionmystique/SAMSUNG5-VMs/Labs/GNS3/v2-solutions-linux-/project-files/dynamips
Nov 26 21:57:52.337 HYPERVISOR: exec_cmd: frsw create FR 
Nov 26 21:57:53.326 HYPERVISOR: exec_cmd: nio create_udp udp-fbaddc33-5c12-4600-8885-5193bbc04553 15026 127.0.0.1 15027 
Nov 26 21:57:53.357 HYPERVISOR: exec_cmd: nio create_udp udp-8f317607-f9b0-4bbf-b237-de2263420c57 15029 127.0.0.1 15028 
Nov 26 21:57:53.357 HYPERVISOR: exec_cmd: frsw create_vc FR udp-8f317607-f9b0-4bbf-b237-de2263420c57 201 udp-fbaddc33-5c12-4600-8885-5193bbc04553 102 
Nov 26 21:57:53.380 HYPERVISOR: exec_cmd: frsw create_vc FR udp-fbaddc33-5c12-4600-8885-5193bbc04553 102 udp-8f317607-f9b0-4bbf-b237-de2263420c57 201 
Nov 26 21:57:53.400 HYPERVISOR: exec_cmd: nio create_udp udp-5dccb3e5-2a87-4a31-a8d8-1824fe73c994 15031 127.0.0.1 15030 
Nov 26 21:57:53.406 HYPERVISOR: exec_cmd: frsw create_vc FR udp-5dccb3e5-2a87-4a31-a8d8-1824fe73c994 302 udp-8f317607-f9b0-4bbf-b237-de2263420c57 203 
Nov 26 21:57:53.416 HYPERVISOR: exec_cmd: frsw create_vc FR udp-8f317607-f9b0-4bbf-b237-de2263420c57 203 udp-5dccb3e5-2a87-4a31-a8d8-1824fe73c994 302 
Nov 26 21:57:53.442 HYPERVISOR: exec_cmd: nio create_udp udp-97969240-6bfb-4dc0-af79-075dc0319b44 15035 127.0.0.1 15034 
Nov 26 21:57:53.448 HYPERVISOR: exec_cmd: frsw create_vc FR udp-97969240-6bfb-4dc0-af79-075dc0319b44 403 udp-5dccb3e5-2a87-4a31-a8d8-1824fe73c994 304 
Nov 26 21:57:53.456 HYPERVISOR: exec_cmd: frsw create_vc FR udp-5dccb3e5-2a87-4a31-a8d8-1824fe73c994 304 udp-97969240-6bfb-4dc0-af79-075dc0319b44 403 
Nov 26 21:57:53.481 HYPERVISOR: exec_cmd: nio create_udp udp-f7820f98-b221-4b9d-baa0-a3beffb49920 15045 127.0.0.1 15044 
Nov 26 21:57:53.481 HYPERVISOR: exec_cmd: frsw create_vc FR udp-f7820f98-b221-4b9d-baa0-a3beffb49920 502 udp-8f317607-f9b0-4bbf-b237-de2263420c57 205 
Nov 26 21:57:53.496 HYPERVISOR: exec_cmd: frsw create_vc FR udp-8f317607-f9b0-4bbf-b237-de2263420c57 205 udp-f7820f98-b221-4b9d-baa0-a3beffb49920 502 
Nov 26 21:58:34.899 HYPERVISOR: exec_cmd: frsw delete FR 
Nov 26 21:58:35.049 HYPERVISOR: exec_cmd: hypervisor stop 
Nov 26 21:58:35.373 HYPERVISOR: Stopped.
Nov 26 21:58:35.373 GENERAL: reset done.
