Mar 02 16:04:39.959 HYPERVISOR: Release 0.2.16-amd64/Linux (tag 2015060118)
Mar 02 16:04:39.959 HYPERVISOR: Started on IP = 127.0.0.1, TCP port = 49773.
Mar 02 16:04:39.985 HYPERVISOR: exec_cmd: hypervisor version 
Mar 02 16:04:39.993 HYPERVISOR: exec_cmd: hypervisor working_dir /media/actionmystique/SAMSUNG-850-Ext4/Labs/GNS3/CCNP/TBSHOOT/Exam-Topology/Jean-Christophe_Manciot/1+/v2-solutions-linux/project-files/dynamips 
Mar 02 16:04:39.993 GENERAL: working_dir=/media/actionmystique/SAMSUNG-850-Ext4/Labs/GNS3/CCNP/TBSHOOT/Exam-Topology/Jean-Christophe_Manciot/1+/v2-solutions-linux/project-files/dynamips
Mar 02 16:04:39.994 HYPERVISOR: exec_cmd: vm create R5 9 c7200 
Mar 02 16:04:39.994 VM: VM R5 created.
Mar 02 16:04:39.994 HYPERVISOR: exec_cmd: vm set_con_tcp_port R5 2015 
Mar 02 16:04:39.995 HYPERVISOR: exec_cmd: c7200 get_mac_addr R5 
Mar 02 16:04:39.996 HYPERVISOR: exec_cmd: vm get_status R5 
Mar 02 16:04:39.996 HYPERVISOR: exec_cmd: vm slot_add_binding R5 0 0 C7200-IO-FE 
Mar 02 16:04:39.997 HYPERVISOR: exec_cmd: vm get_status R5 
Mar 02 16:04:39.997 HYPERVISOR: exec_cmd: vm slot_add_binding R5 5 0 PA-POS-OC3 
Mar 02 16:04:40.006 HYPERVISOR: exec_cmd: vm set_ios R5 /media/actionmystique/SAMSUNG-850-Ext4/Images/GNS3/IOS/c7200-adventerprisek9-mz.152-4.M2.image 
Mar 02 16:04:40.007 HYPERVISOR: exec_cmd: vm set_disk0 R5 1 
Mar 02 16:04:40.008 HYPERVISOR: exec_cmd: vm get_status R5 
Mar 02 16:04:40.008 HYPERVISOR: exec_cmd: vm slot_remove_binding R5 0 0 
Mar 02 16:04:40.009 HYPERVISOR: exec_cmd: vm get_status R5 
Mar 02 16:04:40.010 HYPERVISOR: exec_cmd: vm slot_add_binding R5 0 0 C7200-IO-GE-E 
Mar 02 16:04:40.011 HYPERVISOR: exec_cmd: vm get_status R5 
Mar 02 16:04:40.011 HYPERVISOR: exec_cmd: vm slot_add_binding R5 4 0 PA-4T+ 
Mar 02 16:04:40.012 HYPERVISOR: exec_cmd: vm get_status R5 
Mar 02 16:04:40.013 HYPERVISOR: exec_cmd: vm slot_add_binding R5 3 0 PA-GE 
Mar 02 16:04:40.018 HYPERVISOR: exec_cmd: vm get_status R5 
Mar 02 16:04:40.020 HYPERVISOR: exec_cmd: vm set_idle_pc R5 0x6062f0e0 
Mar 02 16:04:40.020 HYPERVISOR: exec_cmd: vm get_status R5 
Mar 02 16:04:40.021 HYPERVISOR: exec_cmd: vm slot_add_binding R5 6 0 PA-POS-OC3 
Mar 02 16:04:40.022 HYPERVISOR: exec_cmd: vm get_status R5 
Mar 02 16:04:40.023 HYPERVISOR: exec_cmd: vm slot_add_binding R5 1 0 PA-GE 
Mar 02 16:04:40.024 HYPERVISOR: exec_cmd: vm set_nvram R5 256 
Mar 02 16:04:40.024 HYPERVISOR: exec_cmd: vm set_ram R5 512 
Mar 02 16:04:40.025 HYPERVISOR: exec_cmd: vm get_status R5 
Mar 02 16:04:40.025 HYPERVISOR: exec_cmd: vm slot_add_binding R5 2 0 PA-GE 
Mar 02 16:04:40.026 HYPERVISOR: exec_cmd: c7200 set_mac_addr R5 ca09.71f1.0000 
Mar 02 16:04:40.027 HYPERVISOR: exec_cmd: vm set_config R5 configs/i9_startup-config.cfg 
Mar 02 16:04:40.035 HYPERVISOR: exec_cmd: vm set_config R5 configs/i9_startup-config.cfg configs/i9_private-config.cfg 
Mar 02 16:04:41.106 HYPERVISOR: exec_cmd: nio create_udp udp-8082af16-e1ac-43e6-bbd8-fcd5e259745f 15047 127.0.0.1 15046 
Mar 02 16:04:41.107 HYPERVISOR: exec_cmd: vm slot_add_nio_binding R5 4 0 udp-8082af16-e1ac-43e6-bbd8-fcd5e259745f 
Mar 02 16:04:41.107 HYPERVISOR: exec_cmd: vm get_status R5 
Mar 02 16:04:41.126 HYPERVISOR: exec_cmd: nio create_udp udp-bca47bde-b1c2-4725-a84f-b0e04b455ee1 15049 127.0.0.1 15048 
Mar 02 16:04:41.127 HYPERVISOR: exec_cmd: vm slot_add_nio_binding R5 2 0 udp-bca47bde-b1c2-4725-a84f-b0e04b455ee1 
Mar 02 16:04:41.128 HYPERVISOR: exec_cmd: vm get_status R5 
Mar 02 16:04:41.154 HYPERVISOR: exec_cmd: nio create_udp udp-6e7b9430-f005-4df3-8cce-969b2a05e236 15052 127.0.0.1 15050 
Mar 02 16:04:41.154 HYPERVISOR: exec_cmd: vm slot_add_nio_binding R5 3 0 udp-6e7b9430-f005-4df3-8cce-969b2a05e236 
Mar 02 16:04:41.155 HYPERVISOR: exec_cmd: vm get_status R5 
Mar 02 16:04:41.166 HYPERVISOR: exec_cmd: nio create_udp udp-27dd6157-b077-47ca-bd44-4b57019ed4ce 15051 127.0.0.1 15054 
Mar 02 16:04:41.167 HYPERVISOR: exec_cmd: vm slot_add_nio_binding R5 1 0 udp-27dd6157-b077-47ca-bd44-4b57019ed4ce 
Mar 02 16:04:41.167 HYPERVISOR: exec_cmd: vm get_status R5 
Mar 02 16:05:22.504 HYPERVISOR: exec_cmd: vm get_status R5 
Mar 02 16:05:22.508 HYPERVISOR: exec_cmd: vm extract_config R5 
Mar 02 16:05:22.512 HYPERVISOR: exec_cmd: vm delete R5 
Mar 02 16:05:22.512 VM: VM R5 destroyed.
Mar 02 16:05:22.514 HYPERVISOR: exec_cmd: hypervisor stop 
Mar 02 16:05:22.517 HYPERVISOR: Stopped.
Mar 02 16:05:22.517 GENERAL: reset done.
