Nov 26 22:07:10.117 HYPERVISOR: Release 0.2.17-amd64/Linux (tag 2017072410)
Nov 26 22:07:10.117 HYPERVISOR: Started on IP = 127.0.0.1, TCP port = 50655.
Nov 26 22:07:10.120 HYPERVISOR: exec_cmd: hypervisor version 
Nov 26 22:07:10.121 HYPERVISOR: exec_cmd: hypervisor working_dir /media/actionmystique/SAMSUNG5-VMs/Labs/GNS3/git-Public-Labs-Collection/CCNP/TBSHOOT/Infrastructure-Services/DHCP-NAT/Jean-Christophe_Manciot/1+/DHCPv4/TT 1-solutions-linux/project-files/dynamips 
Nov 26 22:07:10.121 GENERAL: working_dir=/media/actionmystique/SAMSUNG5-VMs/Labs/GNS3/git-Public-Labs-Collection/CCNP/TBSHOOT/Infrastructure-Services/DHCP-NAT/Jean-Christophe_Manciot/1+/DHCPv4/TT 1-solutions-linux/project-files/dynamips
Nov 26 22:07:10.121 HYPERVISOR: exec_cmd: vm create ESW1 1 c3725 
Nov 26 22:07:10.121 VM: VM ESW1 created.
Nov 26 22:07:10.122 HYPERVISOR: exec_cmd: vm set_con_tcp_port ESW1 2001 
Nov 26 22:07:10.123 HYPERVISOR: exec_cmd: vm set_aux_tcp_port ESW1 2501 
Nov 26 22:07:10.123 HYPERVISOR: exec_cmd: c3725 get_mac_addr ESW1 
Nov 26 22:07:10.124 HYPERVISOR: exec_cmd: vm slot_add_binding ESW1 0 16 WIC-2T 
Nov 26 22:07:10.125 HYPERVISOR: exec_cmd: vm get_status ESW1 
Nov 26 22:07:10.126 HYPERVISOR: exec_cmd: vm set_idle_pc ESW1 0x60c06d20 
Nov 26 22:07:10.127 HYPERVISOR: exec_cmd: vm get_status ESW1 
Nov 26 22:07:10.127 HYPERVISOR: exec_cmd: vm slot_add_binding ESW1 1 0 NM-16ESW 
Nov 26 22:07:10.128 HYPERVISOR: exec_cmd: vm set_nvram ESW1 256 
Nov 26 22:07:10.129 HYPERVISOR: exec_cmd: vm set_ios ESW1 /media/actionmystique/SAMSUNG5-VMs/Images/GNS3/IOS/c3725-adventerprisek9-mz.124-15.T10.image 
Nov 26 22:07:10.130 HYPERVISOR: exec_cmd: vm set_disk0 ESW1 1 
Nov 26 22:07:10.131 HYPERVISOR: exec_cmd: c3725 set_mac_addr ESW1 c201.281a.0000 
Nov 26 22:07:10.132 HYPERVISOR: exec_cmd: vm set_config ESW1 configs/i1_startup-config.cfg 
Nov 26 22:07:10.133 HYPERVISOR: exec_cmd: vm set_config ESW1 configs/i1_startup-config.cfg configs/i1_private-config.cfg 
Nov 26 22:07:10.281 HYPERVISOR: exec_cmd: nio create_udp udp-060f31ce-819a-4bfb-a1a9-1e9665c7b7a3 15003 127.0.0.1 15002 
Nov 26 22:07:10.286 HYPERVISOR: exec_cmd: vm slot_add_nio_binding ESW1 1 1 udp-060f31ce-819a-4bfb-a1a9-1e9665c7b7a3 
Nov 26 22:07:10.287 HYPERVISOR: exec_cmd: vm get_status ESW1 
Nov 26 22:07:10.301 HYPERVISOR: exec_cmd: nio create_udp udp-33473779-4afe-4539-8f72-fcab9f5f8688 15006 127.0.0.1 15005 
Nov 26 22:07:10.301 HYPERVISOR: exec_cmd: vm slot_add_nio_binding ESW1 1 2 udp-33473779-4afe-4539-8f72-fcab9f5f8688 
Nov 26 22:07:10.301 HYPERVISOR: exec_cmd: vm get_status ESW1 
Nov 26 22:07:10.317 HYPERVISOR: exec_cmd: nio create_udp udp-f0654fd0-a8d3-444d-86b8-bdd1029ce8d4 15004 127.0.0.1 15008 
Nov 26 22:07:10.317 HYPERVISOR: exec_cmd: vm slot_add_nio_binding ESW1 1 0 udp-f0654fd0-a8d3-444d-86b8-bdd1029ce8d4 
Nov 26 22:07:10.317 HYPERVISOR: exec_cmd: vm get_status ESW1 
