Nov 26 21:01:59.356 HYPERVISOR: Release 0.2.17-amd64/Linux (tag 2017072410)
Nov 26 21:01:59.356 HYPERVISOR: Started on IP = 127.0.0.1, TCP port = 56353.
Nov 26 21:01:59.397 HYPERVISOR: exec_cmd: hypervisor version 
Nov 26 21:01:59.399 HYPERVISOR: exec_cmd: hypervisor working_dir /media/actionmystique/SAMSUNG5-VMs/Labs/GNS3/PVST+ EtherChannel HSRP/project-files/dynamips 
Nov 26 21:01:59.399 GENERAL: working_dir=/media/actionmystique/SAMSUNG5-VMs/Labs/GNS3/PVST+ EtherChannel HSRP/project-files/dynamips
Nov 26 21:01:59.406 HYPERVISOR: exec_cmd: vm create GooglISP 11 c7200 
Nov 26 21:01:59.406 VM: VM GooglISP created.
Nov 26 21:01:59.408 HYPERVISOR: exec_cmd: vm set_con_tcp_port GooglISP 2012 
Nov 26 21:01:59.413 HYPERVISOR: exec_cmd: vm set_aux_tcp_port GooglISP 2512 
Nov 26 21:01:59.415 HYPERVISOR: exec_cmd: c7200 get_mac_addr GooglISP 
Nov 26 21:01:59.417 HYPERVISOR: exec_cmd: vm get_status GooglISP 
Nov 26 21:01:59.418 HYPERVISOR: exec_cmd: vm slot_add_binding GooglISP 0 0 C7200-IO-FE 
Nov 26 21:01:59.419 HYPERVISOR: exec_cmd: vm set_ram GooglISP 512 
Nov 26 21:01:59.421 HYPERVISOR: exec_cmd: vm get_status GooglISP 
Nov 26 21:01:59.422 HYPERVISOR: exec_cmd: vm set_idle_pc GooglISP 0x60188e14 
Nov 26 21:01:59.423 HYPERVISOR: exec_cmd: vm get_status GooglISP 
Nov 26 21:01:59.424 HYPERVISOR: exec_cmd: vm slot_add_binding GooglISP 1 0 PA-POS-OC3 
Nov 26 21:01:59.428 HYPERVISOR: exec_cmd: vm set_ios GooglISP /media/actionmystique/SAMSUNG5-VMs/Images/GNS3/IOS/c7200-adventerprisek9-mz.152-4.M2.image 
Nov 26 21:01:59.430 HYPERVISOR: exec_cmd: vm set_config GooglISP configs/i11_startup-config.cfg 
Nov 26 21:02:00.183 HYPERVISOR: exec_cmd: vm extract_config GooglISP 
Nov 26 21:02:00.756 HYPERVISOR: exec_cmd: nio create_udp udp-46480c7b-8cf5-4b81-a19e-7118ef839f26 15054 127.0.0.1 15055 
Nov 26 21:02:00.757 HYPERVISOR: exec_cmd: vm slot_add_nio_binding GooglISP 0 0 udp-46480c7b-8cf5-4b81-a19e-7118ef839f26 
Nov 26 21:02:00.757 HYPERVISOR: exec_cmd: vm get_status GooglISP 
Nov 26 21:02:00.776 HYPERVISOR: exec_cmd: nio create_udp udp-a0904e9c-3512-434d-b2a5-2d40a6ff3598 15056 127.0.0.1 15057 
Nov 26 21:02:00.776 HYPERVISOR: exec_cmd: vm slot_add_nio_binding GooglISP 1 0 udp-a0904e9c-3512-434d-b2a5-2d40a6ff3598 
Nov 26 21:02:00.777 HYPERVISOR: exec_cmd: vm get_status GooglISP 
Nov 26 21:03:00.812 HYPERVISOR: exec_cmd: vm get_status GooglISP 
Nov 26 21:03:00.816 HYPERVISOR: exec_cmd: vm extract_config GooglISP 
Nov 26 21:03:00.820 HYPERVISOR: exec_cmd: vm delete GooglISP 
Nov 26 21:03:00.820 VM: VM GooglISP destroyed.
Nov 26 21:03:00.821 HYPERVISOR: exec_cmd: hypervisor stop 
Nov 26 21:03:00.946 HYPERVISOR: Stopped.
Nov 26 21:03:00.946 GENERAL: reset done.
