autostart = False
version = 0.8.2
[127.0.0.1:7200]
    workingdir = C:\Users\ActionMystique\Documents\Missions\GNS3\Temp
    udp = 10000
    [[3725]]
        image = C:\Users\ActionMystique\Documents\Missions\IOS\Binaries\c3725-adventerprisek9-mz.124-15.T5.image
        ram = 256
        idlepc = 0x60bec828
        sparsemem = True
        ghostios = True
    [[ROUTER R1]]
        model = 3725
        console = 2019
        aux = 2105
        cnfg = configs\R1.cfg
        wic0/0 = WIC-2T
        wic0/1 = WIC-2T
        s0/1 = R3 s0/0
        x = -624.0
        y = -311.0
        z = 1.0
    [[ROUTER R2]]
        model = 3725
        console = 2020
        aux = 2106
        cnfg = configs\R2.cfg
        wic0/0 = WIC-2T
        wic0/1 = WIC-2T
        s0/1 = R3 s0/1
        f0/0 = Email_Server f0/0
        x = -53.0
        y = -308.0
        z = 1.0
    [[ROUTER R3]]
        model = 3725
        console = 2021
        aux = 2107
        cnfg = configs\R3.cfg
        wic0/0 = WIC-2T
        wic0/1 = WIC-2T
        s0/0 = R1 s0/1
        s0/1 = R2 s0/1
        x = -336.0
        y = 9.0
        z = 1.0
[127.0.0.1:7201]
    workingdir = C:\Users\ActionMystique\Documents\Missions\GNS3\Temp
    udp = 10100
    [[3725]]
        image = C:\Users\ActionMystique\Documents\Missions\IOS\Binaries\c3725-adventerprisek9-mz.124-15.T5.image
        ram = 256
        idlepc = 0x60bec828
        sparsemem = True
        ghostios = True
    [[ROUTER Email_Server]]
        model = 3725
        console = 2010
        aux = 2510
        cnfg = configs\Email_Server.cfg
        f0/0 = R2 f0/0
        symbol = server
        x = 165.0
        y = -321.0
        z = 1.0
[GNS3-DATA]
    configs = configs
    width = 5000
    height = 2500
    [[NOTE 1]]
        text = NAT POOL\n209.165.200.233 -\n209.165.200.237/29
        x = -37.0
        y = -122.5
    [[NOTE 2]]
        text = NAT POOL\n209.165.200.249 - \n209.165.200.254/29
        x = -664.0
        y = -121.5
    [[NOTE 3]]
        text = NAT Address\n209.165.200.238/29
        x = 123.0
        y = -246.5
    [[NOTE 4]]
        text = 10.10.20.1/24
        x = 3.0
        y = -275.5
    [[NOTE 5]]
        text = s0/0\nDCE\n.241
        x = -407.0
        y = -33.5
    [[NOTE 6]]
        text = s0/1\n.242
        x = -606.0
        y = -260.5
    [[NOTE 7]]
        text = 209.165.200.240/29
        x = -520.0
        y = -164.5
    [[NOTE 8]]
        text = HQ
        x = -33.0
        y = -367.5
        font = "Sans Serif,14,-1,5,75,0,0,0,0,0"
    [[NOTE 9]]
        text = 209.165.200.224/29
        x = -230.0
        y = -160.5
    [[NOTE 10]]
        text = s0/1\nDCE\n.226
        x = -46.0
        y = -265.5
    [[NOTE 11]]
        text = ISP
        x = -325.0
        y = -130.5
        font = "Sans Serif,14,-1,5,75,0,0,0,0,0"
    [[NOTE 12]]
        text = BRANCH
        x = -631.0
        y = -363.5
        font = "Sans Serif,14,-1,5,75,0,0,0,0,0"
    [[NOTE 13]]
        text = s0/1\n.225
        x = -257.0
        y = -23.5
    [[NOTE 14]]
        text = GRE Tunnel\n172.16.100.1        172.16.100.0/30     172.16.100.2
        x = -499.0
        y = -308.5
    [[NOTE 15]]
        text = Lo1: 209.165.202.129/28
        x = -402.0
        y = 80.5
    [[NOTE 16]]
        text = 10.10.20.238/24
        x = 60.0
        y = -319.5
    [[NOTE 17]]
        text = F0/0\n192.168.1.1/24
        x = -755.0
        y = -343.5
    [[NOTE 18]]
        text = F0/1\n10.10.10.1/24
        x = 12.0
        y = -361.5
    [[SHAPE 1]]
        type = ellipse
        x = -6.0
        y = -326.0
        width = 30.0
        height = 26.0
        border_style = 2
        z = -2.0
    [[SHAPE 2]]
        type = rectangle
        x = -509.0
        y = -304.0
        width = 404.0
        height = 36.0
        z = -2.0
    [[SHAPE 3]]
        type = ellipse
        x = -320.0
        y = 48.0
        width = 30.0
        height = 26.0
        border_style = 2
        z = -2.0
    [[SHAPE 4]]
        type = ellipse
        x = -634.0
        y = -331.0
        width = 30.0
        height = 26.0
        border_style = 2
        z = -2.0
    [[SHAPE 5]]
        type = rectangle
        x = -67.0
        y = -141.0
        width = 200.0
        height = 100.0
        z = -2.0
    [[SHAPE 6]]
        type = ellipse
        x = -455.0
        y = -103.0
        width = 298.0
        height = 299.0
        border_style = 2
        z = -2.0
    [[SHAPE 7]]
        type = rectangle
        x = -686.0
        y = -142.0
        width = 200.0
        height = 100.0
        z = -2.0
