Nov 27 16:22:27.519 HYPERVISOR: Release 0.2.17-amd64/Linux (tag 2017072410)
Nov 27 16:22:27.519 HYPERVISOR: Started on IP = 127.0.0.1, TCP port = 35073.
Nov 27 16:22:27.529 HYPERVISOR: exec_cmd: hypervisor version 
Nov 27 16:22:27.529 HYPERVISOR: exec_cmd: hypervisor working_dir /media/actionmystique/SAMSUNG5-VMs/Labs/GNS3/git-Public-Labs-Collection/CCNP/TBSHOOT/L3-Technologies/IPv4/High-Availability/HSRP/Jean-Christophe_Manciot/1+/TT 3-solutions-linux/project-files/dynamips 
Nov 27 16:22:27.529 GENERAL: working_dir=/media/actionmystique/SAMSUNG5-VMs/Labs/GNS3/git-Public-Labs-Collection/CCNP/TBSHOOT/L3-Technologies/IPv4/High-Availability/HSRP/Jean-Christophe_Manciot/1+/TT 3-solutions-linux/project-files/dynamips
Nov 27 16:22:27.529 HYPERVISOR: exec_cmd: vm create Core 4 c3725 
Nov 27 16:22:27.530 VM: VM Core created.
Nov 27 16:22:27.530 HYPERVISOR: exec_cmd: vm set_con_tcp_port Core 2005 
Nov 27 16:22:27.530 HYPERVISOR: exec_cmd: c3725 get_mac_addr Core 
Nov 27 16:22:27.531 HYPERVISOR: exec_cmd: vm set_ram Core 256 
Nov 27 16:22:27.531 HYPERVISOR: exec_cmd: vm set_nvram Core 256 
Nov 27 16:22:27.531 HYPERVISOR: exec_cmd: vm get_status Core 
Nov 27 16:22:27.532 HYPERVISOR: exec_cmd: vm set_idle_pc Core 0x622a6154 
Nov 27 16:22:27.532 HYPERVISOR: exec_cmd: c3725 set_mac_addr Core c204.0c3e.0000 
Nov 27 16:22:27.532 HYPERVISOR: exec_cmd: vm get_status Core 
Nov 27 16:22:27.533 HYPERVISOR: exec_cmd: vm slot_add_binding Core 1 0 NM-16ESW 
Nov 27 16:22:27.533 HYPERVISOR: exec_cmd: vm set_ios Core /media/actionmystique/SAMSUNG5-VMs/Images/GNS3/IOS/c3725-adventerprisek9-mz.124-15.T10.image 
Nov 27 16:22:27.534 HYPERVISOR: exec_cmd: vm slot_add_binding Core 0 16 WIC-2T 
Nov 27 16:22:27.534 HYPERVISOR: exec_cmd: vm set_disk0 Core 1 
Nov 27 16:22:27.534 HYPERVISOR: exec_cmd: vm set_config Core configs/i4_startup-config.cfg 
Nov 27 16:22:27.535 HYPERVISOR: exec_cmd: vm set_config Core configs/i4_startup-config.cfg configs/i4_private-config.cfg 
Nov 27 16:22:27.805 HYPERVISOR: exec_cmd: nio create_udp udp-cffc3300-e027-4603-acc2-ca6961eb9eb9 15011 127.0.0.1 15012 
Nov 27 16:22:27.805 HYPERVISOR: exec_cmd: vm slot_add_nio_binding Core 1 0 udp-cffc3300-e027-4603-acc2-ca6961eb9eb9 
Nov 27 16:22:27.806 HYPERVISOR: exec_cmd: vm get_status Core 
Nov 27 16:22:27.833 HYPERVISOR: exec_cmd: nio create_udp udp-bc074946-3bb2-4c38-a422-a614784057bd 15013 127.0.0.1 15010 
Nov 27 16:22:27.834 HYPERVISOR: exec_cmd: vm slot_add_nio_binding Core 1 1 udp-bc074946-3bb2-4c38-a422-a614784057bd 
Nov 27 16:22:27.834 HYPERVISOR: exec_cmd: vm get_status Core 
