Nov 26 20:54:31.002 HYPERVISOR: Release 0.2.17-amd64/Linux (tag 2017072410)
Nov 26 20:54:31.002 HYPERVISOR: Started on IP = 127.0.0.1, TCP port = 42223.
Nov 26 20:54:31.006 HYPERVISOR: exec_cmd: hypervisor version 
Nov 26 20:54:31.006 HYPERVISOR: exec_cmd: hypervisor working_dir /media/actionmystique/SAMSUNG5-VMs/Labs/GNS3/git-Public-Labs-Collection/CCNP/ROUTE/Trunks/project-files/dynamips 
Nov 26 20:54:31.006 GENERAL: working_dir=/media/actionmystique/SAMSUNG5-VMs/Labs/GNS3/git-Public-Labs-Collection/CCNP/ROUTE/Trunks/project-files/dynamips
Nov 26 20:54:31.006 HYPERVISOR: exec_cmd: vm create 7200 1 c7200 
Nov 26 20:54:31.006 VM: VM 7200 created.
Nov 26 20:54:31.007 HYPERVISOR: exec_cmd: vm set_con_tcp_port 7200 2005 
Nov 26 20:54:31.007 HYPERVISOR: exec_cmd: c7200 get_mac_addr 7200 
Nov 26 20:54:31.007 HYPERVISOR: exec_cmd: vm get_status 7200 
Nov 26 20:54:31.008 HYPERVISOR: exec_cmd: vm slot_add_binding 7200 0 0 C7200-IO-FE 
Nov 26 20:54:31.008 HYPERVISOR: exec_cmd: vm get_status 7200 
Nov 26 20:54:31.008 HYPERVISOR: exec_cmd: vm slot_add_binding 7200 2 0 PA-GE 
Nov 26 20:54:31.009 HYPERVISOR: exec_cmd: vm get_status 7200 
Nov 26 20:54:31.009 HYPERVISOR: exec_cmd: vm set_idle_pc 7200 0x60188e14 
Nov 26 20:54:31.010 HYPERVISOR: exec_cmd: vm get_status 7200 
Nov 26 20:54:31.016 HYPERVISOR: exec_cmd: vm slot_add_binding 7200 1 0 PA-GE 
Nov 26 20:54:31.019 HYPERVISOR: exec_cmd: vm set_nvram 7200 512 
Nov 26 20:54:31.020 HYPERVISOR: exec_cmd: vm get_status 7200 
Nov 26 20:54:31.021 HYPERVISOR: exec_cmd: vm slot_add_binding 7200 3 0 PA-GE 
Nov 26 20:54:31.022 HYPERVISOR: exec_cmd: vm get_status 7200 
Nov 26 20:54:31.023 HYPERVISOR: exec_cmd: vm slot_remove_binding 7200 0 0 
Nov 26 20:54:31.024 HYPERVISOR: exec_cmd: vm get_status 7200 
Nov 26 20:54:31.024 HYPERVISOR: exec_cmd: vm slot_add_binding 7200 0 0 C7200-IO-GE-E 
Nov 26 20:54:31.025 HYPERVISOR: exec_cmd: vm set_disk0 7200 0 
Nov 26 20:54:31.026 HYPERVISOR: exec_cmd: vm get_status 7200 
Nov 26 20:54:31.027 HYPERVISOR: exec_cmd: vm slot_add_binding 7200 4 0 PA-4T+ 
Nov 26 20:54:31.027 HYPERVISOR: exec_cmd: vm set_ram 7200 512 
Nov 26 20:54:31.028 HYPERVISOR: exec_cmd: vm get_status 7200 
Nov 26 20:54:31.029 HYPERVISOR: exec_cmd: vm slot_add_binding 7200 6 0 PA-POS-OC3 
Nov 26 20:54:31.029 HYPERVISOR: exec_cmd: vm get_status 7200 
Nov 26 20:54:31.030 HYPERVISOR: exec_cmd: vm slot_add_binding 7200 5 0 PA-POS-OC3 
Nov 26 20:54:31.031 HYPERVISOR: exec_cmd: c7200 set_mac_addr 7200 ca01.144f.0000 
Nov 26 20:54:31.031 HYPERVISOR: exec_cmd: vm set_ios 7200 /media/actionmystique/SAMSUNG5-VMs/Images/GNS3/IOS/c7200-adventerprisek9-mz.152-4.M2.image 
Nov 26 20:54:31.032 HYPERVISOR: exec_cmd: vm set_config 7200 configs/i1_startup-config.cfg 
Nov 26 20:54:31.034 HYPERVISOR: exec_cmd: vm set_config 7200 configs/i1_startup-config.cfg configs/i1_private-config.cfg 
Nov 26 20:54:31.253 HYPERVISOR: exec_cmd: nio create_udp udp-660743ed-0ad9-4a16-b7f9-7cd99fb7c4c1 15016 127.0.0.1 15017 
Nov 26 20:54:31.253 HYPERVISOR: exec_cmd: vm slot_add_nio_binding 7200 2 0 udp-660743ed-0ad9-4a16-b7f9-7cd99fb7c4c1 
Nov 26 20:54:31.253 HYPERVISOR: exec_cmd: vm get_status 7200 
Nov 26 20:59:43.708 HYPERVISOR: exec_cmd: vm extract_config 7200 
Nov 26 21:01:55.594 HYPERVISOR: exec_cmd: vm get_status 7200 
Nov 26 21:01:55.597 HYPERVISOR: exec_cmd: vm extract_config 7200 
Nov 26 21:01:55.599 HYPERVISOR: exec_cmd: vm delete 7200 
Nov 26 21:01:55.599 VM: VM 7200 destroyed.
Nov 26 21:01:55.599 HYPERVISOR: exec_cmd: hypervisor stop 
Nov 26 21:01:55.995 HYPERVISOR: Stopped.
Nov 26 21:01:55.995 GENERAL: reset done.
