Nov 29 15:23:55.207 HYPERVISOR: Release 0.2.17-amd64/Linux (tag 2017072410)
Nov 29 15:23:55.207 HYPERVISOR: Started on IP = 127.0.0.1, TCP port = 48219.
Nov 29 15:23:55.218 HYPERVISOR: exec_cmd: hypervisor version 
Nov 29 15:23:55.223 HYPERVISOR: exec_cmd: hypervisor working_dir /media/actionmystique/SAMSUNG5-VMs/Labs/GNS3/git-Public-Labs-Collection/CCNP/TBSHOOT/L3-Technologies/IPv4/Routing-Protocols/Redistribution/Jean-Christophe_Manciot/1+/TT 1-linux/project-files/dynamips 
Nov 29 15:23:55.223 GENERAL: working_dir=/media/actionmystique/SAMSUNG5-VMs/Labs/GNS3/git-Public-Labs-Collection/CCNP/TBSHOOT/L3-Technologies/IPv4/Routing-Protocols/Redistribution/Jean-Christophe_Manciot/1+/TT 1-linux/project-files/dynamips
Nov 29 15:23:55.226 HYPERVISOR: exec_cmd: vm create ESW2 2 c3725 
Nov 29 15:23:55.226 VM: VM ESW2 created.
Nov 29 15:23:55.229 HYPERVISOR: exec_cmd: vm set_con_tcp_port ESW2 2005 
Nov 29 15:23:55.231 HYPERVISOR: exec_cmd: c3725 get_mac_addr ESW2 
Nov 29 15:23:55.232 HYPERVISOR: exec_cmd: vm get_status ESW2 
Nov 29 15:23:55.233 HYPERVISOR: exec_cmd: vm set_idle_pc ESW2 0x614ac27c 
Nov 29 15:23:55.234 HYPERVISOR: exec_cmd: vm get_status ESW2 
Nov 29 15:23:55.235 HYPERVISOR: exec_cmd: vm slot_add_binding ESW2 1 0 NM-16ESW 
Nov 29 15:23:55.236 HYPERVISOR: exec_cmd: vm set_disk0 ESW2 1 
Nov 29 15:23:55.237 HYPERVISOR: exec_cmd: vm set_nvram ESW2 256 
Nov 29 15:23:55.238 HYPERVISOR: exec_cmd: vm set_ios ESW2 /media/actionmystique/SAMSUNG5-VMs/Images/GNS3/IOS/c3725-adventerprisek9-mz.124-15.T10.image 
Nov 29 15:23:55.239 HYPERVISOR: exec_cmd: c3725 set_mac_addr ESW2 c202.1bd4.0000 
Nov 29 15:23:55.240 HYPERVISOR: exec_cmd: vm slot_add_binding ESW2 0 16 WIC-2T 
Nov 29 15:23:55.242 HYPERVISOR: exec_cmd: vm set_config ESW2 configs/ios_base_startup-config.txt 
Nov 29 15:23:55.245 HYPERVISOR: exec_cmd: vm set_config ESW2 configs/ios_base_startup-config.txt configs/ios_base_private-config.txt 
Nov 29 15:23:55.517 HYPERVISOR: exec_cmd: nio create_udp udp-f872e486-e38e-4ad8-9b7f-0f2f87d9d237 15002 127.0.0.1 15006 
Nov 29 15:23:55.517 HYPERVISOR: exec_cmd: vm slot_add_nio_binding ESW2 1 0 udp-f872e486-e38e-4ad8-9b7f-0f2f87d9d237 
Nov 29 15:23:55.518 HYPERVISOR: exec_cmd: vm get_status ESW2 
