Dec 04 11:09:26.945 HYPERVISOR: Release 0.2.17-amd64/Linux (tag 2017072410)
Dec 04 11:09:26.945 HYPERVISOR: Started on IP = 127.0.0.1, TCP port = 52531.
Dec 04 11:09:26.965 HYPERVISOR: exec_cmd: hypervisor version 
Dec 04 11:09:26.966 HYPERVISOR: exec_cmd: hypervisor working_dir /media/actionmystique/SAMSUNG5-VMs/Labs/GNS3/TT 1-linux-/project-files/dynamips 
Dec 04 11:09:26.966 GENERAL: working_dir=/media/actionmystique/SAMSUNG5-VMs/Labs/GNS3/TT 1-linux-/project-files/dynamips
Dec 04 11:09:26.967 HYPERVISOR: exec_cmd: vm create ESW3 3 c3725 
Dec 04 11:09:26.967 VM: VM ESW3 created.
Dec 04 11:09:26.968 HYPERVISOR: exec_cmd: vm set_con_tcp_port ESW3 2006 
Dec 04 11:09:26.976 HYPERVISOR: exec_cmd: c3725 get_mac_addr ESW3 
Dec 04 11:09:26.987 HYPERVISOR: exec_cmd: vm set_nvram ESW3 256 
Dec 04 11:09:26.989 HYPERVISOR: exec_cmd: vm set_ios ESW3 /media/actionmystique/SAMSUNG5-VMs/Images/GNS3/IOS/c3725-adventerprisek9-mz.124-15.T10.image 
Dec 04 11:09:26.990 HYPERVISOR: exec_cmd: c3725 set_mac_addr ESW3 c203.1bfb.0000 
Dec 04 11:09:26.991 HYPERVISOR: exec_cmd: vm get_status ESW3 
Dec 04 11:09:26.992 HYPERVISOR: exec_cmd: vm slot_add_binding ESW3 1 0 NM-16ESW 
Dec 04 11:09:26.992 HYPERVISOR: exec_cmd: vm get_status ESW3 
Dec 04 11:09:26.993 HYPERVISOR: exec_cmd: vm set_idle_pc ESW3 0x6026b804 
Dec 04 11:09:26.994 HYPERVISOR: exec_cmd: vm set_disk0 ESW3 1 
Dec 04 11:09:26.995 HYPERVISOR: exec_cmd: vm slot_add_binding ESW3 0 16 WIC-2T 
Dec 04 11:09:26.996 HYPERVISOR: exec_cmd: vm set_config ESW3 configs/ios_base_startup-config.txt 
Dec 04 11:09:26.996 HYPERVISOR: exec_cmd: vm set_config ESW3 configs/ios_base_startup-config.txt configs/ios_base_private-config.txt 
Dec 04 11:09:27.138 HYPERVISOR: exec_cmd: nio create_tap tap-ffe168b9-82e3-4800-8981-346fae980822 tap0 
Dec 04 11:09:27.140 HYPERVISOR: exec_cmd: vm slot_add_nio_binding ESW3 1 1 tap-ffe168b9-82e3-4800-8981-346fae980822 
Dec 04 11:09:27.140 HYPERVISOR: exec_cmd: vm get_status ESW3 
Dec 04 11:09:27.335 HYPERVISOR: exec_cmd: nio create_udp udp-b9c88ef6-5101-4af7-84bd-9bfc6b074475 15010 127.0.0.1 15011 
Dec 04 11:09:27.336 HYPERVISOR: exec_cmd: vm slot_add_nio_binding ESW3 1 0 udp-b9c88ef6-5101-4af7-84bd-9bfc6b074475 
Dec 04 11:09:27.336 HYPERVISOR: exec_cmd: vm get_status ESW3 
Dec 04 11:09:38.533 HYPERVISOR: exec_cmd: vm get_status ESW3 
Dec 04 11:09:38.537 HYPERVISOR: exec_cmd: vm extract_config ESW3 
Dec 04 11:09:38.543 HYPERVISOR: exec_cmd: vm delete ESW3 
Dec 04 11:09:38.543 VM: VM ESW3 destroyed.
Dec 04 11:09:38.544 HYPERVISOR: exec_cmd: hypervisor stop 
Dec 04 11:09:38.972 HYPERVISOR: Stopped.
Dec 04 11:09:38.972 GENERAL: reset done.
