autostart = False
version = 0.8.3
[127.0.0.1:7200]
    workingdir = C:\Users\ActionMystique\Documents\Missions\GNS3\Temp
    udp = 10000
    [[3640]]
        image = C:\Users\ActionMystique\Documents\Missions\IOS\Binaries\c3640-jk9o3s-mz.124-16a.bin
        idlepc = 0x604d1c74
        sparsemem = True
        ghostios = True
        chassis = 3640
    [[ROUTER Jermaine]]
        model = 3640
        console = 2000
        aux = 2105
        cnfg = configs\Jermaine.cfg
        slot0 = NM-1FE-TX
        f0/0 = Jackie f0/0
        slot1 = NM-1FE-TX
        f1/0 = Tito f0/0
        x = -264.707106781
        y = -201.0
        z = 1.0
    [[ROUTER Tito]]
        model = 3640
        console = 2003
        aux = 2104
        cnfg = configs\Tito.cfg
        slot0 = NM-1FE-TX
        f0/0 = Jermaine f1/0
        slot1 = NM-4T
        s1/0 = Marlon s1/0
        x = -123.0
        y = -67.0
        z = 1.0
    [[ROUTER Michael]]
        model = 3640
        console = 2002
        aux = 2107
        cnfg = configs\Michael.cfg
        slot0 = NM-1FE-TX
        f0/0 = Jackie f2/0
        x = -477.0
        y = 52.0
        z = 1.0
    [[ROUTER Jackie]]
        model = 3640
        console = 2001
        aux = 2106
        cnfg = configs\Jackie.cfg
        slot0 = NM-1FE-TX
        f0/0 = Jermaine f0/0
        slot1 = NM-1FE-TX
        f1/0 = Marlon f0/0
        slot2 = NM-1FE-TX
        f2/0 = Michael f0/0
        x = -382.0
        y = -66.0
        z = 1.0
[localhost:7201]
    workingdir = C:\Users\ActionMystique\Documents\Missions\GNS3\Temp
    udp = 10100
    [[3640]]
        image = C:\Users\ActionMystique\Documents\Missions\IOS\Binaries\c3640-jk9o3s-mz.124-16a.bin
        idlepc = 0x604d1c74
        sparsemem = True
        chassis = 3640
    [[ROUTER Marlon]]
        model = 3640
        console = 2004
        aux = 2108
        cnfg = configs\Marlon.cfg
        slot0 = NM-1FE-TX
        f0/0 = Jackie f1/0
        slot1 = NM-4T
        s1/0 = Tito s1/0
        x = -243.0
        y = 58.0
        z = 1.0
[GNS3-DATA]
    configs = configs
    m11 = 2.0
    m22 = 2.0
    [[NOTE 1]]
        text = "192.168.23.0 /24"
        x = -517.602163829
        y = -3.92893218813
        color = "#0000ff"
    [[NOTE 2]]
        text = "192.168.25.0 /24"
        x = -335.875721064
        y = 10.2132034356
        color = "#0000ff"
    [[NOTE 3]]
        text = "L0: 3.3.3.3 /24"
        x = -494.974746831
        y = 100.722871427
        color = "#0000ff"
    [[NOTE 4]]
        text = "192.168.14.0 /24"
        x = -150.613744393
        y = -129.086832458
        color = "#0000ff"
    [[NOTE 5]]
        text = "192.168.45.0 /24"
        x = -132.936074863
        y = 9.50609665441
        color = "#0000ff"
    [[NOTE 6]]
        text = "192.168.12.0 /24"
        x = -416.485894119
        y = -126.258405333
        color = "#0000ff"
