Nov 29 15:33:21.550 HYPERVISOR: Release 0.2.17-amd64/Linux (tag 2017072410)
Nov 29 15:33:21.550 HYPERVISOR: Started on IP = 127.0.0.1, TCP port = 44227.
Nov 29 15:33:21.570 HYPERVISOR: exec_cmd: hypervisor version 
Nov 29 15:33:21.571 HYPERVISOR: exec_cmd: hypervisor working_dir /media/actionmystique/SAMSUNG5-VMs/Labs/GNS3/Leaf & Spine DC-linux-/project-files/dynamips 
Nov 29 15:33:21.571 GENERAL: working_dir=/media/actionmystique/SAMSUNG5-VMs/Labs/GNS3/Leaf & Spine DC-linux-/project-files/dynamips
Nov 29 15:33:21.571 HYPERVISOR: exec_cmd: vm create Mgt 1 c3725 
Nov 29 15:33:21.571 VM: VM Mgt created.
Nov 29 15:33:21.571 HYPERVISOR: exec_cmd: vm set_con_tcp_port Mgt 2011 
Nov 29 15:33:21.572 HYPERVISOR: exec_cmd: c3725 get_mac_addr Mgt 
Nov 29 15:33:21.572 HYPERVISOR: exec_cmd: vm set_nvram Mgt 256 
Nov 29 15:33:21.573 HYPERVISOR: exec_cmd: vm slot_add_binding Mgt 0 16 WIC-2T 
Nov 29 15:33:21.582 HYPERVISOR: exec_cmd: c3725 set_mac_addr Mgt c201.1066.0000 
Nov 29 15:33:21.583 HYPERVISOR: exec_cmd: vm set_disk0 Mgt 1 
Nov 29 15:33:21.584 HYPERVISOR: exec_cmd: vm set_ios Mgt /media/actionmystique/SAMSUNG5-VMs/Images/GNS3/IOS/c3725-adventerprisek9-mz.124-15.T10.image 
Nov 29 15:33:21.584 HYPERVISOR: exec_cmd: vm get_status Mgt 
Nov 29 15:33:21.585 HYPERVISOR: exec_cmd: vm set_idle_pc Mgt 0x6026b804 
Nov 29 15:33:21.585 HYPERVISOR: exec_cmd: vm get_status Mgt 
Nov 29 15:33:21.586 HYPERVISOR: exec_cmd: vm slot_add_binding Mgt 1 0 NM-16ESW 
Nov 29 15:33:21.586 HYPERVISOR: exec_cmd: vm set_config Mgt configs/i1_startup-config.cfg 
Nov 29 15:33:21.587 HYPERVISOR: exec_cmd: vm set_config Mgt configs/i1_startup-config.cfg configs/i1_private-config.cfg 
Nov 29 15:33:22.233 HYPERVISOR: exec_cmd: nio create_tap tap-9edcaf78-6a1f-41a9-aba8-17be786a97e8 tap1 
Nov 29 15:33:22.234 HYPERVISOR: exec_cmd: vm slot_add_nio_binding Mgt 1 0 tap-9edcaf78-6a1f-41a9-aba8-17be786a97e8 
Nov 29 15:33:22.234 HYPERVISOR: exec_cmd: vm get_status Mgt 
Nov 29 15:33:22.801 HYPERVISOR: exec_cmd: nio create_udp udp-aa972e31-cb62-4c4b-9b14-51c3984113da 15040 127.0.0.1 15043 
Nov 29 15:33:22.801 HYPERVISOR: exec_cmd: vm slot_add_nio_binding Mgt 1 5 udp-aa972e31-cb62-4c4b-9b14-51c3984113da 
Nov 29 15:33:22.802 HYPERVISOR: exec_cmd: vm get_status Mgt 
Nov 29 15:33:22.828 HYPERVISOR: exec_cmd: nio create_udp udp-b2579042-b697-431d-aa34-af3ae95c039d 15046 127.0.0.1 15045 
Nov 29 15:33:22.829 HYPERVISOR: exec_cmd: vm slot_add_nio_binding Mgt 1 1 udp-b2579042-b697-431d-aa34-af3ae95c039d 
Nov 29 15:33:22.829 HYPERVISOR: exec_cmd: vm get_status Mgt 
Nov 29 15:33:22.846 HYPERVISOR: exec_cmd: nio create_udp udp-351af091-0d10-474a-85fe-cef1df417871 15044 127.0.0.1 15047 
Nov 29 15:33:22.847 HYPERVISOR: exec_cmd: vm slot_add_nio_binding Mgt 1 6 udp-351af091-0d10-474a-85fe-cef1df417871 
Nov 29 15:33:22.848 HYPERVISOR: exec_cmd: vm get_status Mgt 
Nov 29 15:33:22.865 HYPERVISOR: exec_cmd: nio create_udp udp-71992511-6426-4e95-bdbc-eba0c46d2042 15048 127.0.0.1 15049 
Nov 29 15:33:22.866 HYPERVISOR: exec_cmd: vm slot_add_nio_binding Mgt 1 2 udp-71992511-6426-4e95-bdbc-eba0c46d2042 
Nov 29 15:33:22.866 HYPERVISOR: exec_cmd: vm get_status Mgt 
Nov 29 15:33:22.888 HYPERVISOR: exec_cmd: nio create_udp udp-90cca75e-7ee6-4025-9a43-a57623f6c296 15052 127.0.0.1 15051 
Nov 29 15:33:22.888 HYPERVISOR: exec_cmd: vm slot_add_nio_binding Mgt 1 3 udp-90cca75e-7ee6-4025-9a43-a57623f6c296 
Nov 29 15:33:22.889 HYPERVISOR: exec_cmd: vm get_status Mgt 
Nov 29 15:33:22.909 HYPERVISOR: exec_cmd: nio create_udp udp-a070a9e4-5106-4308-b9b1-4fea7fce112d 15050 127.0.0.1 15053 
Nov 29 15:33:22.910 HYPERVISOR: exec_cmd: vm slot_add_nio_binding Mgt 1 4 udp-a070a9e4-5106-4308-b9b1-4fea7fce112d 
Nov 29 15:33:22.910 HYPERVISOR: exec_cmd: vm get_status Mgt 
Nov 29 15:33:22.928 HYPERVISOR: exec_cmd: nio create_udp udp-3ab4e210-fa67-42aa-9c3d-4c3dc988896b 15056 127.0.0.1 15055 
Nov 29 15:33:22.929 HYPERVISOR: exec_cmd: vm slot_add_nio_binding Mgt 1 12 udp-3ab4e210-fa67-42aa-9c3d-4c3dc988896b 
Nov 29 15:33:22.929 HYPERVISOR: exec_cmd: vm get_status Mgt 
Nov 29 15:33:22.948 HYPERVISOR: exec_cmd: nio create_udp udp-10b45118-c9b0-431b-8f92-372de21ccc9d 15054 127.0.0.1 15057 
Nov 29 15:33:22.949 HYPERVISOR: exec_cmd: vm slot_add_nio_binding Mgt 1 11 udp-10b45118-c9b0-431b-8f92-372de21ccc9d 
Nov 29 15:33:22.949 HYPERVISOR: exec_cmd: vm get_status Mgt 
Nov 29 15:33:58.723 HYPERVISOR: exec_cmd: vm get_status Mgt 
Nov 29 15:33:58.726 HYPERVISOR: exec_cmd: vm extract_config Mgt 
Nov 29 15:33:58.726 HYPERVISOR: exec_cmd: vm delete Mgt 
Nov 29 15:33:58.726 VM: VM Mgt destroyed.
Nov 29 15:33:58.727 HYPERVISOR: exec_cmd: hypervisor stop 
Nov 29 15:33:59.109 HYPERVISOR: Stopped.
Nov 29 15:33:59.109 GENERAL: reset done.
