Nov 27 16:26:10.275 HYPERVISOR: Release 0.2.17-amd64/Linux (tag 2017072410)
Nov 27 16:26:10.275 HYPERVISOR: Started on IP = 127.0.0.1, TCP port = 45881.
Nov 27 16:26:10.287 HYPERVISOR: exec_cmd: hypervisor version 
Nov 27 16:26:10.288 HYPERVISOR: exec_cmd: hypervisor working_dir /media/actionmystique/SAMSUNG5-VMs/Labs/GNS3/git-Public-Labs-Collection/CCNP/TBSHOOT/L3-Technologies/IPv4/IOS-Filtering-Tools/Prefix-List/Jean-Christophe_Manciot/1+/TT 1-linux/project-files/dynamips 
Nov 27 16:26:10.288 GENERAL: working_dir=/media/actionmystique/SAMSUNG5-VMs/Labs/GNS3/git-Public-Labs-Collection/CCNP/TBSHOOT/L3-Technologies/IPv4/IOS-Filtering-Tools/Prefix-List/Jean-Christophe_Manciot/1+/TT 1-linux/project-files/dynamips
Nov 27 16:26:10.289 HYPERVISOR: exec_cmd: vm create ESW3 3 c3725 
Nov 27 16:26:10.289 VM: VM ESW3 created.
Nov 27 16:26:10.291 HYPERVISOR: exec_cmd: vm set_con_tcp_port ESW3 2005 
Nov 27 16:26:10.292 HYPERVISOR: exec_cmd: c3725 get_mac_addr ESW3 
Nov 27 16:26:10.293 HYPERVISOR: exec_cmd: vm set_nvram ESW3 256 
Nov 27 16:26:10.294 HYPERVISOR: exec_cmd: vm get_status ESW3 
Nov 27 16:26:10.295 HYPERVISOR: exec_cmd: vm set_idle_pc ESW3 0x614ac27c 
Nov 27 16:26:10.300 HYPERVISOR: exec_cmd: c3725 set_mac_addr ESW3 c203.4490.0000 
Nov 27 16:26:10.302 HYPERVISOR: exec_cmd: vm get_status ESW3 
Nov 27 16:26:10.303 HYPERVISOR: exec_cmd: vm slot_add_binding ESW3 1 0 NM-16ESW 
Nov 27 16:26:10.304 HYPERVISOR: exec_cmd: vm set_ios ESW3 /media/actionmystique/SAMSUNG5-VMs/Images/GNS3/IOS/c3725-adventerprisek9-mz.124-15.T10.image 
Nov 27 16:26:10.304 HYPERVISOR: exec_cmd: vm slot_add_binding ESW3 0 16 WIC-2T 
Nov 27 16:26:10.306 HYPERVISOR: exec_cmd: vm set_disk0 ESW3 1 
Nov 27 16:26:10.307 HYPERVISOR: exec_cmd: vm set_config ESW3 configs/ios_base_startup-config.txt 
Nov 27 16:26:10.308 HYPERVISOR: exec_cmd: vm set_config ESW3 configs/ios_base_startup-config.txt configs/ios_base_private-config.txt 
Nov 27 16:26:10.541 HYPERVISOR: exec_cmd: nio create_udp udp-94270fdf-f179-4a42-a10d-bb18e01a6256 15012 127.0.0.1 15013 
Nov 27 16:26:10.541 HYPERVISOR: exec_cmd: vm slot_add_nio_binding ESW3 1 0 udp-94270fdf-f179-4a42-a10d-bb18e01a6256 
Nov 27 16:26:10.542 HYPERVISOR: exec_cmd: vm get_status ESW3 
Nov 27 16:27:36.321 HYPERVISOR: exec_cmd: vm get_status ESW3 
Nov 27 16:27:36.322 HYPERVISOR: exec_cmd: vm extract_config ESW3 
Nov 27 16:27:36.326 HYPERVISOR: exec_cmd: vm delete ESW3 
Nov 27 16:27:36.327 VM: VM ESW3 destroyed.
Nov 27 16:27:36.328 HYPERVISOR: exec_cmd: hypervisor stop 
Nov 27 16:27:36.377 HYPERVISOR: Stopped.
Nov 27 16:27:36.377 GENERAL: reset done.
