Nov 27 16:15:44.821 HYPERVISOR: Release 0.2.17-amd64/Linux (tag 2017072410)
Nov 27 16:15:44.821 HYPERVISOR: Started on IP = 127.0.0.1, TCP port = 42549.
Nov 27 16:15:44.840 HYPERVISOR: exec_cmd: hypervisor version 
Nov 27 16:15:44.842 HYPERVISOR: exec_cmd: hypervisor working_dir /media/actionmystique/SAMSUNG5-VMs/Labs/GNS3/git-Public-Labs-Collection/CCNP/TBSHOOT/L2-Technologies/STP/Jean-Christophe_Manciot/1+/TT 3-solutions-linux/project-files/dynamips 
Nov 27 16:15:44.842 GENERAL: working_dir=/media/actionmystique/SAMSUNG5-VMs/Labs/GNS3/git-Public-Labs-Collection/CCNP/TBSHOOT/L2-Technologies/STP/Jean-Christophe_Manciot/1+/TT 3-solutions-linux/project-files/dynamips
Nov 27 16:15:44.843 HYPERVISOR: exec_cmd: vm create PC1 4 c3725 
Nov 27 16:15:44.843 VM: VM PC1 created.
Nov 27 16:15:44.843 HYPERVISOR: exec_cmd: vm set_con_tcp_port PC1 2004 
Nov 27 16:15:44.844 HYPERVISOR: exec_cmd: c3725 get_mac_addr PC1 
Nov 27 16:15:44.844 HYPERVISOR: exec_cmd: vm set_nvram PC1 256 
Nov 27 16:15:44.845 HYPERVISOR: exec_cmd: vm get_status PC1 
Nov 27 16:15:44.845 HYPERVISOR: exec_cmd: vm set_idle_pc PC1 0x6026b804 
Nov 27 16:15:44.846 HYPERVISOR: exec_cmd: c3725 set_mac_addr PC1 c204.12d0.0000 
Nov 27 16:15:44.848 HYPERVISOR: exec_cmd: vm set_exec_area PC1 16 
Nov 27 16:15:44.849 HYPERVISOR: exec_cmd: vm get_status PC1 
Nov 27 16:15:44.850 HYPERVISOR: exec_cmd: vm slot_add_binding PC1 1 0 NM-16ESW 
Nov 27 16:15:44.853 HYPERVISOR: exec_cmd: vm set_ios PC1 /media/actionmystique/SAMSUNG5-VMs/Images/GNS3/IOS/c3725-adventerprisek9-mz.124-15.T10.image 
Nov 27 16:15:44.854 HYPERVISOR: exec_cmd: vm slot_add_binding PC1 0 16 WIC-2T 
Nov 27 16:15:44.857 HYPERVISOR: exec_cmd: vm set_disk0 PC1 1 
Nov 27 16:15:44.858 HYPERVISOR: exec_cmd: vm set_config PC1 configs/i4_startup-config.cfg 
Nov 27 16:15:44.860 HYPERVISOR: exec_cmd: vm set_config PC1 configs/i4_startup-config.cfg configs/i4_private-config.cfg 
Nov 27 16:15:45.036 HYPERVISOR: exec_cmd: nio create_udp udp-19674d32-08bf-4846-8ad4-349eae9f8f80 15000 127.0.0.1 15002 
Nov 27 16:15:45.042 HYPERVISOR: exec_cmd: vm slot_add_nio_binding PC1 1 0 udp-19674d32-08bf-4846-8ad4-349eae9f8f80 
Nov 27 16:15:45.044 HYPERVISOR: exec_cmd: vm get_status PC1 
