Dec 04 11:04:41.868 HYPERVISOR: Release 0.2.17-amd64/Linux (tag 2017072410)
Dec 04 11:04:41.868 HYPERVISOR: Started on IP = 127.0.0.1, TCP port = 38917.
Dec 04 11:04:41.872 HYPERVISOR: exec_cmd: hypervisor version 
Dec 04 11:04:41.873 HYPERVISOR: exec_cmd: hypervisor working_dir /media/actionmystique/SAMSUNG5-VMs/Labs/GNS3/git-Public-Labs-Collection/CCNP/TBSHOOT/L3-Technologies/IPv6/Routing-Protocols/OSPFv3/Jean-Christophe_Manciot/1+/TT 1-linux/project-files/dynamips 
Dec 04 11:04:41.873 GENERAL: working_dir=/media/actionmystique/SAMSUNG5-VMs/Labs/GNS3/git-Public-Labs-Collection/CCNP/TBSHOOT/L3-Technologies/IPv6/Routing-Protocols/OSPFv3/Jean-Christophe_Manciot/1+/TT 1-linux/project-files/dynamips
Dec 04 11:04:41.873 HYPERVISOR: exec_cmd: vm create ESW4 4 c3725 
Dec 04 11:04:41.873 VM: VM ESW4 created.
Dec 04 11:04:41.874 HYPERVISOR: exec_cmd: vm set_con_tcp_port ESW4 2009 
Dec 04 11:04:41.875 HYPERVISOR: exec_cmd: c3725 get_mac_addr ESW4 
Dec 04 11:04:41.875 HYPERVISOR: exec_cmd: vm set_nvram ESW4 256 
Dec 04 11:04:41.876 HYPERVISOR: exec_cmd: vm set_ios ESW4 /media/actionmystique/SAMSUNG5-VMs/Images/GNS3/IOS/c3725-adventerprisek9-mz.124-15.T10.image 
Dec 04 11:04:41.877 HYPERVISOR: exec_cmd: c3725 set_mac_addr ESW4 c204.68ae.0000 
Dec 04 11:04:41.877 HYPERVISOR: exec_cmd: vm get_status ESW4 
Dec 04 11:04:41.878 HYPERVISOR: exec_cmd: vm slot_add_binding ESW4 1 0 NM-16ESW 
Dec 04 11:04:41.879 HYPERVISOR: exec_cmd: vm get_status ESW4 
Dec 04 11:04:41.879 HYPERVISOR: exec_cmd: vm set_idle_pc ESW4 0x614ac27c 
Dec 04 11:04:41.880 HYPERVISOR: exec_cmd: vm set_disk0 ESW4 1 
Dec 04 11:04:41.881 HYPERVISOR: exec_cmd: vm slot_add_binding ESW4 0 16 WIC-2T 
Dec 04 11:04:41.883 HYPERVISOR: exec_cmd: vm set_config ESW4 configs/ios_base_startup-config.txt 
Dec 04 11:04:41.884 HYPERVISOR: exec_cmd: vm set_config ESW4 configs/ios_base_startup-config.txt configs/ios_base_private-config.txt 
Dec 04 11:04:42.211 HYPERVISOR: exec_cmd: nio create_udp udp-c3003fa2-9e72-4557-9928-7f387f555da5 15014 127.0.0.1 15015 
Dec 04 11:04:42.212 HYPERVISOR: exec_cmd: vm slot_add_nio_binding ESW4 1 0 udp-c3003fa2-9e72-4557-9928-7f387f555da5 
Dec 04 11:04:42.212 HYPERVISOR: exec_cmd: vm get_status ESW4 
Dec 04 11:04:42.219 HYPERVISOR: exec_cmd: nio create_udp udp-cc9f65a6-c395-42b7-87a1-06752b0520e5 15017 127.0.0.1 15016 
Dec 04 11:04:42.220 HYPERVISOR: exec_cmd: vm slot_add_nio_binding ESW4 1 1 udp-cc9f65a6-c395-42b7-87a1-06752b0520e5 
Dec 04 11:04:42.220 HYPERVISOR: exec_cmd: vm get_status ESW4 
