Nov 28 08:54:28.476 HYPERVISOR: Release 0.2.17-amd64/Linux (tag 2017072410)
Nov 28 08:54:28.476 HYPERVISOR: Started on IP = 127.0.0.1, TCP port = 51535.
Nov 28 08:54:28.496 HYPERVISOR: exec_cmd: hypervisor version 
Nov 28 08:54:28.504 HYPERVISOR: exec_cmd: hypervisor working_dir /media/actionmystique/SAMSUNG5-VMs/Labs/GNS3/TT 3-linux-/project-files/dynamips 
Nov 28 08:54:28.504 GENERAL: working_dir=/media/actionmystique/SAMSUNG5-VMs/Labs/GNS3/TT 3-linux-/project-files/dynamips
Nov 28 08:54:28.509 HYPERVISOR: exec_cmd: vm create ESW3 3 c3725 
Nov 28 08:54:28.509 VM: VM ESW3 created.
Nov 28 08:54:28.518 HYPERVISOR: exec_cmd: vm set_con_tcp_port ESW3 2006 
Nov 28 08:54:28.518 HYPERVISOR: exec_cmd: c3725 get_mac_addr ESW3 
Nov 28 08:54:28.519 HYPERVISOR: exec_cmd: vm set_disk0 ESW3 1 
Nov 28 08:54:28.519 HYPERVISOR: exec_cmd: vm get_status ESW3 
Nov 28 08:54:28.519 HYPERVISOR: exec_cmd: vm slot_add_binding ESW3 1 0 NM-16ESW 
Nov 28 08:54:28.520 HYPERVISOR: exec_cmd: vm set_ios ESW3 /media/actionmystique/SAMSUNG5-VMs/Images/GNS3/IOS/c3725-adventerprisek9-mz.124-15.T10.image 
Nov 28 08:54:28.520 HYPERVISOR: exec_cmd: c3725 set_mac_addr ESW3 c203.1bfb.0000 
Nov 28 08:54:28.521 HYPERVISOR: exec_cmd: vm slot_add_binding ESW3 0 16 WIC-2T 
Nov 28 08:54:28.521 HYPERVISOR: exec_cmd: vm get_status ESW3 
Nov 28 08:54:28.521 HYPERVISOR: exec_cmd: vm set_idle_pc ESW3 0x614ac27c 
Nov 28 08:54:28.522 HYPERVISOR: exec_cmd: vm set_nvram ESW3 256 
Nov 28 08:54:28.522 HYPERVISOR: exec_cmd: vm set_config ESW3 configs/ios_base_startup-config.txt 
Nov 28 08:54:28.523 HYPERVISOR: exec_cmd: vm set_config ESW3 configs/ios_base_startup-config.txt configs/ios_base_private-config.txt 
Nov 28 08:54:28.677 HYPERVISOR: exec_cmd: nio create_tap tap-eac0416d-6751-452c-a21b-2440e53d95f1 tap0 
Nov 28 08:54:28.679 HYPERVISOR: exec_cmd: vm slot_add_nio_binding ESW3 1 1 tap-eac0416d-6751-452c-a21b-2440e53d95f1 
Nov 28 08:54:28.679 HYPERVISOR: exec_cmd: vm get_status ESW3 
Nov 28 08:54:28.840 HYPERVISOR: exec_cmd: nio create_udp udp-e8e4897d-8276-4849-bb87-247beddad252 15013 127.0.0.1 15011 
Nov 28 08:54:28.841 HYPERVISOR: exec_cmd: vm slot_add_nio_binding ESW3 1 0 udp-e8e4897d-8276-4849-bb87-247beddad252 
Nov 28 08:54:28.841 HYPERVISOR: exec_cmd: vm get_status ESW3 
Nov 28 08:54:45.455 HYPERVISOR: exec_cmd: vm get_status ESW3 
Nov 28 08:54:45.458 HYPERVISOR: exec_cmd: vm extract_config ESW3 
Nov 28 08:54:45.460 HYPERVISOR: exec_cmd: vm delete ESW3 
Nov 28 08:54:45.460 VM: VM ESW3 destroyed.
Nov 28 08:54:45.461 HYPERVISOR: exec_cmd: hypervisor stop 
Nov 28 08:54:45.514 HYPERVISOR: Stopped.
Nov 28 08:54:45.514 GENERAL: reset done.
