Nov 28 08:54:17.627 HYPERVISOR: Release 0.2.17-amd64/Linux (tag 2017072410)
Nov 28 08:54:17.627 HYPERVISOR: Started on IP = 127.0.0.1, TCP port = 54955.
Nov 28 08:54:17.638 HYPERVISOR: exec_cmd: hypervisor version 
Nov 28 08:54:17.639 HYPERVISOR: exec_cmd: hypervisor working_dir /media/actionmystique/SAMSUNG5-VMs/Labs/GNS3/git-Public-Labs-Collection/CCNP/TBSHOOT/L3-Technologies/IPv4/Routing-Protocols/OSPFv2/Jean-Christophe_Manciot/1+/TT 3-linux/project-files/dynamips 
Nov 28 08:54:17.639 GENERAL: working_dir=/media/actionmystique/SAMSUNG5-VMs/Labs/GNS3/git-Public-Labs-Collection/CCNP/TBSHOOT/L3-Technologies/IPv4/Routing-Protocols/OSPFv2/Jean-Christophe_Manciot/1+/TT 3-linux/project-files/dynamips
Nov 28 08:54:17.641 HYPERVISOR: exec_cmd: vm create ESW3 3 c3725 
Nov 28 08:54:17.641 VM: VM ESW3 created.
Nov 28 08:54:17.642 HYPERVISOR: exec_cmd: vm set_con_tcp_port ESW3 2006 
Nov 28 08:54:17.643 HYPERVISOR: exec_cmd: c3725 get_mac_addr ESW3 
Nov 28 08:54:17.644 HYPERVISOR: exec_cmd: vm set_disk0 ESW3 1 
Nov 28 08:54:17.649 HYPERVISOR: exec_cmd: vm set_ios ESW3 /media/actionmystique/SAMSUNG5-VMs/Images/GNS3/IOS/c3725-adventerprisek9-mz.124-15.T10.image 
Nov 28 08:54:17.657 HYPERVISOR: exec_cmd: c3725 set_mac_addr ESW3 c203.1bfb.0000 
Nov 28 08:54:17.658 HYPERVISOR: exec_cmd: vm get_status ESW3 
Nov 28 08:54:17.659 HYPERVISOR: exec_cmd: vm set_idle_pc ESW3 0x614ac27c 
Nov 28 08:54:17.660 HYPERVISOR: exec_cmd: vm get_status ESW3 
Nov 28 08:54:17.661 HYPERVISOR: exec_cmd: vm slot_add_binding ESW3 1 0 NM-16ESW 
Nov 28 08:54:17.661 HYPERVISOR: exec_cmd: vm slot_add_binding ESW3 0 16 WIC-2T 
Nov 28 08:54:17.662 HYPERVISOR: exec_cmd: vm set_nvram ESW3 256 
Nov 28 08:54:17.663 HYPERVISOR: exec_cmd: vm set_config ESW3 configs/ios_base_startup-config.txt 
Nov 28 08:54:17.668 HYPERVISOR: exec_cmd: vm set_config ESW3 configs/ios_base_startup-config.txt configs/ios_base_private-config.txt 
Nov 28 08:54:17.824 HYPERVISOR: exec_cmd: nio create_tap tap-b45751be-cbd2-4b56-8623-a1d869ed375f tap0 
Nov 28 08:54:17.830 HYPERVISOR: exec_cmd: vm slot_add_nio_binding ESW3 1 1 tap-b45751be-cbd2-4b56-8623-a1d869ed375f 
Nov 28 08:54:17.831 HYPERVISOR: exec_cmd: vm get_status ESW3 
Nov 28 08:54:17.943 HYPERVISOR: exec_cmd: nio create_udp udp-e10ac55e-e701-4c84-9f2a-f516b1e406df 15017 127.0.0.1 15016 
Nov 28 08:54:17.943 HYPERVISOR: exec_cmd: vm slot_add_nio_binding ESW3 1 0 udp-e10ac55e-e701-4c84-9f2a-f516b1e406df 
Nov 28 08:54:17.944 HYPERVISOR: exec_cmd: vm get_status ESW3 
