autostart = False
version = 0.8.3.1
[127.0.0.1:7200]
    workingdir = C:\Users\ActionMystique\AppData\Local\Temp\GNS3
    udp = 10200
    [[3640]]
        image = C:\Users\ActionMystique\Google Drive\Missions\Certifications\Cisco\Labs\GNS3\IOS\Binaries\c3640-jk9o3s-mz.124-16a.bin
        disk0 = 64
        idlepc = 0x604d1c74
        sparsemem = True
        ghostios = True
        chassis = 3640
    [[ROUTER R4]]
        model = 3640
        console = 2003
        aux = 2500
        cnfg = Core - BGP Case Study 3_configs\R4.cfg
        slot0 = NM-4T
        s0/0 = R3 s0/2
        slot1 = NM-1FE-TX
        f1/0 = SW1 7
        x = -32.0
        y = 138.0
        z = 1.0
    [[ETHSW SW1]]
        1 = access 1 R1 f1/0
        7 = access 1 R4 f1/0
        x = -375.5
        y = 147.0
        z = 1.0
    [[ROUTER R1]]
        model = 3640
        console = 2000
        aux = 2501
        cnfg = Core - BGP Case Study 3_configs\R1.cfg
        slot0 = NM-4T
        s0/0 = R2 s0/0
        s0/1 = R3 s0/0
        slot1 = NM-1FE-TX
        f1/0 = SW1 1
        x = -376.0
        y = -30.0
        z = 1.0
    [[ROUTER R2]]
        model = 3640
        console = 2001
        aux = 2502
        cnfg = Core - BGP Case Study 3_configs\R2.cfg
        slot0 = NM-4T
        s0/0 = R1 s0/0
        s0/1 = R3 s0/1
        slot1 = NM-1FE-TX
        x = -44.0
        y = -168.0
        z = 1.0
    [[ROUTER R3]]
        model = 3640
        console = 2002
        aux = 2503
        cnfg = Core - BGP Case Study 3_configs\R3.cfg
        slot0 = NM-4T
        s0/0 = R1 s0/1
        s0/1 = R2 s0/1
        s0/2 = R4 s0/0
        slot1 = NM-1FE-TX
        x = 315.0
        y = -34.0
        z = 1.0
[GNS3-DATA]
    configs = Core - BGP Case Study 3_configs
    [[NOTE 1]]
        text = "-- Loopback 3: 10.3.3.3/24"
        x = 377.0
        y = -24.0
        font = "MS Shell Dlg 2,8,-1,5,75,0,0,0,0,0"
    [[NOTE 2]]
        text = "|"
        x = -6.0
        y = 173.0
    [[NOTE 3]]
        text = "Loopback 2: 10.2.2.2/24\nLoopback 200: 10.20.0.1/24\nLoopback 201: 10.20.1.1/24\nLoopback 202: 10.20.2.1/24\nLoopback 203: 10.20.3.1/24"
        x = -88.0
        y = -263.0
        font = "MS Shell Dlg 2,8,-1,5,75,0,0,0,0,0"
    [[NOTE 4]]
        text = "BGP AS 65002\n          &\nEIGRP AS 65002"
        x = -503.0
        y = 145.0
        color = "#550000"
    [[NOTE 5]]
        text = "|"
        x = -17.0
        y = -198.0
    [[NOTE 6]]
        text = "BGP Case Study - Lab 3"
        x = 272.0
        y = -179.0
    [[NOTE 7]]
        text = "Loopback 0: 172.16.0.1/22\nLoopback 4: 172.16.4.1/22\nLoopback 8: 172.16.8.1/22\nLoopback 12: 172.16.12.1/22"
        x = -80.0
        y = 186.0
        font = "MS Shell Dlg 2,8,-1,5,75,0,0,0,0,0"
        color = "#ffaa00"
    [[NOTE 8]]
        text = "Travel Data Providers"
        x = -516.0
        y = 218.0
        color = "#550000"
    [[NOTE 9]]
        text = "International Travel Agency"
        x = -522.0
        y = -161.0
        color = "#b07500"
    [[NOTE 10]]
        text = "BGP AS 65001\n         &\nEIGRP AS 65001"
        x = -477.0
        y = -237.0
        color = "#cb8700"
    [[NOTE 11]]
        text = "VLAN 14:\n192.168.14.0/30"
        x = -307.0
        y = 104.0
        font = "MS Shell Dlg 2,8,-1,5,75,0,0,0,0,0"
    [[NOTE 12]]
        text = "Get More Labs @ http://www.GNS3-Labs.com"
        x = 213.0
        y = -154.0
    [[NOTE 13]]
        text = "10.1.102.0/29"
        x = -199.0
        y = -62.0
        font = "MS Shell Dlg 2,8,-1,5,75,0,0,0,0,0"
        rotate = -25
    [[NOTE 14]]
        text = "10.1.203.0/29"
        x = 109.0
        y = -101.0
        font = "MS Shell Dlg 2,8,-1,5,75,0,0,0,0,0"
        rotate = 25
    [[NOTE 15]]
        text = "192.168.34.0/30"
        x = 138.0
        y = 104.0
        font = "MS Shell Dlg 2,8,-1,5,75,0,0,0,0,0"
        rotate = -30
    [[NOTE 16]]
        text = "10.1.103.0/29"
        x = -58.0
        y = -1.0
        font = "MS Shell Dlg 2,8,-1,5,75,0,0,0,0,0"
    [[NOTE 17]]
        text = "Loopback 1: 10.1.1.1/24 --"
        x = -523.0
        y = -20.0
        font = "MS Shell Dlg 2,8,-1,5,75,0,0,0,0,0"
    [[SHAPE 1]]
        type = rectangle
        x = -107.0
        y = -259.0
        width = 200.0
        height = 67.0
        fill_color = "#ffaa00"
    [[SHAPE 2]]
        type = rectangle
        x = -94.0
        y = 189.0
        width = 200.0
        height = 59.0
        fill_color = "#9a0000"
    [[SHAPE 3]]
        type = rectangle
        x = 390.0
        y = -25.0
        width = 145.0
        height = 25.0
        fill_color = "#ffaa00"
    [[SHAPE 4]]
        type = rectangle
        x = -522.0
        y = -20.0
        width = 138.0
        height = 19.0
        fill_color = "#ffaa00"
    [[SHAPE 5]]
        type = rectangle
        x = -535.0
        y = 59.0
        width = 1074.0
        height = 203.0
        fill_color = "#ffffff"
        border_color = "#550000"
        z = -2.0
    [[SHAPE 6]]
        type = rectangle
        x = -534.0
        y = -263.0
        width = 1071.0
        height = 302.0
        border_color = "#ffaa00"
        z = -3.0
