Nov 27 16:14:00.815 HYPERVISOR: Release 0.2.17-amd64/Linux (tag 2017072410)
Nov 27 16:14:00.815 HYPERVISOR: Started on IP = 127.0.0.1, TCP port = 42709.
Nov 27 16:14:00.830 HYPERVISOR: exec_cmd: hypervisor version 
Nov 27 16:14:00.830 HYPERVISOR: exec_cmd: hypervisor working_dir /media/actionmystique/SAMSUNG5-VMs/Labs/GNS3/git-Public-Labs-Collection/CCNP/TBSHOOT/L2-Technologies/STP/Jean-Christophe_Manciot/1+/TT 1-solutions-linux/project-files/dynamips 
Nov 27 16:14:00.830 GENERAL: working_dir=/media/actionmystique/SAMSUNG5-VMs/Labs/GNS3/git-Public-Labs-Collection/CCNP/TBSHOOT/L2-Technologies/STP/Jean-Christophe_Manciot/1+/TT 1-solutions-linux/project-files/dynamips
Nov 27 16:14:00.830 HYPERVISOR: exec_cmd: vm create SW1 1 c3725 
Nov 27 16:14:00.830 VM: VM SW1 created.
Nov 27 16:14:00.831 HYPERVISOR: exec_cmd: vm set_con_tcp_port SW1 2001 
Nov 27 16:14:00.831 HYPERVISOR: exec_cmd: c3725 get_mac_addr SW1 
Nov 27 16:14:00.831 HYPERVISOR: exec_cmd: vm set_nvram SW1 256 
Nov 27 16:14:00.832 HYPERVISOR: exec_cmd: vm get_status SW1 
Nov 27 16:14:00.832 HYPERVISOR: exec_cmd: vm set_idle_pc SW1 0x6026b804 
Nov 27 16:14:00.832 HYPERVISOR: exec_cmd: c3725 set_mac_addr SW1 aaaa.aaaa.aaaa 
Nov 27 16:14:00.833 HYPERVISOR: exec_cmd: vm set_exec_area SW1 16 
Nov 27 16:14:00.833 HYPERVISOR: exec_cmd: vm get_status SW1 
Nov 27 16:14:00.833 HYPERVISOR: exec_cmd: vm slot_add_binding SW1 1 0 NM-16ESW 
Nov 27 16:14:00.834 HYPERVISOR: exec_cmd: vm set_ios SW1 /media/actionmystique/SAMSUNG5-VMs/Images/GNS3/IOS/c3725-adventerprisek9-mz.124-15.T10.image 
Nov 27 16:14:00.834 HYPERVISOR: exec_cmd: vm slot_add_binding SW1 0 16 WIC-2T 
Nov 27 16:14:00.834 HYPERVISOR: exec_cmd: vm set_disk0 SW1 1 
Nov 27 16:14:00.835 HYPERVISOR: exec_cmd: vm set_config SW1 configs/i1_startup-config.cfg 
Nov 27 16:14:00.835 HYPERVISOR: exec_cmd: vm set_config SW1 configs/i1_startup-config.cfg configs/i1_private-config.cfg 
Nov 27 16:14:00.905 HYPERVISOR: exec_cmd: nio create_null null-3535330f-426d-4b73-b908-e9e9bd998925 
Nov 27 16:14:00.906 HYPERVISOR: exec_cmd: vm slot_add_nio_binding SW1 1 0 null-3535330f-426d-4b73-b908-e9e9bd998925 
Nov 27 16:14:00.907 HYPERVISOR: exec_cmd: vm get_status SW1 
Nov 27 16:14:00.961 HYPERVISOR: exec_cmd: nio create_udp udp-8442dcd9-875a-4b9f-9a28-1890144e275e 15004 127.0.0.1 15005 
Nov 27 16:14:00.961 HYPERVISOR: exec_cmd: vm slot_add_nio_binding SW1 1 5 udp-8442dcd9-875a-4b9f-9a28-1890144e275e 
Nov 27 16:14:00.961 HYPERVISOR: exec_cmd: vm get_status SW1 
Nov 27 16:14:00.968 HYPERVISOR: exec_cmd: nio create_udp udp-ef78dc2a-d5a9-4dfc-9044-1fc3372b0e11 15006 127.0.0.1 15007 
Nov 27 16:14:00.971 HYPERVISOR: exec_cmd: vm slot_add_nio_binding SW1 1 6 udp-ef78dc2a-d5a9-4dfc-9044-1fc3372b0e11 
Nov 27 16:14:00.972 HYPERVISOR: exec_cmd: vm get_status SW1 
Nov 27 16:14:01.001 HYPERVISOR: exec_cmd: nio create_udp udp-04ad9278-1d5f-4c0f-8724-5b0dae2e83a3 15008 127.0.0.1 15009 
Nov 27 16:14:01.001 HYPERVISOR: exec_cmd: vm slot_add_nio_binding SW1 1 1 udp-04ad9278-1d5f-4c0f-8724-5b0dae2e83a3 
Nov 27 16:14:01.001 HYPERVISOR: exec_cmd: vm get_status SW1 
