Nov 27 16:14:00.766 HYPERVISOR: Release 0.2.17-amd64/Linux (tag 2017072410)
Nov 27 16:14:00.766 HYPERVISOR: Started on IP = 127.0.0.1, TCP port = 39625.
Nov 27 16:14:00.775 HYPERVISOR: exec_cmd: hypervisor version 
Nov 27 16:14:00.776 HYPERVISOR: exec_cmd: hypervisor working_dir /media/actionmystique/SAMSUNG5-VMs/Labs/GNS3/git-Public-Labs-Collection/CCNP/TBSHOOT/L2-Technologies/STP/Jean-Christophe_Manciot/1+/TT 1-solutions-linux/project-files/dynamips 
Nov 27 16:14:00.776 GENERAL: working_dir=/media/actionmystique/SAMSUNG5-VMs/Labs/GNS3/git-Public-Labs-Collection/CCNP/TBSHOOT/L2-Technologies/STP/Jean-Christophe_Manciot/1+/TT 1-solutions-linux/project-files/dynamips
Nov 27 16:14:00.776 HYPERVISOR: exec_cmd: vm create SW3 3 c3725 
Nov 27 16:14:00.776 VM: VM SW3 created.
Nov 27 16:14:00.777 HYPERVISOR: exec_cmd: vm set_con_tcp_port SW3 2003 
Nov 27 16:14:00.777 HYPERVISOR: exec_cmd: c3725 get_mac_addr SW3 
Nov 27 16:14:00.778 HYPERVISOR: exec_cmd: vm set_nvram SW3 256 
Nov 27 16:14:00.778 HYPERVISOR: exec_cmd: vm get_status SW3 
Nov 27 16:14:00.784 HYPERVISOR: exec_cmd: vm set_idle_pc SW3 0x6026b804 
Nov 27 16:14:00.785 HYPERVISOR: exec_cmd: c3725 set_mac_addr SW3 cccc.cccc.cccc 
Nov 27 16:14:00.785 HYPERVISOR: exec_cmd: vm set_exec_area SW3 16 
Nov 27 16:14:00.787 HYPERVISOR: exec_cmd: vm get_status SW3 
Nov 27 16:14:00.787 HYPERVISOR: exec_cmd: vm slot_add_binding SW3 1 0 NM-16ESW 
Nov 27 16:14:00.788 HYPERVISOR: exec_cmd: vm set_ios SW3 /media/actionmystique/SAMSUNG5-VMs/Images/GNS3/IOS/c3725-adventerprisek9-mz.124-15.T10.image 
Nov 27 16:14:00.789 HYPERVISOR: exec_cmd: vm slot_add_binding SW3 0 16 WIC-2T 
Nov 27 16:14:00.789 HYPERVISOR: exec_cmd: vm set_disk0 SW3 1 
Nov 27 16:14:00.790 HYPERVISOR: exec_cmd: vm set_config SW3 configs/i3_startup-config.cfg 
Nov 27 16:14:00.790 HYPERVISOR: exec_cmd: vm set_config SW3 configs/i3_startup-config.cfg configs/i3_private-config.cfg 
Nov 27 16:14:00.855 HYPERVISOR: exec_cmd: nio create_null null-fc6b4f25-eb68-4570-9fc5-235a1cc9d57a 
Nov 27 16:14:00.856 HYPERVISOR: exec_cmd: vm slot_add_nio_binding SW3 1 0 null-fc6b4f25-eb68-4570-9fc5-235a1cc9d57a 
Nov 27 16:14:00.856 HYPERVISOR: exec_cmd: vm get_status SW3 
Nov 27 16:14:00.867 HYPERVISOR: exec_cmd: nio create_udp udp-9f0fdcf5-650f-48d8-947d-e7d59e628e17 15001 127.0.0.1 15002 
Nov 27 16:14:00.868 HYPERVISOR: exec_cmd: vm slot_add_nio_binding SW3 1 2 udp-9f0fdcf5-650f-48d8-947d-e7d59e628e17 
Nov 27 16:14:00.869 HYPERVISOR: exec_cmd: vm get_status SW3 
Nov 27 16:14:00.971 HYPERVISOR: exec_cmd: nio create_udp udp-4d1eef89-45a2-49a5-91c5-ebdd9013ad49 15005 127.0.0.1 15004 
Nov 27 16:14:00.971 HYPERVISOR: exec_cmd: vm slot_add_nio_binding SW3 1 5 udp-4d1eef89-45a2-49a5-91c5-ebdd9013ad49 
Nov 27 16:14:00.972 HYPERVISOR: exec_cmd: vm get_status SW3 
Nov 27 16:14:00.993 HYPERVISOR: exec_cmd: nio create_udp udp-b7f12677-4d80-4b58-81fe-f8cf54372ef1 15007 127.0.0.1 15006 
Nov 27 16:14:00.993 HYPERVISOR: exec_cmd: vm slot_add_nio_binding SW3 1 6 udp-b7f12677-4d80-4b58-81fe-f8cf54372ef1 
Nov 27 16:14:00.994 HYPERVISOR: exec_cmd: vm get_status SW3 
