Nov 29 15:25:54.829 HYPERVISOR: Release 0.2.17-amd64/Linux (tag 2017072410)
Nov 29 15:25:54.830 HYPERVISOR: Started on IP = 127.0.0.1, TCP port = 54027.
Nov 29 15:25:54.866 HYPERVISOR: exec_cmd: hypervisor version 
Nov 29 15:25:54.867 HYPERVISOR: exec_cmd: hypervisor working_dir /media/actionmystique/SAMSUNG5-VMs/Labs/GNS3/TT 2-solutions-linux-/project-files/dynamips 
Nov 29 15:25:54.867 GENERAL: working_dir=/media/actionmystique/SAMSUNG5-VMs/Labs/GNS3/TT 2-solutions-linux-/project-files/dynamips
Nov 29 15:25:54.868 HYPERVISOR: exec_cmd: vm create ESW4 4 c3725 
Nov 29 15:25:54.868 VM: VM ESW4 created.
Nov 29 15:25:54.869 HYPERVISOR: exec_cmd: vm set_con_tcp_port ESW4 2009 
Nov 29 15:25:54.869 HYPERVISOR: exec_cmd: c3725 get_mac_addr ESW4 
Nov 29 15:25:54.871 HYPERVISOR: exec_cmd: vm get_status ESW4 
Nov 29 15:25:54.871 HYPERVISOR: exec_cmd: vm slot_add_binding ESW4 1 0 NM-16ESW 
Nov 29 15:25:54.872 HYPERVISOR: exec_cmd: c3725 set_mac_addr ESW4 c204.68ae.0000 
Nov 29 15:25:54.873 HYPERVISOR: exec_cmd: vm set_disk0 ESW4 1 
Nov 29 15:25:54.874 HYPERVISOR: exec_cmd: vm set_nvram ESW4 256 
Nov 29 15:25:54.874 HYPERVISOR: exec_cmd: vm set_ios ESW4 /media/actionmystique/SAMSUNG5-VMs/Images/GNS3/IOS/c3725-adventerprisek9-mz.124-15.T10.image 
Nov 29 15:25:54.875 HYPERVISOR: exec_cmd: vm get_status ESW4 
Nov 29 15:25:54.876 HYPERVISOR: exec_cmd: vm set_idle_pc ESW4 0x6026b804 
Nov 29 15:25:54.877 HYPERVISOR: exec_cmd: vm slot_add_binding ESW4 0 16 WIC-2T 
Nov 29 15:25:54.878 HYPERVISOR: exec_cmd: vm set_config ESW4 configs/ios_base_startup-config.txt 
Nov 29 15:25:54.880 HYPERVISOR: exec_cmd: vm set_config ESW4 configs/ios_base_startup-config.txt configs/ios_base_private-config.txt 
Nov 29 15:25:55.181 HYPERVISOR: exec_cmd: nio create_udp udp-02b12ad3-9464-482d-88cb-da5d58e82b76 15013 127.0.0.1 15012 
Nov 29 15:25:55.181 HYPERVISOR: exec_cmd: vm slot_add_nio_binding ESW4 1 0 udp-02b12ad3-9464-482d-88cb-da5d58e82b76 
Nov 29 15:25:55.181 HYPERVISOR: exec_cmd: vm get_status ESW4 
Nov 29 15:25:55.188 HYPERVISOR: exec_cmd: nio create_udp udp-7a6f4660-7bcb-4a23-8546-ede9cfa113a6 15014 127.0.0.1 15015 
Nov 29 15:25:55.188 HYPERVISOR: exec_cmd: vm slot_add_nio_binding ESW4 1 1 udp-7a6f4660-7bcb-4a23-8546-ede9cfa113a6 
Nov 29 15:25:55.189 HYPERVISOR: exec_cmd: vm get_status ESW4 
Nov 29 15:26:11.355 HYPERVISOR: exec_cmd: vm get_status ESW4 
Nov 29 15:26:11.357 HYPERVISOR: exec_cmd: vm extract_config ESW4 
Nov 29 15:26:11.359 HYPERVISOR: exec_cmd: vm delete ESW4 
Nov 29 15:26:11.359 VM: VM ESW4 destroyed.
Nov 29 15:26:11.361 HYPERVISOR: exec_cmd: hypervisor stop 
Nov 29 15:26:11.377 HYPERVISOR: Stopped.
Nov 29 15:26:11.377 GENERAL: reset done.
