Dec 04 11:10:46.886 HYPERVISOR: Release 0.2.17-amd64/Linux (tag 2017072410)
Dec 04 11:10:46.886 HYPERVISOR: Started on IP = 127.0.0.1, TCP port = 44953.
Dec 04 11:10:46.901 HYPERVISOR: exec_cmd: hypervisor version 
Dec 04 11:10:46.902 HYPERVISOR: exec_cmd: hypervisor working_dir /media/actionmystique/SAMSUNG5-VMs/Labs/GNS3/TT 2-linux-/project-files/dynamips 
Dec 04 11:10:46.902 GENERAL: working_dir=/media/actionmystique/SAMSUNG5-VMs/Labs/GNS3/TT 2-linux-/project-files/dynamips
Dec 04 11:10:46.902 HYPERVISOR: exec_cmd: vm create ESW2 2 c3725 
Dec 04 11:10:46.903 VM: VM ESW2 created.
Dec 04 11:10:46.903 HYPERVISOR: exec_cmd: vm set_con_tcp_port ESW2 2005 
Dec 04 11:10:46.904 HYPERVISOR: exec_cmd: c3725 get_mac_addr ESW2 
Dec 04 11:10:46.904 HYPERVISOR: exec_cmd: vm set_nvram ESW2 256 
Dec 04 11:10:46.905 HYPERVISOR: exec_cmd: vm set_ios ESW2 /media/actionmystique/SAMSUNG5-VMs/Images/GNS3/IOS/c3725-adventerprisek9-mz.124-15.T10.image 
Dec 04 11:10:46.906 HYPERVISOR: exec_cmd: c3725 set_mac_addr ESW2 c202.1bd4.0000 
Dec 04 11:10:46.906 HYPERVISOR: exec_cmd: vm get_status ESW2 
Dec 04 11:10:46.907 HYPERVISOR: exec_cmd: vm slot_add_binding ESW2 1 0 NM-16ESW 
Dec 04 11:10:46.907 HYPERVISOR: exec_cmd: vm get_status ESW2 
Dec 04 11:10:46.908 HYPERVISOR: exec_cmd: vm set_idle_pc ESW2 0x614ac27c 
Dec 04 11:10:46.908 HYPERVISOR: exec_cmd: vm set_disk0 ESW2 1 
Dec 04 11:10:46.909 HYPERVISOR: exec_cmd: vm slot_add_binding ESW2 0 16 WIC-2T 
Dec 04 11:10:46.909 HYPERVISOR: exec_cmd: vm set_config ESW2 configs/ios_base_startup-config.txt 
Dec 04 11:10:46.910 HYPERVISOR: exec_cmd: vm set_config ESW2 configs/ios_base_startup-config.txt configs/ios_base_private-config.txt 
Dec 04 11:10:47.132 HYPERVISOR: exec_cmd: nio create_udp udp-82dac658-70f1-4887-aac6-4c71584398d6 15000 127.0.0.1 15002 
Dec 04 11:10:47.139 HYPERVISOR: exec_cmd: vm slot_add_nio_binding ESW2 1 0 udp-82dac658-70f1-4887-aac6-4c71584398d6 
Dec 04 11:10:47.141 HYPERVISOR: exec_cmd: vm get_status ESW2 
Dec 04 11:11:29.171 HYPERVISOR: exec_cmd: vm get_status ESW2 
Dec 04 11:11:29.173 HYPERVISOR: exec_cmd: vm extract_config ESW2 
Dec 04 11:11:29.175 HYPERVISOR: exec_cmd: vm delete ESW2 
Dec 04 11:11:29.176 VM: VM ESW2 destroyed.
Dec 04 11:11:29.177 HYPERVISOR: exec_cmd: hypervisor stop 
Dec 04 11:11:29.448 HYPERVISOR: Stopped.
Dec 04 11:11:29.448 GENERAL: reset done.
