Nov 28 08:27:36.624 HYPERVISOR: Release 0.2.17-amd64/Linux (tag 2017072410)
Nov 28 08:27:36.624 HYPERVISOR: Started on IP = 127.0.0.1, TCP port = 44093.
Nov 28 08:27:36.642 HYPERVISOR: exec_cmd: hypervisor version 
Nov 28 08:27:36.643 HYPERVISOR: exec_cmd: hypervisor working_dir /media/actionmystique/SAMSUNG5-VMs/Labs/GNS3/TT 1-solutions-linux-/project-files/dynamips 
Nov 28 08:27:36.643 GENERAL: working_dir=/media/actionmystique/SAMSUNG5-VMs/Labs/GNS3/TT 1-solutions-linux-/project-files/dynamips
Nov 28 08:27:36.643 HYPERVISOR: exec_cmd: vm create ESW1 1 c3725 
Nov 28 08:27:36.643 VM: VM ESW1 created.
Nov 28 08:27:36.643 HYPERVISOR: exec_cmd: vm set_con_tcp_port ESW1 2001 
Nov 28 08:27:36.644 HYPERVISOR: exec_cmd: vm set_aux_tcp_port ESW1 2501 
Nov 28 08:27:36.644 HYPERVISOR: exec_cmd: c3725 get_mac_addr ESW1 
Nov 28 08:27:36.644 HYPERVISOR: exec_cmd: vm set_disk0 ESW1 1 
Nov 28 08:27:36.645 HYPERVISOR: exec_cmd: vm get_status ESW1 
Nov 28 08:27:36.645 HYPERVISOR: exec_cmd: vm slot_add_binding ESW1 1 0 NM-16ESW 
Nov 28 08:27:36.646 HYPERVISOR: exec_cmd: vm set_ios ESW1 /media/actionmystique/SAMSUNG5-VMs/Images/GNS3/IOS/c3725-adventerprisek9-mz.124-15.T10.image 
Nov 28 08:27:36.646 HYPERVISOR: exec_cmd: c3725 set_mac_addr ESW1 c201.3297.0000 
Nov 28 08:27:36.646 HYPERVISOR: exec_cmd: vm slot_add_binding ESW1 0 16 WIC-2T 
Nov 28 08:27:36.647 HYPERVISOR: exec_cmd: vm get_status ESW1 
Nov 28 08:27:36.647 HYPERVISOR: exec_cmd: vm set_idle_pc ESW1 0x6026b804 
Nov 28 08:27:36.647 HYPERVISOR: exec_cmd: vm set_nvram ESW1 256 
Nov 28 08:27:36.648 HYPERVISOR: exec_cmd: vm set_config ESW1 configs/i1_startup-config.cfg 
Nov 28 08:27:36.648 HYPERVISOR: exec_cmd: vm set_config ESW1 configs/i1_startup-config.cfg configs/i1_private-config.cfg 
Nov 28 08:27:36.760 HYPERVISOR: exec_cmd: nio create_udp udp-23bd114e-cade-4a1c-bf6c-9f784e490a6c 15001 127.0.0.1 15000 
Nov 28 08:27:36.766 HYPERVISOR: exec_cmd: vm slot_add_nio_binding ESW1 1 1 udp-23bd114e-cade-4a1c-bf6c-9f784e490a6c 
Nov 28 08:27:36.766 HYPERVISOR: exec_cmd: vm get_status ESW1 
Nov 28 08:27:36.772 HYPERVISOR: exec_cmd: nio create_udp udp-e706c08d-b44e-4ce8-930a-690db7d126eb 15002 127.0.0.1 15003 
Nov 28 08:27:36.772 HYPERVISOR: exec_cmd: vm slot_add_nio_binding ESW1 1 2 udp-e706c08d-b44e-4ce8-930a-690db7d126eb 
Nov 28 08:27:36.772 HYPERVISOR: exec_cmd: vm get_status ESW1 
Nov 28 08:28:05.658 HYPERVISOR: exec_cmd: vm get_status ESW1 
Nov 28 08:28:05.659 HYPERVISOR: exec_cmd: vm extract_config ESW1 
Nov 28 08:28:05.659 HYPERVISOR: exec_cmd: vm delete ESW1 
Nov 28 08:28:05.659 VM: VM ESW1 destroyed.
Nov 28 08:28:05.660 HYPERVISOR: exec_cmd: hypervisor stop 
Nov 28 08:28:05.674 HYPERVISOR: Stopped.
Nov 28 08:28:05.674 GENERAL: reset done.
