Nov 27 16:24:46.999 HYPERVISOR: Release 0.2.17-amd64/Linux (tag 2017072410)
Nov 27 16:24:46.999 HYPERVISOR: Started on IP = 127.0.0.1, TCP port = 56537.
Nov 27 16:24:47.005 HYPERVISOR: exec_cmd: hypervisor version 
Nov 27 16:24:47.005 HYPERVISOR: exec_cmd: hypervisor working_dir /media/actionmystique/SAMSUNG5-VMs/Labs/GNS3/git-Public-Labs-Collection/CCNP/TBSHOOT/L3-Technologies/IPv4/IOS-Filtering-Tools/ACL/Jean-Christophe_Manciot/1+/TT 1-linux/project-files/dynamips 
Nov 27 16:24:47.005 GENERAL: working_dir=/media/actionmystique/SAMSUNG5-VMs/Labs/GNS3/git-Public-Labs-Collection/CCNP/TBSHOOT/L3-Technologies/IPv4/IOS-Filtering-Tools/ACL/Jean-Christophe_Manciot/1+/TT 1-linux/project-files/dynamips
Nov 27 16:24:47.006 HYPERVISOR: exec_cmd: vm create ESW1 1 c3725 
Nov 27 16:24:47.006 VM: VM ESW1 created.
Nov 27 16:24:47.007 HYPERVISOR: exec_cmd: vm set_con_tcp_port ESW1 2001 
Nov 27 16:24:47.008 HYPERVISOR: exec_cmd: vm set_aux_tcp_port ESW1 2501 
Nov 27 16:24:47.009 HYPERVISOR: exec_cmd: c3725 get_mac_addr ESW1 
Nov 27 16:24:47.010 HYPERVISOR: exec_cmd: vm set_nvram ESW1 256 
Nov 27 16:24:47.010 HYPERVISOR: exec_cmd: vm get_status ESW1 
Nov 27 16:24:47.011 HYPERVISOR: exec_cmd: vm set_idle_pc ESW1 0x6026b804 
Nov 27 16:24:47.011 HYPERVISOR: exec_cmd: c3725 set_mac_addr ESW1 c201.281a.0000 
Nov 27 16:24:47.011 HYPERVISOR: exec_cmd: vm get_status ESW1 
Nov 27 16:24:47.012 HYPERVISOR: exec_cmd: vm slot_add_binding ESW1 1 0 NM-16ESW 
Nov 27 16:24:47.012 HYPERVISOR: exec_cmd: vm set_disk0 ESW1 1 
Nov 27 16:24:47.012 HYPERVISOR: exec_cmd: vm set_ios ESW1 /media/actionmystique/SAMSUNG5-VMs/Images/GNS3/IOS/c3725-adventerprisek9-mz.124-15.T10.image 
Nov 27 16:24:47.013 HYPERVISOR: exec_cmd: vm slot_add_binding ESW1 0 16 WIC-2T 
Nov 27 16:24:47.013 HYPERVISOR: exec_cmd: vm set_config ESW1 configs/i1_startup-config.cfg 
Nov 27 16:24:47.014 HYPERVISOR: exec_cmd: vm set_config ESW1 configs/i1_startup-config.cfg configs/i1_private-config.cfg 
Nov 27 16:24:47.122 HYPERVISOR: exec_cmd: nio create_udp udp-38f16aaf-5bbe-4783-91fc-d387b4243b8f 15006 127.0.0.1 15005 
Nov 27 16:24:47.128 HYPERVISOR: exec_cmd: vm slot_add_nio_binding ESW1 1 0 udp-38f16aaf-5bbe-4783-91fc-d387b4243b8f 
Nov 27 16:24:47.128 HYPERVISOR: exec_cmd: vm get_status ESW1 
Nov 27 16:24:47.134 HYPERVISOR: exec_cmd: nio create_udp udp-d44bc3b9-bf17-4cc7-b13f-22f5e3767d07 15007 127.0.0.1 15004 
Nov 27 16:24:47.134 HYPERVISOR: exec_cmd: vm slot_add_nio_binding ESW1 1 1 udp-d44bc3b9-bf17-4cc7-b13f-22f5e3767d07 
Nov 27 16:24:47.135 HYPERVISOR: exec_cmd: vm get_status ESW1 
