Nov 27 16:18:51.776 HYPERVISOR: Release 0.2.17-amd64/Linux (tag 2017072410)
Nov 27 16:18:51.776 HYPERVISOR: Started on IP = 127.0.0.1, TCP port = 55381.
Nov 27 16:18:51.794 HYPERVISOR: exec_cmd: hypervisor version 
Nov 27 16:18:51.800 HYPERVISOR: exec_cmd: hypervisor working_dir /media/actionmystique/SAMSUNG5-VMs/Labs/GNS3/git-Public-Labs-Collection/CCNP/TBSHOOT/L3-Technologies/IPv4/High-Availability/GLBP/Jean-Christophe_Manciot/1+/TT 1-solutions-linux/project-files/dynamips 
Nov 27 16:18:51.800 GENERAL: working_dir=/media/actionmystique/SAMSUNG5-VMs/Labs/GNS3/git-Public-Labs-Collection/CCNP/TBSHOOT/L3-Technologies/IPv4/High-Availability/GLBP/Jean-Christophe_Manciot/1+/TT 1-solutions-linux/project-files/dynamips
Nov 27 16:18:51.801 HYPERVISOR: exec_cmd: vm create Core 4 c3725 
Nov 27 16:18:51.801 VM: VM Core created.
Nov 27 16:18:51.805 HYPERVISOR: exec_cmd: vm set_con_tcp_port Core 2005 
Nov 27 16:18:51.806 HYPERVISOR: exec_cmd: c3725 get_mac_addr Core 
Nov 27 16:18:51.807 HYPERVISOR: exec_cmd: vm set_ram Core 256 
Nov 27 16:18:51.807 HYPERVISOR: exec_cmd: vm set_nvram Core 256 
Nov 27 16:18:51.808 HYPERVISOR: exec_cmd: vm get_status Core 
Nov 27 16:18:51.809 HYPERVISOR: exec_cmd: vm set_idle_pc Core 0x6026b804 
Nov 27 16:18:51.810 HYPERVISOR: exec_cmd: c3725 set_mac_addr Core c204.0c3e.0000 
Nov 27 16:18:51.814 HYPERVISOR: exec_cmd: vm get_status Core 
Nov 27 16:18:51.814 HYPERVISOR: exec_cmd: vm slot_add_binding Core 1 0 NM-16ESW 
Nov 27 16:18:51.814 HYPERVISOR: exec_cmd: vm set_ios Core /media/actionmystique/SAMSUNG5-VMs/Images/GNS3/IOS/c3725-adventerprisek9-mz.124-15.T10.image 
Nov 27 16:18:51.815 HYPERVISOR: exec_cmd: vm slot_add_binding Core 0 16 WIC-2T 
Nov 27 16:18:51.815 HYPERVISOR: exec_cmd: vm set_disk0 Core 1 
Nov 27 16:18:51.816 HYPERVISOR: exec_cmd: vm set_config Core configs/i4_startup-config.cfg 
Nov 27 16:18:51.816 HYPERVISOR: exec_cmd: vm set_config Core configs/i4_startup-config.cfg configs/i4_private-config.cfg 
Nov 27 16:18:52.133 HYPERVISOR: exec_cmd: nio create_udp udp-4c64a88e-03f0-476a-8662-92d91ab78061 15013 127.0.0.1 15010 
Nov 27 16:18:52.133 HYPERVISOR: exec_cmd: vm slot_add_nio_binding Core 1 1 udp-4c64a88e-03f0-476a-8662-92d91ab78061 
Nov 27 16:18:52.134 HYPERVISOR: exec_cmd: vm get_status Core 
Nov 27 16:18:52.156 HYPERVISOR: exec_cmd: nio create_udp udp-232851b2-aa8f-4212-8691-42910fc23a12 15015 127.0.0.1 15014 
Nov 27 16:18:52.159 HYPERVISOR: exec_cmd: vm slot_add_nio_binding Core 1 0 udp-232851b2-aa8f-4212-8691-42910fc23a12 
Nov 27 16:18:52.160 HYPERVISOR: exec_cmd: vm get_status Core 
