Nov 27 16:18:51.754 HYPERVISOR: Release 0.2.17-amd64/Linux (tag 2017072410)
Nov 27 16:18:51.754 HYPERVISOR: Started on IP = 127.0.0.1, TCP port = 43675.
Nov 27 16:18:51.776 HYPERVISOR: exec_cmd: hypervisor version 
Nov 27 16:18:51.777 HYPERVISOR: exec_cmd: hypervisor working_dir /media/actionmystique/SAMSUNG5-VMs/Labs/GNS3/git-Public-Labs-Collection/CCNP/TBSHOOT/L3-Technologies/IPv4/High-Availability/GLBP/Jean-Christophe_Manciot/1+/TT 1-solutions-linux/project-files/dynamips 
Nov 27 16:18:51.777 GENERAL: working_dir=/media/actionmystique/SAMSUNG5-VMs/Labs/GNS3/git-Public-Labs-Collection/CCNP/TBSHOOT/L3-Technologies/IPv4/High-Availability/GLBP/Jean-Christophe_Manciot/1+/TT 1-solutions-linux/project-files/dynamips
Nov 27 16:18:51.778 HYPERVISOR: exec_cmd: vm create SW1 1 c3725 
Nov 27 16:18:51.778 VM: VM SW1 created.
Nov 27 16:18:51.778 HYPERVISOR: exec_cmd: vm set_con_tcp_port SW1 2001 
Nov 27 16:18:51.779 HYPERVISOR: exec_cmd: c3725 get_mac_addr SW1 
Nov 27 16:18:51.781 HYPERVISOR: exec_cmd: vm set_nvram SW1 256 
Nov 27 16:18:51.781 HYPERVISOR: exec_cmd: vm get_status SW1 
Nov 27 16:18:51.783 HYPERVISOR: exec_cmd: vm set_idle_pc SW1 0x6026b804 
Nov 27 16:18:51.784 HYPERVISOR: exec_cmd: c3725 set_mac_addr SW1 aaaa.aaaa.aaaa 
Nov 27 16:18:51.785 HYPERVISOR: exec_cmd: vm set_exec_area SW1 16 
Nov 27 16:18:51.786 HYPERVISOR: exec_cmd: vm get_status SW1 
Nov 27 16:18:51.786 HYPERVISOR: exec_cmd: vm slot_add_binding SW1 1 0 NM-16ESW 
Nov 27 16:18:51.788 HYPERVISOR: exec_cmd: vm set_ios SW1 /media/actionmystique/SAMSUNG5-VMs/Images/GNS3/IOS/c3725-adventerprisek9-mz.124-15.T10.image 
Nov 27 16:18:51.789 HYPERVISOR: exec_cmd: vm slot_add_binding SW1 0 16 WIC-2T 
Nov 27 16:18:51.791 HYPERVISOR: exec_cmd: vm set_disk0 SW1 1 
Nov 27 16:18:51.792 HYPERVISOR: exec_cmd: vm set_config SW1 configs/i1_startup-config.cfg 
Nov 27 16:18:51.794 HYPERVISOR: exec_cmd: vm set_config SW1 configs/i1_startup-config.cfg configs/i1_private-config.cfg 
Nov 27 16:18:52.003 HYPERVISOR: exec_cmd: nio create_udp udp-ee0a6aa8-f5be-444a-82cd-67586ccce570 15001 127.0.0.1 15002 
Nov 27 16:18:52.005 HYPERVISOR: exec_cmd: vm slot_add_nio_binding SW1 0 0 udp-ee0a6aa8-f5be-444a-82cd-67586ccce570 
Nov 27 16:18:52.006 HYPERVISOR: exec_cmd: vm get_status SW1 
Nov 27 16:18:52.015 HYPERVISOR: exec_cmd: nio create_udp udp-003e8431-c6c8-401b-aa3f-84306c5d8306 15004 127.0.0.1 15000 
Nov 27 16:18:52.016 HYPERVISOR: exec_cmd: vm slot_add_nio_binding SW1 1 5 udp-003e8431-c6c8-401b-aa3f-84306c5d8306 
Nov 27 16:18:52.017 HYPERVISOR: exec_cmd: vm get_status SW1 
Nov 27 16:18:52.085 HYPERVISOR: exec_cmd: nio create_udp udp-1920ce17-fc8c-4627-830e-7dbc813f2770 15008 127.0.0.1 15009 
Nov 27 16:18:52.086 HYPERVISOR: exec_cmd: vm slot_add_nio_binding SW1 1 1 udp-1920ce17-fc8c-4627-830e-7dbc813f2770 
Nov 27 16:18:52.086 HYPERVISOR: exec_cmd: vm get_status SW1 
Nov 27 16:18:52.153 HYPERVISOR: exec_cmd: nio create_udp udp-6ceb98c0-0fc1-4779-89a6-e39de4db58fc 15014 127.0.0.1 15015 
Nov 27 16:18:52.153 HYPERVISOR: exec_cmd: vm slot_add_nio_binding SW1 1 0 udp-6ceb98c0-0fc1-4779-89a6-e39de4db58fc 
Nov 27 16:18:52.154 HYPERVISOR: exec_cmd: vm get_status SW1 
