Aug 27 19:03:25.540 HYPERVISOR: Release 0.2.17-amd64/Linux (tag 2017072410)
Aug 27 19:03:25.540 HYPERVISOR: Started on IP = 127.0.0.1, TCP port = 50219.
Aug 27 19:03:25.557 HYPERVISOR: exec_cmd: hypervisor version 
Aug 27 19:03:25.558 HYPERVISOR: exec_cmd: hypervisor working_dir /media/actionmystique/SAMSUNG5-VMs/Labs/GNS3/git-Public-Labs-Collection/CCNP/ROUTE/EIGRP/Jean-Christophe_Manciot/1+/K2 Load Metric Weight with IOSv-linux/project-files/dynamips 
Aug 27 19:03:25.558 GENERAL: working_dir=/media/actionmystique/SAMSUNG5-VMs/Labs/GNS3/git-Public-Labs-Collection/CCNP/ROUTE/EIGRP/Jean-Christophe_Manciot/1+/K2 Load Metric Weight with IOSv-linux/project-files/dynamips
Aug 27 19:03:25.558 HYPERVISOR: exec_cmd: vm create SW0_Management 1 c3725 
Aug 27 19:03:25.558 VM: VM SW0_Management created.
Aug 27 19:03:25.559 HYPERVISOR: exec_cmd: vm set_con_tcp_port SW0_Management 2101 
Aug 27 19:03:25.559 HYPERVISOR: exec_cmd: vm set_aux_tcp_port SW0_Management 2501 
Aug 27 19:03:25.560 HYPERVISOR: exec_cmd: c3725 get_mac_addr SW0_Management 
Aug 27 19:03:25.561 HYPERVISOR: exec_cmd: vm get_status SW0_Management 
Aug 27 19:03:25.561 HYPERVISOR: exec_cmd: vm set_idle_pc SW0_Management 0x60503d74 
Aug 27 19:03:25.562 HYPERVISOR: exec_cmd: vm set_ram SW0_Management 256 
Aug 27 19:03:25.562 HYPERVISOR: exec_cmd: vm get_status SW0_Management 
Aug 27 19:03:25.563 HYPERVISOR: exec_cmd: vm slot_add_binding SW0_Management 1 0 NM-16ESW 
Aug 27 19:03:25.564 HYPERVISOR: exec_cmd: vm set_ios SW0_Management /media/actionmystique/SAMSUNG5-VMs/Images/GNS3/IOS/c3725-adventerprisek9-mz.124-15.T10.image 
Aug 27 19:03:25.565 HYPERVISOR: exec_cmd: c3725 set_mac_addr SW0_Management c201.2103.0000 
Aug 27 19:03:25.565 HYPERVISOR: exec_cmd: vm set_config SW0_Management configs/i1_startup-config.cfg 
Aug 27 19:03:25.697 HYPERVISOR: exec_cmd: nio create_udp udp-594a1458-8e50-485a-8323-d19c1f6c617a 15013 127.0.0.1 15012 
Aug 27 19:03:25.703 HYPERVISOR: exec_cmd: vm slot_add_nio_binding SW0_Management 1 1 udp-594a1458-8e50-485a-8323-d19c1f6c617a 
Aug 27 19:03:25.704 HYPERVISOR: exec_cmd: vm get_status SW0_Management 
Aug 27 19:03:25.736 HYPERVISOR: exec_cmd: nio create_udp udp-2ffcb726-5ee6-4d2c-b71e-d8fba82bf7d6 15014 127.0.0.1 15015 
Aug 27 19:03:25.748 HYPERVISOR: exec_cmd: vm slot_add_nio_binding SW0_Management 1 0 udp-2ffcb726-5ee6-4d2c-b71e-d8fba82bf7d6 
Aug 27 19:03:25.753 HYPERVISOR: exec_cmd: vm get_status SW0_Management 
Aug 27 19:03:47.990 HYPERVISOR: exec_cmd: vm get_status SW0_Management 
Aug 27 19:03:47.991 HYPERVISOR: exec_cmd: vm extract_config SW0_Management 
Aug 27 19:03:47.995 HYPERVISOR: exec_cmd: vm delete SW0_Management 
Aug 27 19:03:47.995 VM: VM SW0_Management destroyed.
Aug 27 19:03:47.996 HYPERVISOR: exec_cmd: hypervisor stop 
Aug 27 19:03:48.078 HYPERVISOR: Stopped.
Aug 27 19:03:48.078 GENERAL: reset done.
