Aug 27 19:03:25.543 HYPERVISOR: Release 0.2.17-amd64/Linux (tag 2017072410)
Aug 27 19:03:25.543 HYPERVISOR: Started on IP = 127.0.0.1, TCP port = 57777.
Aug 27 19:03:25.557 HYPERVISOR: exec_cmd: hypervisor version 
Aug 27 19:03:25.558 HYPERVISOR: exec_cmd: hypervisor working_dir /media/actionmystique/SAMSUNG5-VMs/Labs/GNS3/git-Public-Labs-Collection/CCNP/ROUTE/EIGRP/Jean-Christophe_Manciot/1+/K2 Load Metric Weight with IOSv-linux/project-files/dynamips 
Aug 27 19:03:25.558 GENERAL: working_dir=/media/actionmystique/SAMSUNG5-VMs/Labs/GNS3/git-Public-Labs-Collection/CCNP/ROUTE/EIGRP/Jean-Christophe_Manciot/1+/K2 Load Metric Weight with IOSv-linux/project-files/dynamips
Aug 27 19:03:25.558 HYPERVISOR: exec_cmd: vm create SW1_Management 2 c3725 
Aug 27 19:03:25.558 VM: VM SW1_Management created.
Aug 27 19:03:25.559 HYPERVISOR: exec_cmd: vm set_con_tcp_port SW1_Management 2001 
Aug 27 19:03:25.560 HYPERVISOR: exec_cmd: vm set_aux_tcp_port SW1_Management 2102 
Aug 27 19:03:25.560 HYPERVISOR: exec_cmd: c3725 get_mac_addr SW1_Management 
Aug 27 19:03:25.561 HYPERVISOR: exec_cmd: vm get_status SW1_Management 
Aug 27 19:03:25.561 HYPERVISOR: exec_cmd: vm set_idle_pc SW1_Management 0x6026b804 
Aug 27 19:03:25.562 HYPERVISOR: exec_cmd: vm set_ram SW1_Management 256 
Aug 27 19:03:25.563 HYPERVISOR: exec_cmd: vm get_status SW1_Management 
Aug 27 19:03:25.563 HYPERVISOR: exec_cmd: vm slot_add_binding SW1_Management 1 0 NM-16ESW 
Aug 27 19:03:25.564 HYPERVISOR: exec_cmd: vm set_ios SW1_Management /media/actionmystique/SAMSUNG5-VMs/Images/GNS3/IOS/c3725-adventerprisek9-mz.124-15.T10.image 
Aug 27 19:03:25.565 HYPERVISOR: exec_cmd: c3725 set_mac_addr SW1_Management c202.2115.0000 
Aug 27 19:03:25.566 HYPERVISOR: exec_cmd: vm set_config SW1_Management configs/i2_startup-config.cfg 
Aug 27 19:03:25.752 HYPERVISOR: exec_cmd: nio create_udp udp-d745c13c-65cc-4a05-9bac-0786e2ac42a8 15016 127.0.0.1 15017 
Aug 27 19:03:25.761 HYPERVISOR: exec_cmd: vm slot_add_nio_binding SW1_Management 1 2 udp-d745c13c-65cc-4a05-9bac-0786e2ac42a8 
Aug 27 19:03:25.764 HYPERVISOR: exec_cmd: vm get_status SW1_Management 
Aug 27 19:03:25.786 HYPERVISOR: exec_cmd: nio create_udp udp-831ca57b-4199-47f0-8bee-7dcfdca25d8d 15019 127.0.0.1 15018 
Aug 27 19:03:25.787 HYPERVISOR: exec_cmd: vm slot_add_nio_binding SW1_Management 1 0 udp-831ca57b-4199-47f0-8bee-7dcfdca25d8d 
Aug 27 19:03:25.787 HYPERVISOR: exec_cmd: vm get_status SW1_Management 
Aug 27 19:03:47.989 HYPERVISOR: exec_cmd: vm get_status SW1_Management 
Aug 27 19:03:47.991 HYPERVISOR: exec_cmd: vm extract_config SW1_Management 
Aug 27 19:03:47.994 HYPERVISOR: exec_cmd: vm delete SW1_Management 
Aug 27 19:03:47.994 VM: VM SW1_Management destroyed.
Aug 27 19:03:47.995 HYPERVISOR: exec_cmd: hypervisor stop 
Aug 27 19:03:48.080 HYPERVISOR: Stopped.
Aug 27 19:03:48.080 GENERAL: reset done.
