Nov 26 21:54:02.856 HYPERVISOR: Release 0.2.17-amd64/Linux (tag 2017072410)
Nov 26 21:54:02.856 HYPERVISOR: Started on IP = 127.0.0.1, TCP port = 56041.
Nov 26 21:54:02.878 HYPERVISOR: exec_cmd: hypervisor version 
Nov 26 21:54:02.880 HYPERVISOR: exec_cmd: hypervisor working_dir /media/actionmystique/SAMSUNG5-VMs/Labs/GNS3/git-Public-Labs-Collection/CCNP/TBSHOOT/Exam-Topology/Jean-Christophe_Manciot/1+/v1-linux/project-files/dynamips 
Nov 26 21:54:02.880 GENERAL: working_dir=/media/actionmystique/SAMSUNG5-VMs/Labs/GNS3/git-Public-Labs-Collection/CCNP/TBSHOOT/Exam-Topology/Jean-Christophe_Manciot/1+/v1-linux/project-files/dynamips
Nov 26 21:54:02.882 HYPERVISOR: exec_cmd: vm create R4 8 c7200 
Nov 26 21:54:02.882 VM: VM R4 created.
Nov 26 21:54:02.883 HYPERVISOR: exec_cmd: vm set_con_tcp_port R4 2003 
Nov 26 21:54:02.885 HYPERVISOR: exec_cmd: c7200 get_mac_addr R4 
Nov 26 21:54:02.887 HYPERVISOR: exec_cmd: vm get_status R4 
Nov 26 21:54:02.888 HYPERVISOR: exec_cmd: vm slot_add_binding R4 0 0 C7200-IO-FE 
Nov 26 21:54:02.890 HYPERVISOR: exec_cmd: vm get_status R4 
Nov 26 21:54:02.891 HYPERVISOR: exec_cmd: vm slot_add_binding R4 2 0 PA-GE 
Nov 26 21:54:02.893 HYPERVISOR: exec_cmd: vm get_status R4 
Nov 26 21:54:02.894 HYPERVISOR: exec_cmd: vm set_idle_pc R4 0x6062f0e0 
Nov 26 21:54:02.896 HYPERVISOR: exec_cmd: vm get_status R4 
Nov 26 21:54:02.902 HYPERVISOR: exec_cmd: vm slot_add_binding R4 1 0 PA-GE 
Nov 26 21:54:02.912 HYPERVISOR: exec_cmd: vm set_nvram R4 256 
Nov 26 21:54:02.914 HYPERVISOR: exec_cmd: vm get_status R4 
Nov 26 21:54:02.917 HYPERVISOR: exec_cmd: vm slot_add_binding R4 3 0 PA-GE 
Nov 26 21:54:02.919 HYPERVISOR: exec_cmd: vm get_status R4 
Nov 26 21:54:02.921 HYPERVISOR: exec_cmd: vm slot_remove_binding R4 0 0 
Nov 26 21:54:02.924 HYPERVISOR: exec_cmd: vm get_status R4 
Nov 26 21:54:02.926 HYPERVISOR: exec_cmd: vm slot_add_binding R4 0 0 C7200-IO-GE-E 
Nov 26 21:54:02.936 HYPERVISOR: exec_cmd: vm set_disk0 R4 1 
Nov 26 21:54:02.942 HYPERVISOR: exec_cmd: vm get_status R4 
Nov 26 21:54:02.956 HYPERVISOR: exec_cmd: vm slot_add_binding R4 4 0 PA-4T+ 
Nov 26 21:54:02.970 HYPERVISOR: exec_cmd: vm set_ram R4 512 
Nov 26 21:54:02.972 HYPERVISOR: exec_cmd: vm get_status R4 
Nov 26 21:54:02.974 HYPERVISOR: exec_cmd: vm slot_add_binding R4 6 0 PA-POS-OC3 
Nov 26 21:54:02.977 HYPERVISOR: exec_cmd: vm get_status R4 
Nov 26 21:54:02.979 HYPERVISOR: exec_cmd: vm slot_add_binding R4 5 0 PA-POS-OC3 
Nov 26 21:54:02.980 HYPERVISOR: exec_cmd: c7200 set_mac_addr R4 ca08.2e77.0000 
Nov 26 21:54:02.987 HYPERVISOR: exec_cmd: vm set_ios R4 /media/actionmystique/SAMSUNG5-VMs/Images/GNS3/IOS/c7200-adventerprisek9-mz.152-4.M2.image 
Nov 26 21:54:02.989 HYPERVISOR: exec_cmd: vm set_config R4 configs/i8_startup-config.cfg 
Nov 26 21:54:02.990 HYPERVISOR: exec_cmd: vm set_config R4 configs/i8_startup-config.cfg configs/i8_private-config.cfg 
Nov 26 21:54:03.865 HYPERVISOR: exec_cmd: nio create_udp udp-7d11b15d-293e-45c7-aa59-535165837c3f 15018 127.0.0.1 15019 
Nov 26 21:54:03.865 HYPERVISOR: exec_cmd: vm slot_add_nio_binding R4 0 0 udp-7d11b15d-293e-45c7-aa59-535165837c3f 
Nov 26 21:54:03.866 HYPERVISOR: exec_cmd: vm get_status R4 
Nov 26 21:54:03.886 HYPERVISOR: exec_cmd: nio create_udp udp-7d4a8316-fb8e-42f6-a445-7d3ab5bb3b3d 15020 127.0.0.1 15022 
Nov 26 21:54:03.889 HYPERVISOR: exec_cmd: vm slot_add_nio_binding R4 1 0 udp-7d4a8316-fb8e-42f6-a445-7d3ab5bb3b3d 
Nov 26 21:54:03.889 HYPERVISOR: exec_cmd: vm get_status R4 
Nov 26 21:54:03.945 HYPERVISOR: exec_cmd: nio create_udp udp-b07b0648-e0c9-4b14-a5bf-189821742931 15024 127.0.0.1 15027 
Nov 26 21:54:03.945 HYPERVISOR: exec_cmd: vm slot_add_nio_binding R4 4 0 udp-b07b0648-e0c9-4b14-a5bf-189821742931 
Nov 26 21:54:03.945 HYPERVISOR: exec_cmd: vm get_status R4 
Nov 26 21:55:05.517 HYPERVISOR: exec_cmd: vm extract_config R4 
