Nov 26 22:31:47.728 HYPERVISOR: Release 0.2.17-amd64/Linux (tag 2017072410)
Nov 26 22:31:47.728 HYPERVISOR: Started on IP = 127.0.0.1, TCP port = 51289.
Nov 26 22:31:47.735 HYPERVISOR: exec_cmd: hypervisor version 
Nov 26 22:31:47.736 HYPERVISOR: exec_cmd: hypervisor working_dir /media/actionmystique/SAMSUNG5-VMs/Labs/GNS3/git-Public-Labs-Collection/CCNP/TBSHOOT/Infrastructure-Services/NTP/Jean-Christophe_Manciot/1+/TT 1-linux/project-files/dynamips 
Nov 26 22:31:47.736 GENERAL: working_dir=/media/actionmystique/SAMSUNG5-VMs/Labs/GNS3/git-Public-Labs-Collection/CCNP/TBSHOOT/Infrastructure-Services/NTP/Jean-Christophe_Manciot/1+/TT 1-linux/project-files/dynamips
Nov 26 22:31:47.736 HYPERVISOR: exec_cmd: vm create ESW1 1 c3725 
Nov 26 22:31:47.736 VM: VM ESW1 created.
Nov 26 22:31:47.736 HYPERVISOR: exec_cmd: vm set_con_tcp_port ESW1 2004 
Nov 26 22:31:47.737 HYPERVISOR: exec_cmd: c3725 get_mac_addr ESW1 
Nov 26 22:31:47.737 HYPERVISOR: exec_cmd: vm slot_add_binding ESW1 0 16 WIC-2T 
Nov 26 22:31:47.738 HYPERVISOR: exec_cmd: vm get_status ESW1 
Nov 26 22:31:47.738 HYPERVISOR: exec_cmd: vm set_idle_pc ESW1 0x614ac27c 
Nov 26 22:31:47.738 HYPERVISOR: exec_cmd: vm set_nvram ESW1 256 
Nov 26 22:31:47.739 HYPERVISOR: exec_cmd: vm get_status ESW1 
Nov 26 22:31:47.739 HYPERVISOR: exec_cmd: vm slot_add_binding ESW1 1 0 NM-16ESW 
Nov 26 22:31:47.739 HYPERVISOR: exec_cmd: vm set_ios ESW1 /media/actionmystique/SAMSUNG5-VMs/Images/GNS3/IOS/c3725-adventerprisek9-mz.124-15.T10.image 
Nov 26 22:31:47.740 HYPERVISOR: exec_cmd: vm set_disk0 ESW1 1 
Nov 26 22:31:47.740 HYPERVISOR: exec_cmd: c3725 set_mac_addr ESW1 c201.7005.0000 
Nov 26 22:31:47.741 HYPERVISOR: exec_cmd: vm set_config ESW1 configs/i1_startup-config.cfg 
Nov 26 22:31:47.743 HYPERVISOR: exec_cmd: vm set_config ESW1 configs/i1_startup-config.cfg configs/i1_private-config.cfg 
Nov 26 22:31:47.853 HYPERVISOR: exec_cmd: nio create_udp udp-db00fc13-2d33-4675-8aa8-2a542e192735 15005 127.0.0.1 15004 
Nov 26 22:31:47.859 HYPERVISOR: exec_cmd: vm slot_add_nio_binding ESW1 1 0 udp-db00fc13-2d33-4675-8aa8-2a542e192735 
Nov 26 22:31:47.859 HYPERVISOR: exec_cmd: vm get_status ESW1 
Nov 26 22:31:57.808 HYPERVISOR: exec_cmd: nio create_gen_eth generic_ethernet-ae224a75-14c7-4c56-a15e-ff2f3a23c721 enp3s0 
Nov 26 22:31:57.846 HYPERVISOR: exec_cmd: vm slot_add_nio_binding ESW1 1 2 generic_ethernet-ae224a75-14c7-4c56-a15e-ff2f3a23c721 
Nov 26 22:31:57.846 HYPERVISOR: exec_cmd: vm get_status ESW1 
Nov 26 22:34:36.120 HYPERVISOR: exec_cmd: vm extract_config ESW1 
Nov 26 22:34:41.060 HYPERVISOR: exec_cmd: vm get_status ESW1 
Nov 26 22:34:41.061 HYPERVISOR: exec_cmd: vm extract_config ESW1 
Nov 26 22:34:41.061 HYPERVISOR: exec_cmd: vm delete ESW1 
Nov 26 22:34:41.061 VM: VM ESW1 destroyed.
Nov 26 22:34:41.062 HYPERVISOR: exec_cmd: hypervisor stop 
Nov 26 22:34:41.429 HYPERVISOR: Stopped.
Nov 26 22:34:41.469 GENERAL: reset done.
