Nov 26 21:57:05.528 HYPERVISOR: Release 0.2.17-amd64/Linux (tag 2017072410)
Nov 26 21:57:05.528 HYPERVISOR: Started on IP = 127.0.0.1, TCP port = 52967.
Nov 26 21:57:05.548 HYPERVISOR: exec_cmd: hypervisor version 
Nov 26 21:57:05.549 HYPERVISOR: exec_cmd: hypervisor working_dir /media/actionmystique/SAMSUNG5-VMs/Labs/GNS3/v2-linux-/project-files/dynamips 
Nov 26 21:57:05.549 GENERAL: working_dir=/media/actionmystique/SAMSUNG5-VMs/Labs/GNS3/v2-linux-/project-files/dynamips
Nov 26 21:57:05.550 HYPERVISOR: exec_cmd: vm create POP 10 c3725 
Nov 26 21:57:05.550 VM: VM POP created.
Nov 26 21:57:05.551 HYPERVISOR: exec_cmd: vm set_con_tcp_port POP 2017 
Nov 26 21:57:05.552 HYPERVISOR: exec_cmd: c3725 get_mac_addr POP 
Nov 26 21:57:05.552 HYPERVISOR: exec_cmd: vm slot_add_binding POP 0 16 WIC-2T 
Nov 26 21:57:05.553 HYPERVISOR: exec_cmd: vm get_status POP 
Nov 26 21:57:05.554 HYPERVISOR: exec_cmd: vm set_idle_pc POP 0x6026b804 
Nov 26 21:57:05.555 HYPERVISOR: exec_cmd: vm set_nvram POP 256 
Nov 26 21:57:05.555 HYPERVISOR: exec_cmd: vm get_status POP 
Nov 26 21:57:05.556 HYPERVISOR: exec_cmd: vm slot_add_binding POP 1 0 NM-16ESW 
Nov 26 21:57:05.557 HYPERVISOR: exec_cmd: vm set_ios POP /media/actionmystique/SAMSUNG5-VMs/Images/GNS3/IOS/c3725-adventerprisek9-mz.124-15.T10.image 
Nov 26 21:57:05.558 HYPERVISOR: exec_cmd: vm set_disk0 POP 1 
Nov 26 21:57:05.560 HYPERVISOR: exec_cmd: c3725 set_mac_addr POP c20a.12bf.0000 
Nov 26 21:57:05.562 HYPERVISOR: exec_cmd: vm set_config POP configs/i10_startup-config.cfg 
Nov 26 21:57:05.563 HYPERVISOR: exec_cmd: vm set_config POP configs/i10_startup-config.cfg configs/i10_private-config.cfg 
Nov 26 21:57:06.593 HYPERVISOR: exec_cmd: nio create_udp udp-ccd318bc-9828-49ea-9b2b-214cd95b545b 15047 127.0.0.1 15046 
Nov 26 21:57:06.593 HYPERVISOR: exec_cmd: vm slot_add_nio_binding POP 1 4 udp-ccd318bc-9828-49ea-9b2b-214cd95b545b 
Nov 26 21:57:06.593 HYPERVISOR: exec_cmd: vm get_status POP 
Nov 26 21:57:06.600 HYPERVISOR: exec_cmd: nio create_udp udp-251fc943-ca0a-4818-ba57-fbda387e5c69 15049 127.0.0.1 15048 
Nov 26 21:57:06.601 HYPERVISOR: exec_cmd: vm slot_add_nio_binding POP 1 2 udp-251fc943-ca0a-4818-ba57-fbda387e5c69 
Nov 26 21:57:06.601 HYPERVISOR: exec_cmd: vm get_status POP 
Nov 26 21:57:06.648 HYPERVISOR: exec_cmd: nio create_udp udp-d936cd13-7b27-40c4-8638-a7594da3a9e0 15051 127.0.0.1 15050 
Nov 26 21:57:06.649 HYPERVISOR: exec_cmd: vm slot_add_nio_binding POP 1 1 udp-d936cd13-7b27-40c4-8638-a7594da3a9e0 
Nov 26 21:57:06.649 HYPERVISOR: exec_cmd: vm get_status POP 
Nov 26 21:57:06.661 HYPERVISOR: exec_cmd: nio create_udp udp-02c7a92f-cc39-4b82-9a49-5f53df72dbc0 15052 127.0.0.1 15053 
Nov 26 21:57:06.662 HYPERVISOR: exec_cmd: vm slot_add_nio_binding POP 1 3 udp-02c7a92f-cc39-4b82-9a49-5f53df72dbc0 
Nov 26 21:57:06.662 HYPERVISOR: exec_cmd: vm get_status POP 
Nov 26 21:57:33.015 HYPERVISOR: exec_cmd: vm get_status POP 
Nov 26 21:57:33.018 HYPERVISOR: exec_cmd: vm extract_config POP 
Nov 26 21:57:33.020 HYPERVISOR: exec_cmd: vm delete POP 
Nov 26 21:57:33.020 VM: VM POP destroyed.
Nov 26 21:57:33.024 HYPERVISOR: exec_cmd: hypervisor stop 
Nov 26 21:57:33.075 HYPERVISOR: Stopped.
Nov 26 21:57:33.075 GENERAL: reset done.
