Nov 29 19:03:53.140 HYPERVISOR: Release 0.2.17-amd64/Linux (tag 2017072410)
Nov 29 19:03:53.140 HYPERVISOR: Started on IP = 127.0.0.1, TCP port = 47447.
Nov 29 19:03:53.146 HYPERVISOR: exec_cmd: hypervisor version 
Nov 29 19:03:53.149 HYPERVISOR: exec_cmd: hypervisor working_dir /media/actionmystique/SAMSUNG5-VMs/Labs/GNS3/git-Public-Labs-Collection/CCNP/TBSHOOT/L3-Technologies/IPv6/Routing-Protocols/EIGRPv6/Jean-Christophe_Manciot/1+/TT 1-solutions-linux/project-files/dynamips 
Nov 29 19:03:53.149 GENERAL: working_dir=/media/actionmystique/SAMSUNG5-VMs/Labs/GNS3/git-Public-Labs-Collection/CCNP/TBSHOOT/L3-Technologies/IPv6/Routing-Protocols/EIGRPv6/Jean-Christophe_Manciot/1+/TT 1-solutions-linux/project-files/dynamips
Nov 29 19:03:53.154 HYPERVISOR: exec_cmd: vm create ESW3 3 c3725 
Nov 29 19:03:53.154 VM: VM ESW3 created.
Nov 29 19:03:53.156 HYPERVISOR: exec_cmd: vm set_con_tcp_port ESW3 2006 
Nov 29 19:03:53.157 HYPERVISOR: exec_cmd: c3725 get_mac_addr ESW3 
Nov 29 19:03:53.159 HYPERVISOR: exec_cmd: vm slot_add_binding ESW3 0 16 WIC-2T 
Nov 29 19:03:53.161 HYPERVISOR: exec_cmd: vm set_ios ESW3 /media/actionmystique/SAMSUNG5-VMs/Images/GNS3/IOS/c3725-adventerprisek9-mz.124-15.T10.image 
Nov 29 19:03:53.162 HYPERVISOR: exec_cmd: vm get_status ESW3 
Nov 29 19:03:53.163 HYPERVISOR: exec_cmd: vm set_idle_pc ESW3 0x60c06d20 
Nov 29 19:03:53.165 HYPERVISOR: exec_cmd: vm get_status ESW3 
Nov 29 19:03:53.166 HYPERVISOR: exec_cmd: vm slot_add_binding ESW3 1 0 NM-16ESW 
Nov 29 19:03:53.167 HYPERVISOR: exec_cmd: c3725 set_mac_addr ESW3 c203.1bfb.0000 
Nov 29 19:03:53.168 HYPERVISOR: exec_cmd: vm set_disk0 ESW3 1 
Nov 29 19:03:53.169 HYPERVISOR: exec_cmd: vm set_nvram ESW3 256 
Nov 29 19:03:53.170 HYPERVISOR: exec_cmd: vm set_config ESW3 configs/ios_base_startup-config.txt 
Nov 29 19:04:01.341 HYPERVISOR: exec_cmd: vm get_status ESW3 
Nov 29 19:04:01.342 HYPERVISOR: exec_cmd: vm extract_config ESW3 
Nov 29 19:04:01.344 HYPERVISOR: exec_cmd: vm delete ESW3 
Nov 29 19:04:01.344 VM: VM ESW3 destroyed.
Nov 29 19:04:01.345 HYPERVISOR: exec_cmd: hypervisor stop 
Nov 29 19:04:01.649 HYPERVISOR: Stopped.
Nov 29 19:04:01.649 GENERAL: reset done.
