Nov 27 15:45:28.734 HYPERVISOR: Release 0.2.17-amd64/Linux (tag 2017072410)
Nov 27 15:45:28.734 HYPERVISOR: Started on IP = 127.0.0.1, TCP port = 35259.
Nov 27 15:45:28.760 HYPERVISOR: exec_cmd: hypervisor version 
Nov 27 15:45:28.761 HYPERVISOR: exec_cmd: hypervisor working_dir /media/actionmystique/SAMSUNG5-VMs/Labs/GNS3/TT 1-solutions-linux-/project-files/dynamips 
Nov 27 15:45:28.761 GENERAL: working_dir=/media/actionmystique/SAMSUNG5-VMs/Labs/GNS3/TT 1-solutions-linux-/project-files/dynamips
Nov 27 15:45:28.762 HYPERVISOR: exec_cmd: vm create SW2 2 c3725 
Nov 27 15:45:28.762 VM: VM SW2 created.
Nov 27 15:45:28.763 HYPERVISOR: exec_cmd: vm set_con_tcp_port SW2 2002 
Nov 27 15:45:28.764 HYPERVISOR: exec_cmd: c3725 get_mac_addr SW2 
Nov 27 15:45:28.765 HYPERVISOR: exec_cmd: c3725 set_mac_addr SW2 eeee.eeee.eeee 
Nov 27 15:45:28.766 HYPERVISOR: exec_cmd: vm get_status SW2 
Nov 27 15:45:28.767 HYPERVISOR: exec_cmd: vm slot_add_binding SW2 1 0 NM-16ESW 
Nov 27 15:45:28.768 HYPERVISOR: exec_cmd: vm get_status SW2 
Nov 27 15:45:28.769 HYPERVISOR: exec_cmd: vm set_idle_pc SW2 0x60c05928 
Nov 27 15:45:28.769 HYPERVISOR: exec_cmd: vm slot_add_binding SW2 0 16 WIC-2T 
Nov 27 15:45:28.771 HYPERVISOR: exec_cmd: vm set_ios SW2 /media/actionmystique/SAMSUNG5-VMs/Images/GNS3/IOS/c3725-adventerprisek9-mz.124-15.T10.image 
Nov 27 15:45:28.772 HYPERVISOR: exec_cmd: vm set_exec_area SW2 16 
Nov 27 15:45:28.773 HYPERVISOR: exec_cmd: vm set_disk0 SW2 1 
Nov 27 15:45:28.774 HYPERVISOR: exec_cmd: vm set_nvram SW2 256 
Nov 27 15:45:28.775 HYPERVISOR: exec_cmd: vm set_config SW2 configs/i2_startup-config.cfg 
Nov 27 15:45:28.776 HYPERVISOR: exec_cmd: vm set_config SW2 configs/i2_startup-config.cfg configs/i2_private-config.cfg 
Nov 27 15:45:28.957 HYPERVISOR: exec_cmd: nio create_udp udp-e5a27aa8-6c37-4e5f-a3d8-0be7613904c1 15002 127.0.0.1 15001 
Nov 27 15:45:28.957 HYPERVISOR: exec_cmd: vm slot_add_nio_binding SW2 1 2 udp-e5a27aa8-6c37-4e5f-a3d8-0be7613904c1 
Nov 27 15:45:28.958 HYPERVISOR: exec_cmd: vm get_status SW2 
Nov 27 15:45:28.968 HYPERVISOR: exec_cmd: nio create_udp udp-743b6adf-0548-4708-a887-6f4d4497bcba 15003 127.0.0.1 15000 
Nov 27 15:45:28.972 HYPERVISOR: exec_cmd: vm slot_add_nio_binding SW2 1 0 udp-743b6adf-0548-4708-a887-6f4d4497bcba 
Nov 27 15:45:28.973 HYPERVISOR: exec_cmd: vm get_status SW2 
Nov 27 15:45:29.024 HYPERVISOR: exec_cmd: nio create_udp udp-5fae0186-c6b0-4bfb-8e92-440749a096d8 15009 127.0.0.1 15007 
Nov 27 15:45:29.026 HYPERVISOR: exec_cmd: vm slot_add_nio_binding SW2 1 1 udp-5fae0186-c6b0-4bfb-8e92-440749a096d8 
Nov 27 15:45:29.029 HYPERVISOR: exec_cmd: vm get_status SW2 
Nov 27 15:45:56.980 HYPERVISOR: exec_cmd: vm get_status SW2 
Nov 27 15:45:56.981 HYPERVISOR: exec_cmd: vm extract_config SW2 
Nov 27 15:45:56.984 HYPERVISOR: exec_cmd: vm delete SW2 
Nov 27 15:45:56.984 VM: VM SW2 destroyed.
Nov 27 15:45:56.985 HYPERVISOR: exec_cmd: hypervisor stop 
Nov 27 15:45:57.288 HYPERVISOR: Stopped.
Nov 27 15:45:57.288 GENERAL: reset done.
