Nov 27 15:45:28.728 HYPERVISOR: Release 0.2.17-amd64/Linux (tag 2017072410)
Nov 27 15:45:28.728 HYPERVISOR: Started on IP = 127.0.0.1, TCP port = 52389.
Nov 27 15:45:28.760 HYPERVISOR: exec_cmd: hypervisor version 
Nov 27 15:45:28.761 HYPERVISOR: exec_cmd: hypervisor working_dir /media/actionmystique/SAMSUNG5-VMs/Labs/GNS3/TT 1-solutions-linux-/project-files/dynamips 
Nov 27 15:45:28.761 GENERAL: working_dir=/media/actionmystique/SAMSUNG5-VMs/Labs/GNS3/TT 1-solutions-linux-/project-files/dynamips
Nov 27 15:45:28.762 HYPERVISOR: exec_cmd: vm create SW3 3 c3725 
Nov 27 15:45:28.762 VM: VM SW3 created.
Nov 27 15:45:28.763 HYPERVISOR: exec_cmd: vm set_con_tcp_port SW3 2003 
Nov 27 15:45:28.764 HYPERVISOR: exec_cmd: c3725 get_mac_addr SW3 
Nov 27 15:45:28.765 HYPERVISOR: exec_cmd: c3725 set_mac_addr SW3 cccc.cccc.cccc 
Nov 27 15:45:28.765 HYPERVISOR: exec_cmd: vm get_status SW3 
Nov 27 15:45:28.766 HYPERVISOR: exec_cmd: vm slot_add_binding SW3 1 0 NM-16ESW 
Nov 27 15:45:28.767 HYPERVISOR: exec_cmd: vm get_status SW3 
Nov 27 15:45:28.768 HYPERVISOR: exec_cmd: vm set_idle_pc SW3 0x60c05928 
Nov 27 15:45:28.769 HYPERVISOR: exec_cmd: vm slot_add_binding SW3 0 16 WIC-2T 
Nov 27 15:45:28.770 HYPERVISOR: exec_cmd: vm set_ios SW3 /media/actionmystique/SAMSUNG5-VMs/Images/GNS3/IOS/c3725-adventerprisek9-mz.124-15.T10.image 
Nov 27 15:45:28.771 HYPERVISOR: exec_cmd: vm set_exec_area SW3 16 
Nov 27 15:45:28.772 HYPERVISOR: exec_cmd: vm set_disk0 SW3 1 
Nov 27 15:45:28.773 HYPERVISOR: exec_cmd: vm set_nvram SW3 256 
Nov 27 15:45:28.775 HYPERVISOR: exec_cmd: vm set_config SW3 configs/i3_startup-config.cfg 
Nov 27 15:45:28.776 HYPERVISOR: exec_cmd: vm set_config SW3 configs/i3_startup-config.cfg configs/i3_private-config.cfg 
Nov 27 15:45:28.867 HYPERVISOR: exec_cmd: nio create_null null-198fa65f-687d-470b-b4c1-8bcb61c039b1 
Nov 27 15:45:28.868 HYPERVISOR: exec_cmd: vm slot_add_nio_binding SW3 1 0 null-198fa65f-687d-470b-b4c1-8bcb61c039b1 
Nov 27 15:45:28.869 HYPERVISOR: exec_cmd: vm get_status SW3 
Nov 27 15:45:28.929 HYPERVISOR: exec_cmd: nio create_udp udp-b17a6eac-5154-434d-be89-0c8d03f2c499 15001 127.0.0.1 15002 
Nov 27 15:45:28.929 HYPERVISOR: exec_cmd: vm slot_add_nio_binding SW3 1 2 udp-b17a6eac-5154-434d-be89-0c8d03f2c499 
Nov 27 15:45:28.930 HYPERVISOR: exec_cmd: vm get_status SW3 
Nov 27 15:45:28.982 HYPERVISOR: exec_cmd: nio create_udp udp-fb5a6045-9fc9-402f-9584-83487e0082f7 15004 127.0.0.1 15005 
Nov 27 15:45:28.984 HYPERVISOR: exec_cmd: vm slot_add_nio_binding SW3 1 5 udp-fb5a6045-9fc9-402f-9584-83487e0082f7 
Nov 27 15:45:28.984 HYPERVISOR: exec_cmd: vm get_status SW3 
Nov 27 15:45:29.009 HYPERVISOR: exec_cmd: nio create_udp udp-665cba22-b07d-489a-80be-a809119a27bc 15008 127.0.0.1 15006 
Nov 27 15:45:29.012 HYPERVISOR: exec_cmd: vm slot_add_nio_binding SW3 1 6 udp-665cba22-b07d-489a-80be-a809119a27bc 
Nov 27 15:45:29.013 HYPERVISOR: exec_cmd: vm get_status SW3 
Nov 27 15:45:56.980 HYPERVISOR: exec_cmd: vm get_status SW3 
Nov 27 15:45:56.981 HYPERVISOR: exec_cmd: vm extract_config SW3 
Nov 27 15:45:56.985 HYPERVISOR: exec_cmd: vm delete SW3 
Nov 27 15:45:56.985 VM: VM SW3 destroyed.
Nov 27 15:45:56.986 HYPERVISOR: exec_cmd: hypervisor stop 
Nov 27 15:45:57.288 HYPERVISOR: Stopped.
Nov 27 15:45:57.288 GENERAL: reset done.
