Nov 27 16:15:22.000 HYPERVISOR: Release 0.2.17-amd64/Linux (tag 2017072410)
Nov 27 16:15:22.000 HYPERVISOR: Started on IP = 127.0.0.1, TCP port = 60519.
Nov 27 16:15:22.011 HYPERVISOR: exec_cmd: hypervisor version 
Nov 27 16:15:22.011 HYPERVISOR: exec_cmd: hypervisor working_dir /media/actionmystique/SAMSUNG5-VMs/Labs/GNS3/git-Public-Labs-Collection/CCNP/TBSHOOT/L2-Technologies/STP/Jean-Christophe_Manciot/1+/TT 3-linux/project-files/dynamips 
Nov 27 16:15:22.011 GENERAL: working_dir=/media/actionmystique/SAMSUNG5-VMs/Labs/GNS3/git-Public-Labs-Collection/CCNP/TBSHOOT/L2-Technologies/STP/Jean-Christophe_Manciot/1+/TT 3-linux/project-files/dynamips
Nov 27 16:15:22.012 HYPERVISOR: exec_cmd: vm create SW1 1 c3725 
Nov 27 16:15:22.012 VM: VM SW1 created.
Nov 27 16:15:22.012 HYPERVISOR: exec_cmd: vm set_con_tcp_port SW1 2001 
Nov 27 16:15:22.012 HYPERVISOR: exec_cmd: c3725 get_mac_addr SW1 
Nov 27 16:15:22.013 HYPERVISOR: exec_cmd: vm get_status SW1 
Nov 27 16:15:22.013 HYPERVISOR: exec_cmd: vm slot_add_binding SW1 1 0 NM-16ESW 
Nov 27 16:15:22.013 HYPERVISOR: exec_cmd: vm set_nvram SW1 256 
Nov 27 16:15:22.014 HYPERVISOR: exec_cmd: vm get_status SW1 
Nov 27 16:15:22.014 HYPERVISOR: exec_cmd: vm set_idle_pc SW1 0x614ac2c4 
Nov 27 16:15:22.014 HYPERVISOR: exec_cmd: c3725 set_mac_addr SW1 aaaa.aaaa.aaaa 
Nov 27 16:15:22.015 HYPERVISOR: exec_cmd: vm set_ios SW1 /media/actionmystique/SAMSUNG5-VMs/Images/GNS3/IOS/c3725-adventerprisek9-mz.124-15.T10.image 
Nov 27 16:15:22.015 HYPERVISOR: exec_cmd: vm set_exec_area SW1 16 
Nov 27 16:15:22.016 HYPERVISOR: exec_cmd: vm slot_add_binding SW1 0 16 WIC-2T 
Nov 27 16:15:22.018 HYPERVISOR: exec_cmd: vm set_disk0 SW1 1 
Nov 27 16:15:22.018 HYPERVISOR: exec_cmd: vm set_config SW1 configs/i1_startup-config.cfg 
Nov 27 16:15:22.019 HYPERVISOR: exec_cmd: vm set_config SW1 configs/i1_startup-config.cfg configs/i1_private-config.cfg 
Nov 27 16:15:22.055 HYPERVISOR: exec_cmd: nio create_null null-4cb3a366-a6b6-40c2-8a3e-3dfb0e385e2c 
Nov 27 16:15:22.056 HYPERVISOR: exec_cmd: vm slot_add_nio_binding SW1 1 0 null-4cb3a366-a6b6-40c2-8a3e-3dfb0e385e2c 
Nov 27 16:15:22.056 HYPERVISOR: exec_cmd: vm get_status SW1 
Nov 27 16:15:22.184 HYPERVISOR: exec_cmd: nio create_udp udp-0ecf5e7a-a63a-45f1-a082-3970660223d7 15005 127.0.0.1 15004 
Nov 27 16:15:22.185 HYPERVISOR: exec_cmd: vm slot_add_nio_binding SW1 1 1 udp-0ecf5e7a-a63a-45f1-a082-3970660223d7 
Nov 27 16:15:22.185 HYPERVISOR: exec_cmd: vm get_status SW1 
Nov 27 16:15:22.196 HYPERVISOR: exec_cmd: nio create_udp udp-0b099676-e388-46c6-8415-c28cb16fa62e 15006 127.0.0.1 15007 
Nov 27 16:15:22.200 HYPERVISOR: exec_cmd: vm slot_add_nio_binding SW1 1 5 udp-0b099676-e388-46c6-8415-c28cb16fa62e 
Nov 27 16:15:22.203 HYPERVISOR: exec_cmd: vm get_status SW1 
Nov 27 16:15:22.225 HYPERVISOR: exec_cmd: nio create_udp udp-cc18b18d-28e6-4299-b6fb-dbdc4e010e2d 15008 127.0.0.1 15009 
Nov 27 16:15:22.225 HYPERVISOR: exec_cmd: vm slot_add_nio_binding SW1 1 6 udp-cc18b18d-28e6-4299-b6fb-dbdc4e010e2d 
Nov 27 16:15:22.226 HYPERVISOR: exec_cmd: vm get_status SW1 
