Dec 04 11:16:57.213 HYPERVISOR: Release 0.2.17-amd64/Linux (tag 2017072410)
Dec 04 11:16:57.213 HYPERVISOR: Started on IP = 127.0.0.1, TCP port = 42129.
Dec 04 11:16:57.241 HYPERVISOR: exec_cmd: hypervisor version 
Dec 04 11:16:57.251 HYPERVISOR: exec_cmd: hypervisor working_dir /media/actionmystique/SAMSUNG5-VMs/Labs/GNS3/git-Public-Labs-Collection/CCNP-Security/FIREWALL/Jean-Christophe_Manciot/1+/Data Center ASA - ASDM - AAA - VMs/project-files/dynamips 
Dec 04 11:16:57.251 GENERAL: working_dir=/media/actionmystique/SAMSUNG5-VMs/Labs/GNS3/git-Public-Labs-Collection/CCNP-Security/FIREWALL/Jean-Christophe_Manciot/1+/Data Center ASA - ASDM - AAA - VMs/project-files/dynamips
Dec 04 11:16:57.253 HYPERVISOR: exec_cmd: vm create SW0_Internet 11 c3725 
Dec 04 11:16:57.253 VM: VM SW0_Internet created.
Dec 04 11:16:57.255 HYPERVISOR: exec_cmd: vm set_con_tcp_port SW0_Internet 2113 
Dec 04 11:16:57.257 HYPERVISOR: exec_cmd: vm set_aux_tcp_port SW0_Internet 2513 
Dec 04 11:16:57.258 HYPERVISOR: exec_cmd: c3725 get_mac_addr SW0_Internet 
Dec 04 11:16:57.263 HYPERVISOR: exec_cmd: vm get_status SW0_Internet 
Dec 04 11:16:57.270 HYPERVISOR: exec_cmd: vm slot_add_binding SW0_Internet 1 0 NM-16ESW 
Dec 04 11:16:57.274 HYPERVISOR: exec_cmd: vm set_exec_area SW0_Internet 16 
Dec 04 11:16:57.277 HYPERVISOR: exec_cmd: vm get_status SW0_Internet 
Dec 04 11:16:57.278 HYPERVISOR: exec_cmd: vm set_idle_pc SW0_Internet 0x602649b4 
Dec 04 11:16:57.284 HYPERVISOR: exec_cmd: vm set_ios SW0_Internet /media/actionmystique/SAMSUNG5-VMs/Images/GNS3/IOS/c3725-adventerprisek9-mz.124-15.T10.image 
Dec 04 11:16:57.287 HYPERVISOR: exec_cmd: c3725 set_mac_addr SW0_Internet c20b.0758.0000 
Dec 04 11:16:57.289 HYPERVISOR: exec_cmd: vm set_config SW0_Internet configs/i11_startup-config.cfg 
Dec 04 11:16:58.542 HYPERVISOR: exec_cmd: nio create_gen_eth generic_ethernet-01c0c850-4255-4410-8ade-7c81c6feb531 enp3s0 
Dec 04 11:16:58.587 HYPERVISOR: exec_cmd: vm slot_add_nio_binding SW0_Internet 1 0 generic_ethernet-01c0c850-4255-4410-8ade-7c81c6feb531 
Dec 04 11:16:58.588 HYPERVISOR: exec_cmd: vm get_status SW0_Internet 
Dec 04 11:17:15.845 HYPERVISOR: exec_cmd: vm get_status SW0_Internet 
Dec 04 11:17:15.849 HYPERVISOR: exec_cmd: vm extract_config SW0_Internet 
Dec 04 11:17:15.855 HYPERVISOR: exec_cmd: vm delete SW0_Internet 
Dec 04 11:17:15.855 VM: VM SW0_Internet destroyed.
Dec 04 11:17:15.863 HYPERVISOR: exec_cmd: hypervisor stop 
Dec 04 11:17:16.251 HYPERVISOR: Stopped.
Dec 04 11:17:16.296 GENERAL: reset done.
