Nov 26 21:04:39.955 HYPERVISOR: Release 0.2.17-amd64/Linux (tag 2017072410)
Nov 26 21:04:39.955 HYPERVISOR: Started on IP = 127.0.0.1, TCP port = 38569.
Nov 26 21:04:40.001 HYPERVISOR: exec_cmd: hypervisor version 
Nov 26 21:04:40.003 HYPERVISOR: exec_cmd: hypervisor working_dir /media/actionmystique/SAMSUNG5-VMs/Labs/GNS3/PVST+ EtherChannel VRRP/project-files/dynamips 
Nov 26 21:04:40.003 GENERAL: working_dir=/media/actionmystique/SAMSUNG5-VMs/Labs/GNS3/PVST+ EtherChannel VRRP/project-files/dynamips
Nov 26 21:04:40.006 HYPERVISOR: exec_cmd: vm create SW9 10 c3725 
Nov 26 21:04:40.006 VM: VM SW9 created.
Nov 26 21:04:40.022 HYPERVISOR: exec_cmd: vm set_con_tcp_port SW9 2017 
Nov 26 21:04:40.029 HYPERVISOR: exec_cmd: vm set_aux_tcp_port SW9 2517 
Nov 26 21:04:40.035 HYPERVISOR: exec_cmd: c3725 get_mac_addr SW9 
Nov 26 21:04:40.048 HYPERVISOR: exec_cmd: vm set_ios SW9 /media/actionmystique/SAMSUNG5-VMs/Images/GNS3/IOS/c3725-adventerprisek9-mz.124-15.T10.image 
Nov 26 21:04:40.052 HYPERVISOR: exec_cmd: vm set_ram SW9 256 
Nov 26 21:04:40.055 HYPERVISOR: exec_cmd: vm get_status SW9 
Nov 26 21:04:40.060 HYPERVISOR: exec_cmd: vm set_idle_pc SW9 0x6026b804 
Nov 26 21:04:40.064 HYPERVISOR: exec_cmd: vm get_status SW9 
Nov 26 21:04:40.065 HYPERVISOR: exec_cmd: vm slot_add_binding SW9 1 0 NM-16ESW 
Nov 26 21:04:40.066 HYPERVISOR: exec_cmd: vm set_config SW9 configs/i10_startup-config.cfg 
Nov 26 21:04:40.677 HYPERVISOR: exec_cmd: nio create_udp udp-25c0511e-4b07-4732-92d9-ac505926e418 30006 127.0.0.1 20006 
Nov 26 21:04:40.678 HYPERVISOR: exec_cmd: vm slot_add_nio_binding SW9 1 2 udp-25c0511e-4b07-4732-92d9-ac505926e418 
Nov 26 21:04:40.679 HYPERVISOR: exec_cmd: vm get_status SW9 
Nov 26 21:04:40.685 HYPERVISOR: exec_cmd: nio create_udp udp-c46b1d5a-d40c-4e21-8a1c-f9c7509a8b35 30007 127.0.0.1 20007 
Nov 26 21:04:40.686 HYPERVISOR: exec_cmd: vm slot_add_nio_binding SW9 1 3 udp-c46b1d5a-d40c-4e21-8a1c-f9c7509a8b35 
Nov 26 21:04:40.687 HYPERVISOR: exec_cmd: vm get_status SW9 
Nov 26 21:04:40.919 HYPERVISOR: exec_cmd: vm extract_config SW9 
Nov 26 21:04:41.273 HYPERVISOR: exec_cmd: nio create_udp udp-431ebe9b-793b-4d55-9004-2bc770f3bf8d 15035 127.0.0.1 15034 
Nov 26 21:04:41.273 HYPERVISOR: exec_cmd: vm slot_add_nio_binding SW9 1 1 udp-431ebe9b-793b-4d55-9004-2bc770f3bf8d 
Nov 26 21:04:41.274 HYPERVISOR: exec_cmd: vm get_status SW9 
Nov 26 21:04:41.441 HYPERVISOR: exec_cmd: nio create_udp udp-680a8025-6ab2-406d-8367-202ab73f4f46 15051 127.0.0.1 15050 
Nov 26 21:04:41.441 HYPERVISOR: exec_cmd: vm slot_add_nio_binding SW9 1 0 udp-680a8025-6ab2-406d-8367-202ab73f4f46 
Nov 26 21:04:41.441 HYPERVISOR: exec_cmd: vm get_status SW9 
Nov 26 21:54:01.424 HYPERVISOR: exec_cmd: vm get_status SW9 
Nov 26 21:54:01.427 HYPERVISOR: exec_cmd: vm extract_config SW9 
Nov 26 21:54:01.474 HYPERVISOR: exec_cmd: vm delete SW9 
Nov 26 21:54:01.474 VM: VM SW9 destroyed.
Nov 26 21:54:01.478 HYPERVISOR: exec_cmd: hypervisor stop 
Nov 26 21:54:01.623 HYPERVISOR: Stopped.
Nov 26 21:54:01.623 GENERAL: reset done.
