Nov 26 21:04:39.841 HYPERVISOR: Release 0.2.17-amd64/Linux (tag 2017072410)
Nov 26 21:04:39.841 HYPERVISOR: Started on IP = 127.0.0.1, TCP port = 57407.
Nov 26 21:04:39.873 HYPERVISOR: exec_cmd: hypervisor version 
Nov 26 21:04:39.874 HYPERVISOR: exec_cmd: hypervisor working_dir /media/actionmystique/SAMSUNG5-VMs/Labs/GNS3/PVST+ EtherChannel VRRP/project-files/dynamips 
Nov 26 21:04:39.874 GENERAL: working_dir=/media/actionmystique/SAMSUNG5-VMs/Labs/GNS3/PVST+ EtherChannel VRRP/project-files/dynamips
Nov 26 21:04:39.877 HYPERVISOR: exec_cmd: vm create SW6 6 c3725 
Nov 26 21:04:39.877 VM: VM SW6 created.
Nov 26 21:04:39.879 HYPERVISOR: exec_cmd: vm set_con_tcp_port SW6 2006 
Nov 26 21:04:39.881 HYPERVISOR: exec_cmd: vm set_aux_tcp_port SW6 2506 
Nov 26 21:04:39.884 HYPERVISOR: exec_cmd: c3725 get_mac_addr SW6 
Nov 26 21:04:39.887 HYPERVISOR: exec_cmd: vm set_ios SW6 /media/actionmystique/SAMSUNG5-VMs/Images/GNS3/IOS/c3725-adventerprisek9-mz.124-15.T10.image 
Nov 26 21:04:39.889 HYPERVISOR: exec_cmd: vm set_ram SW6 256 
Nov 26 21:04:39.891 HYPERVISOR: exec_cmd: vm get_status SW6 
Nov 26 21:04:39.892 HYPERVISOR: exec_cmd: vm set_idle_pc SW6 0x6026b804 
Nov 26 21:04:39.893 HYPERVISOR: exec_cmd: vm get_status SW6 
Nov 26 21:04:39.895 HYPERVISOR: exec_cmd: vm slot_add_binding SW6 1 0 NM-16ESW 
Nov 26 21:04:39.896 HYPERVISOR: exec_cmd: vm set_config SW6 configs/i6_startup-config.cfg 
Nov 26 21:04:40.125 HYPERVISOR: exec_cmd: nio create_udp udp-0e564a3c-f712-4550-9a40-692d6f299f17 30004 127.0.0.1 20004 
Nov 26 21:04:40.126 HYPERVISOR: exec_cmd: vm slot_add_nio_binding SW6 1 4 udp-0e564a3c-f712-4550-9a40-692d6f299f17 
Nov 26 21:04:40.133 HYPERVISOR: exec_cmd: vm get_status SW6 
Nov 26 21:04:40.140 HYPERVISOR: exec_cmd: nio create_udp udp-3d4cc267-cdaa-4af2-a7f8-29d06e8761cd 30005 127.0.0.1 20005 
Nov 26 21:04:40.141 HYPERVISOR: exec_cmd: vm slot_add_nio_binding SW6 1 5 udp-3d4cc267-cdaa-4af2-a7f8-29d06e8761cd 
Nov 26 21:04:40.145 HYPERVISOR: exec_cmd: vm get_status SW6 
Nov 26 21:04:40.917 HYPERVISOR: exec_cmd: vm extract_config SW6 
Nov 26 21:04:41.017 HYPERVISOR: exec_cmd: nio create_udp udp-a7446a3e-9040-4c0a-9d10-68333e1c486e 15009 127.0.0.1 15007 
Nov 26 21:04:41.017 HYPERVISOR: exec_cmd: vm slot_add_nio_binding SW6 1 0 udp-a7446a3e-9040-4c0a-9d10-68333e1c486e 
Nov 26 21:04:41.017 HYPERVISOR: exec_cmd: vm get_status SW6 
Nov 26 21:04:41.172 HYPERVISOR: exec_cmd: nio create_udp udp-8e5970ba-acfb-4de7-ac0f-ab1426f23676 15025 127.0.0.1 15024 
Nov 26 21:04:41.173 HYPERVISOR: exec_cmd: vm slot_add_nio_binding SW6 1 3 udp-8e5970ba-acfb-4de7-ac0f-ab1426f23676 
Nov 26 21:04:41.173 HYPERVISOR: exec_cmd: vm get_status SW6 
Nov 26 21:54:01.425 HYPERVISOR: exec_cmd: vm get_status SW6 
Nov 26 21:54:01.428 HYPERVISOR: exec_cmd: vm extract_config SW6 
Nov 26 21:54:01.475 HYPERVISOR: exec_cmd: vm delete SW6 
Nov 26 21:54:01.475 VM: VM SW6 destroyed.
Nov 26 21:54:01.478 HYPERVISOR: exec_cmd: hypervisor stop 
Nov 26 21:54:01.502 HYPERVISOR: Stopped.
Nov 26 21:54:01.502 GENERAL: reset done.
