Nov 26 21:03:46.137 HYPERVISOR: Release 0.2.17-amd64/Linux (tag 2017072410)
Nov 26 21:03:46.137 HYPERVISOR: Started on IP = 127.0.0.1, TCP port = 56921.
Nov 26 21:03:46.147 HYPERVISOR: exec_cmd: hypervisor version 
Nov 26 21:03:46.148 HYPERVISOR: exec_cmd: hypervisor working_dir /media/actionmystique/SAMSUNG5-VMs/Labs/GNS3/PVST+ EtherChannel HSRP with Dual L2-L3 Links/project-files/dynamips 
Nov 26 21:03:46.148 GENERAL: working_dir=/media/actionmystique/SAMSUNG5-VMs/Labs/GNS3/PVST+ EtherChannel HSRP with Dual L2-L3 Links/project-files/dynamips
Nov 26 21:03:46.149 HYPERVISOR: exec_cmd: vm create SW4 4 c3725 
Nov 26 21:03:46.149 VM: VM SW4 created.
Nov 26 21:03:46.150 HYPERVISOR: exec_cmd: vm set_con_tcp_port SW4 2004 
Nov 26 21:03:46.151 HYPERVISOR: exec_cmd: vm set_aux_tcp_port SW4 2504 
Nov 26 21:03:46.152 HYPERVISOR: exec_cmd: c3725 get_mac_addr SW4 
Nov 26 21:03:46.154 HYPERVISOR: exec_cmd: vm set_ios SW4 /media/actionmystique/SAMSUNG5-VMs/Images/GNS3/IOS/c3725-adventerprisek9-mz.124-15.T10.image 
Nov 26 21:03:46.155 HYPERVISOR: exec_cmd: vm set_ram SW4 256 
Nov 26 21:03:46.158 HYPERVISOR: exec_cmd: vm get_status SW4 
Nov 26 21:03:46.159 HYPERVISOR: exec_cmd: vm set_idle_pc SW4 0x6026b804 
Nov 26 21:03:46.161 HYPERVISOR: exec_cmd: vm get_status SW4 
Nov 26 21:03:46.163 HYPERVISOR: exec_cmd: vm slot_add_binding SW4 1 0 NM-16ESW 
Nov 26 21:03:46.164 HYPERVISOR: exec_cmd: vm set_config SW4 configs/i4_startup-config.cfg 
Nov 26 21:03:47.138 HYPERVISOR: exec_cmd: vm extract_config SW4 
Nov 26 21:03:47.153 HYPERVISOR: exec_cmd: nio create_udp udp-23a8901d-62e6-41a3-8d41-6e5b791e8c32 15002 127.0.0.1 15000 
Nov 26 21:03:47.153 HYPERVISOR: exec_cmd: vm slot_add_nio_binding SW4 1 1 udp-23a8901d-62e6-41a3-8d41-6e5b791e8c32 
Nov 26 21:03:47.153 HYPERVISOR: exec_cmd: vm get_status SW4 
Nov 26 21:03:47.180 HYPERVISOR: exec_cmd: nio create_udp udp-64efcfc5-a156-446e-b0dd-26a62aa354c3 15003 127.0.0.1 15001 
Nov 26 21:03:47.184 HYPERVISOR: exec_cmd: vm slot_add_nio_binding SW4 1 10 udp-64efcfc5-a156-446e-b0dd-26a62aa354c3 
Nov 26 21:03:47.185 HYPERVISOR: exec_cmd: vm get_status SW4 
Nov 26 21:03:47.200 HYPERVISOR: exec_cmd: nio create_udp udp-ef7d43de-81c0-4635-8b46-8f6b64db913c 15005 127.0.0.1 15004 
Nov 26 21:03:47.200 HYPERVISOR: exec_cmd: vm slot_add_nio_binding SW4 1 2 udp-ef7d43de-81c0-4635-8b46-8f6b64db913c 
Nov 26 21:03:47.201 HYPERVISOR: exec_cmd: vm get_status SW4 
Nov 26 21:03:47.280 HYPERVISOR: exec_cmd: nio create_udp udp-de16d6ec-86bf-4c61-841f-8f340b053b68 15012 127.0.0.1 15009 
Nov 26 21:03:47.281 HYPERVISOR: exec_cmd: vm slot_add_nio_binding SW4 1 3 udp-de16d6ec-86bf-4c61-841f-8f340b053b68 
Nov 26 21:03:47.281 HYPERVISOR: exec_cmd: vm get_status SW4 
Nov 26 21:03:47.297 HYPERVISOR: exec_cmd: nio create_udp udp-a6f1b08d-1a12-4b78-a210-36b4dbdf2a0a 15013 127.0.0.1 15011 
Nov 26 21:03:47.297 HYPERVISOR: exec_cmd: vm slot_add_nio_binding SW4 1 7 udp-a6f1b08d-1a12-4b78-a210-36b4dbdf2a0a 
Nov 26 21:03:47.298 HYPERVISOR: exec_cmd: vm get_status SW4 
Nov 26 21:03:47.308 HYPERVISOR: exec_cmd: nio create_udp udp-fbbddae0-f65f-44ea-81ce-5fe800e9b77e 15014 127.0.0.1 15015 
Nov 26 21:03:47.309 HYPERVISOR: exec_cmd: vm slot_add_nio_binding SW4 1 8 udp-fbbddae0-f65f-44ea-81ce-5fe800e9b77e 
Nov 26 21:03:47.312 HYPERVISOR: exec_cmd: vm get_status SW4 
Nov 26 21:03:47.336 HYPERVISOR: exec_cmd: nio create_udp udp-cc126607-bc7b-4c2e-82dc-e0a3b4ca32f6 15016 127.0.0.1 15017 
Nov 26 21:03:47.336 HYPERVISOR: exec_cmd: vm slot_add_nio_binding SW4 1 9 udp-cc126607-bc7b-4c2e-82dc-e0a3b4ca32f6 
Nov 26 21:03:47.337 HYPERVISOR: exec_cmd: vm get_status SW4 
Nov 26 21:03:47.346 HYPERVISOR: exec_cmd: nio create_udp udp-aa312032-6bbe-459d-bba4-2612482d7cd5 15018 127.0.0.1 15019 
Nov 26 21:03:47.347 HYPERVISOR: exec_cmd: vm slot_add_nio_binding SW4 1 0 udp-aa312032-6bbe-459d-bba4-2612482d7cd5 
Nov 26 21:03:47.347 HYPERVISOR: exec_cmd: vm get_status SW4 
Nov 26 21:03:47.436 HYPERVISOR: exec_cmd: nio create_udp udp-7b774f02-4ab4-43cd-a675-1c2d19dae032 15027 127.0.0.1 15028 
Nov 26 21:03:47.437 HYPERVISOR: exec_cmd: vm slot_add_nio_binding SW4 1 4 udp-7b774f02-4ab4-43cd-a675-1c2d19dae032 
Nov 26 21:03:47.438 HYPERVISOR: exec_cmd: vm get_status SW4 
Nov 26 21:04:03.938 HYPERVISOR: exec_cmd: vm get_status SW4 
Nov 26 21:04:03.942 HYPERVISOR: exec_cmd: vm extract_config SW4 
Nov 26 21:04:03.988 HYPERVISOR: exec_cmd: vm delete SW4 
Nov 26 21:04:03.988 VM: VM SW4 destroyed.
Nov 26 21:04:03.993 HYPERVISOR: exec_cmd: hypervisor stop 
Nov 26 21:04:04.159 HYPERVISOR: Stopped.
Nov 26 21:04:04.159 GENERAL: reset done.
