Nov 27 16:25:42.296 HYPERVISOR: Release 0.2.17-amd64/Linux (tag 2017072410)
Nov 27 16:25:42.296 HYPERVISOR: Started on IP = 127.0.0.1, TCP port = 48909.
Nov 27 16:25:42.311 HYPERVISOR: exec_cmd: hypervisor version 
Nov 27 16:25:42.312 HYPERVISOR: exec_cmd: hypervisor working_dir /media/actionmystique/SAMSUNG5-VMs/Labs/GNS3/git-Public-Labs-Collection/CCNP/TBSHOOT/L3-Technologies/IPv4/IOS-Filtering-Tools/ACL/Jean-Christophe_Manciot/1+/TT 1-solutions-linux/project-files/dynamips 
Nov 27 16:25:42.312 GENERAL: working_dir=/media/actionmystique/SAMSUNG5-VMs/Labs/GNS3/git-Public-Labs-Collection/CCNP/TBSHOOT/L3-Technologies/IPv4/IOS-Filtering-Tools/ACL/Jean-Christophe_Manciot/1+/TT 1-solutions-linux/project-files/dynamips
Nov 27 16:25:42.312 HYPERVISOR: exec_cmd: vm create ESW2 2 c3725 
Nov 27 16:25:42.312 VM: VM ESW2 created.
Nov 27 16:25:42.312 HYPERVISOR: exec_cmd: vm set_con_tcp_port ESW2 2002 
Nov 27 16:25:42.313 HYPERVISOR: exec_cmd: vm set_aux_tcp_port ESW2 2502 
Nov 27 16:25:42.313 HYPERVISOR: exec_cmd: c3725 get_mac_addr ESW2 
Nov 27 16:25:42.313 HYPERVISOR: exec_cmd: vm set_nvram ESW2 256 
Nov 27 16:25:42.314 HYPERVISOR: exec_cmd: vm get_status ESW2 
Nov 27 16:25:42.314 HYPERVISOR: exec_cmd: vm set_idle_pc ESW2 0x6026b804 
Nov 27 16:25:42.314 HYPERVISOR: exec_cmd: c3725 set_mac_addr ESW2 c202.28c2.0000 
Nov 27 16:25:42.315 HYPERVISOR: exec_cmd: vm get_status ESW2 
Nov 27 16:25:42.315 HYPERVISOR: exec_cmd: vm slot_add_binding ESW2 1 0 NM-16ESW 
Nov 27 16:25:42.316 HYPERVISOR: exec_cmd: vm set_ios ESW2 /media/actionmystique/SAMSUNG5-VMs/Images/GNS3/IOS/c3725-adventerprisek9-mz.124-15.T10.image 
Nov 27 16:25:42.316 HYPERVISOR: exec_cmd: vm slot_add_binding ESW2 0 16 WIC-2T 
Nov 27 16:25:42.316 HYPERVISOR: exec_cmd: vm set_disk0 ESW2 1 
Nov 27 16:25:42.317 HYPERVISOR: exec_cmd: vm set_config ESW2 configs/i2_startup-config.cfg 
Nov 27 16:25:42.317 HYPERVISOR: exec_cmd: vm set_config ESW2 configs/i2_startup-config.cfg configs/i2_private-config.cfg 
Nov 27 16:25:42.441 HYPERVISOR: exec_cmd: nio create_udp udp-bf74119d-de63-4093-b8dc-e305c38c532b 15004 127.0.0.1 15002 
Nov 27 16:25:42.447 HYPERVISOR: exec_cmd: vm slot_add_nio_binding ESW2 1 1 udp-bf74119d-de63-4093-b8dc-e305c38c532b 
Nov 27 16:25:42.448 HYPERVISOR: exec_cmd: vm get_status ESW2 
Nov 27 16:25:48.898 HYPERVISOR: exec_cmd: nio create_tap tap-571d5bb8-7f4d-433d-9ab8-7dfeee150c5b tap0 
Nov 27 16:25:48.899 HYPERVISOR: exec_cmd: vm slot_add_nio_binding ESW2 1 0 tap-571d5bb8-7f4d-433d-9ab8-7dfeee150c5b 
Nov 27 16:25:48.900 HYPERVISOR: exec_cmd: vm get_status ESW2 
