Dec 04 11:08:09.810 HYPERVISOR: Release 0.2.17-amd64/Linux (tag 2017072410)
Dec 04 11:08:09.810 HYPERVISOR: Started on IP = 127.0.0.1, TCP port = 52185.
Dec 04 11:08:09.858 HYPERVISOR: exec_cmd: hypervisor version 
Dec 04 11:08:09.858 HYPERVISOR: exec_cmd: hypervisor working_dir /media/actionmystique/SAMSUNG5-VMs/Labs/GNS3/TT 2-solutions-linux-/project-files/dynamips 
Dec 04 11:08:09.858 GENERAL: working_dir=/media/actionmystique/SAMSUNG5-VMs/Labs/GNS3/TT 2-solutions-linux-/project-files/dynamips
Dec 04 11:08:09.858 HYPERVISOR: exec_cmd: vm create ESW1 1 c3725 
Dec 04 11:08:09.858 VM: VM ESW1 created.
Dec 04 11:08:09.859 HYPERVISOR: exec_cmd: vm set_con_tcp_port ESW1 2004 
Dec 04 11:08:09.859 HYPERVISOR: exec_cmd: c3725 get_mac_addr ESW1 
Dec 04 11:08:09.859 HYPERVISOR: exec_cmd: vm set_nvram ESW1 256 
Dec 04 11:08:09.860 HYPERVISOR: exec_cmd: vm set_ios ESW1 /media/actionmystique/SAMSUNG5-VMs/Images/GNS3/IOS/c3725-adventerprisek9-mz.124-15.T10.image 
Dec 04 11:08:09.860 HYPERVISOR: exec_cmd: c3725 set_mac_addr ESW1 c201.1b91.0000 
Dec 04 11:08:09.861 HYPERVISOR: exec_cmd: vm get_status ESW1 
Dec 04 11:08:09.861 HYPERVISOR: exec_cmd: vm slot_add_binding ESW1 1 0 NM-16ESW 
Dec 04 11:08:09.861 HYPERVISOR: exec_cmd: vm get_status ESW1 
Dec 04 11:08:09.862 HYPERVISOR: exec_cmd: vm set_idle_pc ESW1 0x60c05928 
Dec 04 11:08:09.862 HYPERVISOR: exec_cmd: vm set_disk0 ESW1 1 
Dec 04 11:08:09.863 HYPERVISOR: exec_cmd: vm slot_add_binding ESW1 0 16 WIC-2T 
Dec 04 11:08:09.863 HYPERVISOR: exec_cmd: vm set_config ESW1 configs/ios_base_startup-config.txt 
Dec 04 11:08:09.864 HYPERVISOR: exec_cmd: vm set_config ESW1 configs/ios_base_startup-config.txt configs/ios_base_private-config.txt 
Dec 04 11:08:10.180 HYPERVISOR: exec_cmd: nio create_udp udp-875f953c-4467-4a6a-a00f-262f418aee06 15007 127.0.0.1 15008 
Dec 04 11:08:10.181 HYPERVISOR: exec_cmd: vm slot_add_nio_binding ESW1 1 0 udp-875f953c-4467-4a6a-a00f-262f418aee06 
Dec 04 11:08:10.181 HYPERVISOR: exec_cmd: vm get_status ESW1 
Dec 04 11:08:10.203 HYPERVISOR: exec_cmd: nio create_udp udp-eb624984-6c3b-481d-bcc2-94da99a17a72 15005 127.0.0.1 15009 
Dec 04 11:08:10.203 HYPERVISOR: exec_cmd: vm slot_add_nio_binding ESW1 1 1 udp-eb624984-6c3b-481d-bcc2-94da99a17a72 
Dec 04 11:08:10.203 HYPERVISOR: exec_cmd: vm get_status ESW1 
Dec 04 11:08:23.946 HYPERVISOR: exec_cmd: vm get_status ESW1 
Dec 04 11:08:23.948 HYPERVISOR: exec_cmd: vm extract_config ESW1 
Dec 04 11:08:23.953 HYPERVISOR: exec_cmd: vm delete ESW1 
Dec 04 11:08:23.953 VM: VM ESW1 destroyed.
Dec 04 11:08:23.955 HYPERVISOR: exec_cmd: hypervisor stop 
Dec 04 11:08:24.373 HYPERVISOR: Stopped.
Dec 04 11:08:24.373 GENERAL: reset done.
