Dec 04 11:11:47.827 HYPERVISOR: Release 0.2.17-amd64/Linux (tag 2017072410)
Dec 04 11:11:47.827 HYPERVISOR: Started on IP = 127.0.0.1, TCP port = 44611.
Dec 04 11:11:47.884 HYPERVISOR: exec_cmd: hypervisor version 
Dec 04 11:11:47.885 HYPERVISOR: exec_cmd: hypervisor working_dir /media/actionmystique/SAMSUNG5-VMs/Labs/GNS3/TT 2-solutions-linux-/project-files/dynamips 
Dec 04 11:11:47.885 GENERAL: working_dir=/media/actionmystique/SAMSUNG5-VMs/Labs/GNS3/TT 2-solutions-linux-/project-files/dynamips
Dec 04 11:11:47.885 HYPERVISOR: exec_cmd: vm create ESW1 1 c3725 
Dec 04 11:11:47.885 VM: VM ESW1 created.
Dec 04 11:11:47.886 HYPERVISOR: exec_cmd: vm set_con_tcp_port ESW1 2004 
Dec 04 11:11:47.887 HYPERVISOR: exec_cmd: c3725 get_mac_addr ESW1 
Dec 04 11:11:47.889 HYPERVISOR: exec_cmd: vm set_nvram ESW1 256 
Dec 04 11:11:47.890 HYPERVISOR: exec_cmd: vm set_ios ESW1 /media/actionmystique/SAMSUNG5-VMs/Images/GNS3/IOS/c3725-adventerprisek9-mz.124-15.T10.image 
Dec 04 11:11:47.891 HYPERVISOR: exec_cmd: c3725 set_mac_addr ESW1 c201.1b91.0000 
Dec 04 11:11:47.892 HYPERVISOR: exec_cmd: vm get_status ESW1 
Dec 04 11:11:47.892 HYPERVISOR: exec_cmd: vm slot_add_binding ESW1 1 0 NM-16ESW 
Dec 04 11:11:47.893 HYPERVISOR: exec_cmd: vm get_status ESW1 
Dec 04 11:11:47.894 HYPERVISOR: exec_cmd: vm set_idle_pc ESW1 0x6026b804 
Dec 04 11:11:47.895 HYPERVISOR: exec_cmd: vm set_disk0 ESW1 1 
Dec 04 11:11:47.895 HYPERVISOR: exec_cmd: vm slot_add_binding ESW1 0 16 WIC-2T 
Dec 04 11:11:47.896 HYPERVISOR: exec_cmd: vm set_config ESW1 configs/ios_base_startup-config.txt 
Dec 04 11:11:47.897 HYPERVISOR: exec_cmd: vm set_config ESW1 configs/ios_base_startup-config.txt configs/ios_base_private-config.txt 
Dec 04 11:11:48.103 HYPERVISOR: exec_cmd: nio create_udp udp-79ee5fe6-bf1f-4d14-8281-5a838dfa88f3 15006 127.0.0.1 15007 
Dec 04 11:11:48.111 HYPERVISOR: exec_cmd: vm slot_add_nio_binding ESW1 1 1 udp-79ee5fe6-bf1f-4d14-8281-5a838dfa88f3 
Dec 04 11:11:48.112 HYPERVISOR: exec_cmd: vm get_status ESW1 
Dec 04 11:11:48.123 HYPERVISOR: exec_cmd: nio create_udp udp-202a8d9d-5efa-48a3-8577-876bc85a69d0 15009 127.0.0.1 15008 
Dec 04 11:11:48.124 HYPERVISOR: exec_cmd: vm slot_add_nio_binding ESW1 1 0 udp-202a8d9d-5efa-48a3-8577-876bc85a69d0 
Dec 04 11:11:48.124 HYPERVISOR: exec_cmd: vm get_status ESW1 
Dec 04 11:12:00.627 HYPERVISOR: exec_cmd: vm get_status ESW1 
Dec 04 11:12:00.629 HYPERVISOR: exec_cmd: vm extract_config ESW1 
Dec 04 11:12:00.632 HYPERVISOR: exec_cmd: vm delete ESW1 
Dec 04 11:12:00.632 VM: VM ESW1 destroyed.
Dec 04 11:12:00.646 HYPERVISOR: exec_cmd: hypervisor stop 
Dec 04 11:12:00.897 HYPERVISOR: Stopped.
Dec 04 11:12:00.897 GENERAL: reset done.
