autostart = False
version = 0.8.2
[127.0.0.1:7200]
    workingdir = C:\Users\ActionMystique\Documents\Missions\GNS3\Temp
    udp = 10000
    [[3725]]
        image = C:\Users\ActionMystique\Documents\Missions\IOS\Binaries\c3725-adventerprisek9-mz.124-15.T5.image
        ram = 128
        idlepc = 0x60bbf000
        sparsemem = True
        ghostios = True
    [[ETHSW SW1]]
        1 = access 1 R1 f0/0
        2 = access 1 R2 f0/0
        3 = access 1 R3 f0/0
        x = -22.5
        y = -265.0
        z = 1.0
    [[ROUTER R1]]
        model = 3725
        console = 2017
        aux = 2117
        cnfg = configs\R1.cfg
        wic0/0 = WIC-2T
        s0/0 = R2 s0/0
        s0/1 = R3 s0/0
        f0/0 = SW1 1
        slot1 = NM-1FE-TX
        slot2 = NM-1FE-TX
        x = -289.0
        y = -114.0
        z = 1.0
    [[ROUTER R2]]
        model = 3725
        console = 2018
        aux = 2118
        cnfg = configs\R2.cfg
        wic0/0 = WIC-2T
        s0/0 = R1 s0/0
        s0/1 = R3 s0/1
        f0/0 = SW1 2
        slot1 = NM-1FE-TX
        slot2 = NM-1FE-TX
        x = -22.0
        y = -517.0
        z = 1.0
    [[ROUTER R3]]
        model = 3725
        console = 2019
        aux = 2119
        cnfg = configs\R3.cfg
        wic0/0 = WIC-2T
        s0/0 = R1 s0/1
        s0/1 = R2 s0/1
        f0/0 = SW1 3
        slot1 = NM-1FE-TX
        slot2 = NM-1FE-TX
        x = 259.0
        y = -109.0
        z = 1.0
[GNS3-DATA]
    configs = configs
    width = 5000
    height = 2500
    [[NOTE 1]]
        text = s0/1\nDCE\n.2
        x = 93.0
        y = -445.5
    [[NOTE 2]]
        text = 172.16.13.0/29
        x = -44.0
        y = -75.5
    [[NOTE 3]]
        text = s0/0\n.2
        x = -87.0
        y = -435.5
    [[NOTE 4]]
        text = 172.16.12.0/29
        x = -257.0
        y = -319.5
    [[NOTE 5]]
        text = fa0/0\n.2
        x = 9.0
        y = -398.5
    [[NOTE 6]]
        text = Lo2: 192.168.2.2/24
        x = 66.0
        y = -535.5
    [[NOTE 7]]
        text = 172.16.23.0/29
        x = 172.0
        y = -314.5
    [[NOTE 8]]
        text = 10.1.1.0/24
        x = -34.0
        y = -222.5
    [[NOTE 9]]
        text = s0/0\nDCE\n.1
        x = -248.0
        y = -221.5
    [[NOTE 10]]
        text = Lo3: 192.168.3.3/24
        x = 218.0
        y = -27.5
    [[NOTE 11]]
        text = s0/1\n.1
        x = -166.0
        y = -89.5
    [[NOTE 12]]
        text = Lo1: 192.168.1.1/24
        x = -339.0
        y = -32.5
    [[NOTE 13]]
        text = fa0/0\n.1
        x = -158.0
        y = -194.5
    [[NOTE 14]]
        text = s0/1\n.3
        x = 233.0
        y = -205.5
    [[NOTE 15]]
        text = s0/0\nDCE\n.3
        x = 141.0
        y = -88.5
    [[NOTE 16]]
        text = fa0/0\n.3
        x = 121.0
        y = -169.5
    [[SHAPE 1]]
        type = ellipse
        x = -247.0
        y = -73.0
        width = 28.0
        height = 21.0
        rotate = 90
        border_style = 2
        z = -2.0
    [[SHAPE 2]]
        type = ellipse
        x = 302.0
        y = -68.0
        width = 28.0
        height = 21.0
        rotate = 90
        border_style = 2
        z = -2.0
    [[SHAPE 3]]
        type = ellipse
        x = 40.0
        y = -519.0
        width = 28.0
        height = 21.0
        border_style = 2
        z = -2.0
