Nov 26 20:45:13.676 HYPERVISOR: Release 0.2.17-amd64/Linux (tag 2017072410)
Nov 26 20:45:13.676 HYPERVISOR: Started on IP = 127.0.0.1, TCP port = 44685.
Nov 26 20:45:13.718 HYPERVISOR: exec_cmd: hypervisor version 
Nov 26 20:45:13.720 HYPERVISOR: exec_cmd: hypervisor working_dir /media/actionmystique/SAMSUNG5-VMs/Labs/GNS3/MCT and GRE Tunnels/project-files/dynamips 
Nov 26 20:45:13.720 GENERAL: working_dir=/media/actionmystique/SAMSUNG5-VMs/Labs/GNS3/MCT and GRE Tunnels/project-files/dynamips
Nov 26 20:45:13.722 HYPERVISOR: exec_cmd: vm create R9 9 c7200 
Nov 26 20:45:13.722 VM: VM R9 created.
Nov 26 20:45:13.723 HYPERVISOR: exec_cmd: vm set_con_tcp_port R9 2010 
Nov 26 20:45:13.724 HYPERVISOR: exec_cmd: vm set_aux_tcp_port R9 2110 
Nov 26 20:45:13.727 HYPERVISOR: exec_cmd: c7200 get_mac_addr R9 
Nov 26 20:45:13.734 HYPERVISOR: exec_cmd: vm get_status R9 
Nov 26 20:45:13.746 HYPERVISOR: exec_cmd: vm slot_add_binding R9 0 0 C7200-IO-FE 
Nov 26 20:45:13.749 HYPERVISOR: exec_cmd: vm set_ios R9 /media/actionmystique/SAMSUNG5-VMs/Images/GNS3/IOS/c7200-adventerprisek9-mz.152-4.M2.image 
Nov 26 20:45:13.750 HYPERVISOR: exec_cmd: vm get_status R9 
Nov 26 20:45:13.752 HYPERVISOR: exec_cmd: vm slot_remove_binding R9 0 0 
Nov 26 20:45:13.753 HYPERVISOR: exec_cmd: vm get_status R9 
Nov 26 20:45:13.754 HYPERVISOR: exec_cmd: vm slot_add_binding R9 0 0 C7200-IO-GE-E 
Nov 26 20:45:13.756 HYPERVISOR: exec_cmd: vm get_status R9 
Nov 26 20:45:13.757 HYPERVISOR: exec_cmd: vm set_idle_pc R9 0x606dd06c 
Nov 26 20:45:13.758 HYPERVISOR: exec_cmd: vm set_ram R9 512 
Nov 26 20:45:13.761 HYPERVISOR: exec_cmd: vm set_config R9 configs/i9_startup-config.cfg 
Nov 26 20:45:14.367 HYPERVISOR: exec_cmd: vm extract_config R9 
Nov 26 20:45:14.600 HYPERVISOR: exec_cmd: nio create_udp udp-0d531805-e7ac-4dd5-8b0a-636a803e9926 15025 127.0.0.1 15024 
Nov 26 20:45:14.600 HYPERVISOR: exec_cmd: vm slot_add_nio_binding R9 0 0 udp-0d531805-e7ac-4dd5-8b0a-636a803e9926 
Nov 26 20:45:14.601 HYPERVISOR: exec_cmd: vm get_status R9 
Nov 26 20:45:21.943 HYPERVISOR: exec_cmd: vm extract_config R9 
Nov 26 20:45:42.060 HYPERVISOR: exec_cmd: vm get_status R9 
Nov 26 20:45:42.064 HYPERVISOR: exec_cmd: vm extract_config R9 
Nov 26 20:45:42.068 HYPERVISOR: exec_cmd: vm delete R9 
Nov 26 20:45:42.068 VM: VM R9 destroyed.
Nov 26 20:45:42.073 HYPERVISOR: exec_cmd: hypervisor stop 
Nov 26 20:45:42.240 HYPERVISOR: Stopped.
Nov 26 20:45:42.240 GENERAL: reset done.
