Nov 28 08:16:18.514 HYPERVISOR: Release 0.2.17-amd64/Linux (tag 2017072410)
Nov 28 08:16:18.514 HYPERVISOR: Started on IP = 127.0.0.1, TCP port = 50061.
Nov 28 08:16:18.547 HYPERVISOR: exec_cmd: hypervisor version 
Nov 28 08:16:18.548 HYPERVISOR: exec_cmd: hypervisor working_dir /media/actionmystique/SAMSUNG5-VMs/Labs/GNS3/TT 3-solutions-linux-/project-files/dynamips 
Nov 28 08:16:18.548 GENERAL: working_dir=/media/actionmystique/SAMSUNG5-VMs/Labs/GNS3/TT 3-solutions-linux-/project-files/dynamips
Nov 28 08:16:18.548 HYPERVISOR: exec_cmd: vm create ESW5 5 c3725 
Nov 28 08:16:18.548 VM: VM ESW5 created.
Nov 28 08:16:18.549 HYPERVISOR: exec_cmd: vm set_con_tcp_port ESW5 2010 
Nov 28 08:16:18.550 HYPERVISOR: exec_cmd: c3725 get_mac_addr ESW5 
Nov 28 08:16:18.550 HYPERVISOR: exec_cmd: vm set_disk0 ESW5 1 
Nov 28 08:16:18.551 HYPERVISOR: exec_cmd: vm get_status ESW5 
Nov 28 08:16:18.551 HYPERVISOR: exec_cmd: vm slot_add_binding ESW5 1 0 NM-16ESW 
Nov 28 08:16:18.552 HYPERVISOR: exec_cmd: vm set_ios ESW5 /media/actionmystique/SAMSUNG5-VMs/Images/GNS3/IOS/c3725-adventerprisek9-mz.124-15.T10.image 
Nov 28 08:16:18.552 HYPERVISOR: exec_cmd: c3725 set_mac_addr ESW5 c205.6a03.0000 
Nov 28 08:16:18.553 HYPERVISOR: exec_cmd: vm slot_add_binding ESW5 0 16 WIC-2T 
Nov 28 08:16:18.553 HYPERVISOR: exec_cmd: vm get_status ESW5 
Nov 28 08:16:18.554 HYPERVISOR: exec_cmd: vm set_idle_pc ESW5 0x6026b804 
Nov 28 08:16:18.554 HYPERVISOR: exec_cmd: vm set_nvram ESW5 256 
Nov 28 08:16:18.555 HYPERVISOR: exec_cmd: vm set_config ESW5 configs/ios_base_startup-config.txt 
Nov 28 08:16:18.555 HYPERVISOR: exec_cmd: vm set_config ESW5 configs/ios_base_startup-config.txt configs/ios_base_private-config.txt 
Nov 28 08:16:18.895 HYPERVISOR: exec_cmd: nio create_udp udp-b8664e38-6d0d-4ffa-8750-1bc772b892e3 15017 127.0.0.1 15016 
Nov 28 08:16:18.896 HYPERVISOR: exec_cmd: vm slot_add_nio_binding ESW5 1 0 udp-b8664e38-6d0d-4ffa-8750-1bc772b892e3 
Nov 28 08:16:18.896 HYPERVISOR: exec_cmd: vm get_status ESW5 
Nov 28 08:16:18.907 HYPERVISOR: exec_cmd: nio create_udp udp-1dee77db-0274-455a-ae05-0924ce7e7b25 15018 127.0.0.1 15019 
Nov 28 08:16:18.907 HYPERVISOR: exec_cmd: vm slot_add_nio_binding ESW5 1 1 udp-1dee77db-0274-455a-ae05-0924ce7e7b25 
Nov 28 08:16:18.908 HYPERVISOR: exec_cmd: vm get_status ESW5 
Nov 28 08:16:49.363 HYPERVISOR: exec_cmd: vm get_status ESW5 
Nov 28 08:16:49.366 HYPERVISOR: exec_cmd: vm extract_config ESW5 
Nov 28 08:16:49.368 HYPERVISOR: exec_cmd: vm delete ESW5 
Nov 28 08:16:49.368 VM: VM ESW5 destroyed.
Nov 28 08:16:49.370 HYPERVISOR: exec_cmd: hypervisor stop 
Nov 28 08:16:49.577 HYPERVISOR: Stopped.
Nov 28 08:16:49.577 GENERAL: reset done.
