Dec 04 11:09:39.581 HYPERVISOR: Release 0.2.17-amd64/Linux (tag 2017072410)
Dec 04 11:09:39.581 HYPERVISOR: Started on IP = 127.0.0.1, TCP port = 35209.
Dec 04 11:09:39.600 HYPERVISOR: exec_cmd: hypervisor version 
Dec 04 11:09:39.602 HYPERVISOR: exec_cmd: hypervisor working_dir /media/actionmystique/SAMSUNG5-VMs/Labs/GNS3/git-Public-Labs-Collection/CCNP/TBSHOOT/L3-Technologies/IPv6/Routing-Protocols/Redistribution/Jean-Christophe_Manciot/1+/TT 1-solutions-linux/project-files/dynamips 
Dec 04 11:09:39.602 GENERAL: working_dir=/media/actionmystique/SAMSUNG5-VMs/Labs/GNS3/git-Public-Labs-Collection/CCNP/TBSHOOT/L3-Technologies/IPv6/Routing-Protocols/Redistribution/Jean-Christophe_Manciot/1+/TT 1-solutions-linux/project-files/dynamips
Dec 04 11:09:39.603 HYPERVISOR: exec_cmd: vm create ESW1 1 c3725 
Dec 04 11:09:39.603 VM: VM ESW1 created.
Dec 04 11:09:39.604 HYPERVISOR: exec_cmd: vm set_con_tcp_port ESW1 2004 
Dec 04 11:09:39.605 HYPERVISOR: exec_cmd: c3725 get_mac_addr ESW1 
Dec 04 11:09:39.606 HYPERVISOR: exec_cmd: vm set_nvram ESW1 256 
Dec 04 11:09:39.607 HYPERVISOR: exec_cmd: vm set_ios ESW1 /media/actionmystique/SAMSUNG5-VMs/Images/GNS3/IOS/c3725-adventerprisek9-mz.124-15.T10.image 
Dec 04 11:09:39.608 HYPERVISOR: exec_cmd: c3725 set_mac_addr ESW1 c201.1b91.0000 
Dec 04 11:09:39.611 HYPERVISOR: exec_cmd: vm get_status ESW1 
Dec 04 11:09:39.613 HYPERVISOR: exec_cmd: vm slot_add_binding ESW1 1 0 NM-16ESW 
Dec 04 11:09:39.617 HYPERVISOR: exec_cmd: vm get_status ESW1 
Dec 04 11:09:39.620 HYPERVISOR: exec_cmd: vm set_idle_pc ESW1 0x6026b804 
Dec 04 11:09:39.622 HYPERVISOR: exec_cmd: vm set_disk0 ESW1 1 
Dec 04 11:09:39.627 HYPERVISOR: exec_cmd: vm slot_add_binding ESW1 0 16 WIC-2T 
Dec 04 11:09:39.628 HYPERVISOR: exec_cmd: vm set_config ESW1 configs/ios_base_startup-config.txt 
Dec 04 11:09:39.630 HYPERVISOR: exec_cmd: vm set_config ESW1 configs/ios_base_startup-config.txt configs/ios_base_private-config.txt 
Dec 04 11:09:39.938 HYPERVISOR: exec_cmd: nio create_udp udp-63e5f8e2-1892-4e95-b122-7d2f2a13d318 15007 127.0.0.1 15004 
Dec 04 11:09:39.940 HYPERVISOR: exec_cmd: vm slot_add_nio_binding ESW1 1 0 udp-63e5f8e2-1892-4e95-b122-7d2f2a13d318 
Dec 04 11:09:39.941 HYPERVISOR: exec_cmd: vm get_status ESW1 
Dec 04 11:09:39.986 HYPERVISOR: exec_cmd: nio create_udp udp-ac719f1c-11f5-4f53-b4c9-2af1e2a82a9f 15008 127.0.0.1 15009 
Dec 04 11:09:39.992 HYPERVISOR: exec_cmd: vm slot_add_nio_binding ESW1 1 1 udp-ac719f1c-11f5-4f53-b4c9-2af1e2a82a9f 
Dec 04 11:09:39.995 HYPERVISOR: exec_cmd: vm get_status ESW1 
