Jul 18 19:13:44.550 HYPERVISOR: Release 0.2.16-amd64/Linux (tag 2015060118)
Jul 18 19:13:44.550 HYPERVISOR: Started on IP = 127.0.0.1, TCP port = 43419.
Jul 18 19:13:44.560 HYPERVISOR: exec_cmd: hypervisor version 
Jul 18 19:13:44.561 HYPERVISOR: exec_cmd: hypervisor working_dir /media/actionmystique/SAMSUNG-850-Ext4/Labs/GNS3/CCNP/TBSHOOT/L3-Technologies/IPv6/Routing-Protocols/Redistribution/Jean-Christophe_Manciot/1+/TT 1-solutions-linux/project-files/dynamips 
Jul 18 19:13:44.561 GENERAL: working_dir=/media/actionmystique/SAMSUNG-850-Ext4/Labs/GNS3/CCNP/TBSHOOT/L3-Technologies/IPv6/Routing-Protocols/Redistribution/Jean-Christophe_Manciot/1+/TT 1-solutions-linux/project-files/dynamips
Jul 18 19:13:44.562 HYPERVISOR: exec_cmd: vm create ESW5 5 c3725 
Jul 18 19:13:44.562 VM: VM ESW5 created.
Jul 18 19:13:44.562 HYPERVISOR: exec_cmd: vm set_con_tcp_port ESW5 2010 
Jul 18 19:13:44.563 HYPERVISOR: exec_cmd: c3725 get_mac_addr ESW5 
Jul 18 19:13:44.564 HYPERVISOR: exec_cmd: c3725 set_mac_addr ESW5 c205.6a03.0000 
Jul 18 19:13:44.564 HYPERVISOR: exec_cmd: vm slot_add_binding ESW5 0 16 WIC-2T 
Jul 18 19:13:44.565 HYPERVISOR: exec_cmd: vm get_status ESW5 
Jul 18 19:13:44.566 HYPERVISOR: exec_cmd: vm set_idle_pc ESW5 0x6026b804 
Jul 18 19:13:44.566 HYPERVISOR: exec_cmd: vm get_status ESW5 
Jul 18 19:13:44.567 HYPERVISOR: exec_cmd: vm slot_add_binding ESW5 1 0 NM-16ESW 
Jul 18 19:13:44.567 HYPERVISOR: exec_cmd: vm set_nvram ESW5 256 
Jul 18 19:13:44.568 HYPERVISOR: exec_cmd: vm set_ios ESW5 /media/actionmystique/SAMSUNG-850-Ext4/Images/GNS3/IOS/c3725-adventerprisek9-mz.124-15.T10.image 
Jul 18 19:13:44.569 HYPERVISOR: exec_cmd: vm set_disk0 ESW5 1 
Jul 18 19:13:44.570 HYPERVISOR: exec_cmd: vm set_config ESW5 configs/ios_base_startup-config.txt 
Jul 18 19:13:44.572 HYPERVISOR: exec_cmd: vm set_config ESW5 configs/ios_base_startup-config.txt configs/ios_base_private-config.txt 
Jul 18 19:13:44.881 HYPERVISOR: exec_cmd: nio create_udp udp-60f8cabe-a22c-44ce-9de1-cf239b139323 15016 127.0.0.1 15017 
Jul 18 19:13:44.881 HYPERVISOR: exec_cmd: vm slot_add_nio_binding ESW5 1 0 udp-60f8cabe-a22c-44ce-9de1-cf239b139323 
Jul 18 19:13:44.882 HYPERVISOR: exec_cmd: vm get_status ESW5 
Jul 18 19:13:44.895 HYPERVISOR: exec_cmd: nio create_udp udp-b4cf811f-006e-4e89-bcdc-af97387665b9 15019 127.0.0.1 15018 
Jul 18 19:13:44.896 HYPERVISOR: exec_cmd: vm slot_add_nio_binding ESW5 1 1 udp-b4cf811f-006e-4e89-bcdc-af97387665b9 
Jul 18 19:13:44.896 HYPERVISOR: exec_cmd: vm get_status ESW5 
Jul 18 19:13:49.423 HYPERVISOR: exec_cmd: vm get_status ESW5 
Jul 18 19:13:49.426 HYPERVISOR: exec_cmd: vm extract_config ESW5 
Jul 18 19:13:49.441 HYPERVISOR: exec_cmd: vm delete ESW5 
Jul 18 19:13:49.441 VM: VM ESW5 destroyed.
Jul 18 19:13:49.443 HYPERVISOR: exec_cmd: hypervisor stop 
Jul 18 19:13:49.559 HYPERVISOR: Stopped.
Jul 18 19:13:49.559 GENERAL: reset done.
