Nov 27 16:19:25.393 HYPERVISOR: Release 0.2.17-amd64/Linux (tag 2017072410)
Nov 27 16:19:25.393 HYPERVISOR: Started on IP = 127.0.0.1, TCP port = 47433.
Nov 27 16:19:25.412 HYPERVISOR: exec_cmd: hypervisor version 
Nov 27 16:19:25.413 HYPERVISOR: exec_cmd: hypervisor working_dir /media/actionmystique/SAMSUNG5-VMs/Labs/GNS3/TT 2-linux-/project-files/dynamips 
Nov 27 16:19:25.413 GENERAL: working_dir=/media/actionmystique/SAMSUNG5-VMs/Labs/GNS3/TT 2-linux-/project-files/dynamips
Nov 27 16:19:25.414 HYPERVISOR: exec_cmd: vm create SW1 1 c3725 
Nov 27 16:19:25.414 VM: VM SW1 created.
Nov 27 16:19:25.415 HYPERVISOR: exec_cmd: vm set_con_tcp_port SW1 2001 
Nov 27 16:19:25.416 HYPERVISOR: exec_cmd: c3725 get_mac_addr SW1 
Nov 27 16:19:25.417 HYPERVISOR: exec_cmd: vm set_nvram SW1 256 
Nov 27 16:19:25.418 HYPERVISOR: exec_cmd: vm get_status SW1 
Nov 27 16:19:25.419 HYPERVISOR: exec_cmd: vm set_idle_pc SW1 0x60c056e4 
Nov 27 16:19:25.420 HYPERVISOR: exec_cmd: c3725 set_mac_addr SW1 aaaa.aaaa.aaaa 
Nov 27 16:19:25.421 HYPERVISOR: exec_cmd: vm set_exec_area SW1 16 
Nov 27 16:19:25.422 HYPERVISOR: exec_cmd: vm get_status SW1 
Nov 27 16:19:25.423 HYPERVISOR: exec_cmd: vm slot_add_binding SW1 1 0 NM-16ESW 
Nov 27 16:19:25.424 HYPERVISOR: exec_cmd: vm set_disk0 SW1 1 
Nov 27 16:19:25.426 HYPERVISOR: exec_cmd: vm set_ios SW1 /media/actionmystique/SAMSUNG5-VMs/Images/GNS3/IOS/c3725-adventerprisek9-mz.124-15.T10.image 
Nov 27 16:19:25.427 HYPERVISOR: exec_cmd: vm slot_add_binding SW1 0 16 WIC-2T 
Nov 27 16:19:25.428 HYPERVISOR: exec_cmd: vm set_config SW1 configs/i1_startup-config.cfg 
Nov 27 16:19:25.429 HYPERVISOR: exec_cmd: vm set_config SW1 configs/i1_startup-config.cfg configs/i1_private-config.cfg 
Nov 27 16:19:25.725 HYPERVISOR: exec_cmd: nio create_udp udp-a39b82ee-8b59-40f2-bc1e-13763e08371e 15009 127.0.0.1 15008 
Nov 27 16:19:25.725 HYPERVISOR: exec_cmd: vm slot_add_nio_binding SW1 1 5 udp-a39b82ee-8b59-40f2-bc1e-13763e08371e 
Nov 27 16:19:25.726 HYPERVISOR: exec_cmd: vm get_status SW1 
Nov 27 16:19:25.740 HYPERVISOR: exec_cmd: nio create_udp udp-7c8bbb54-dba7-4c0a-95e0-7a813ffd85f9 15011 127.0.0.1 15010 
Nov 27 16:19:25.740 HYPERVISOR: exec_cmd: vm slot_add_nio_binding SW1 1 6 udp-7c8bbb54-dba7-4c0a-95e0-7a813ffd85f9 
Nov 27 16:19:25.741 HYPERVISOR: exec_cmd: vm get_status SW1 
Nov 27 16:19:25.765 HYPERVISOR: exec_cmd: nio create_udp udp-fe801ea0-6053-4a14-a420-b8b937440942 15012 127.0.0.1 15014 
Nov 27 16:19:25.765 HYPERVISOR: exec_cmd: vm slot_add_nio_binding SW1 1 0 udp-fe801ea0-6053-4a14-a420-b8b937440942 
Nov 27 16:19:25.766 HYPERVISOR: exec_cmd: vm get_status SW1 
Nov 27 16:19:25.789 HYPERVISOR: exec_cmd: nio create_udp udp-bfcf15fb-a8b1-4932-bd90-060c762ac2f4 15013 127.0.0.1 15015 
Nov 27 16:19:25.789 HYPERVISOR: exec_cmd: vm slot_add_nio_binding SW1 1 1 udp-bfcf15fb-a8b1-4932-bd90-060c762ac2f4 
Nov 27 16:19:25.790 HYPERVISOR: exec_cmd: vm get_status SW1 
Nov 27 16:19:45.017 HYPERVISOR: exec_cmd: vm get_status SW1 
Nov 27 16:19:45.019 HYPERVISOR: exec_cmd: vm extract_config SW1 
Nov 27 16:19:45.022 HYPERVISOR: exec_cmd: vm delete SW1 
Nov 27 16:19:45.022 VM: VM SW1 destroyed.
Nov 27 16:19:45.023 HYPERVISOR: exec_cmd: hypervisor stop 
Nov 27 16:19:45.430 HYPERVISOR: Stopped.
Nov 27 16:19:45.430 GENERAL: reset done.
