Nov 27 16:24:19.530 HYPERVISOR: Release 0.2.17-amd64/Linux (tag 2017072410)
Nov 27 16:24:19.530 HYPERVISOR: Started on IP = 127.0.0.1, TCP port = 42393.
Nov 27 16:24:19.535 HYPERVISOR: exec_cmd: hypervisor version 
Nov 27 16:24:19.535 HYPERVISOR: exec_cmd: hypervisor working_dir /media/actionmystique/SAMSUNG5-VMs/Labs/GNS3/git-Public-Labs-Collection/CCNP/TBSHOOT/L3-Technologies/IPv4/High-Availability/VRRP/Jean-Christophe_Manciot/1+/TT 2-solutions-linux/project-files/dynamips 
Nov 27 16:24:19.535 GENERAL: working_dir=/media/actionmystique/SAMSUNG5-VMs/Labs/GNS3/git-Public-Labs-Collection/CCNP/TBSHOOT/L3-Technologies/IPv4/High-Availability/VRRP/Jean-Christophe_Manciot/1+/TT 2-solutions-linux/project-files/dynamips
Nov 27 16:24:19.536 HYPERVISOR: exec_cmd: vm create SW1 1 c3725 
Nov 27 16:24:19.536 VM: VM SW1 created.
Nov 27 16:24:19.536 HYPERVISOR: exec_cmd: vm set_con_tcp_port SW1 2001 
Nov 27 16:24:19.537 HYPERVISOR: exec_cmd: c3725 get_mac_addr SW1 
Nov 27 16:24:19.537 HYPERVISOR: exec_cmd: vm set_nvram SW1 256 
Nov 27 16:24:19.538 HYPERVISOR: exec_cmd: vm get_status SW1 
Nov 27 16:24:19.538 HYPERVISOR: exec_cmd: vm set_idle_pc SW1 0x60c056e4 
Nov 27 16:24:19.539 HYPERVISOR: exec_cmd: c3725 set_mac_addr SW1 aaaa.aaaa.aaaa 
Nov 27 16:24:19.541 HYPERVISOR: exec_cmd: vm set_exec_area SW1 16 
Nov 27 16:24:19.542 HYPERVISOR: exec_cmd: vm get_status SW1 
Nov 27 16:24:19.543 HYPERVISOR: exec_cmd: vm slot_add_binding SW1 1 0 NM-16ESW 
Nov 27 16:24:19.544 HYPERVISOR: exec_cmd: vm set_ios SW1 /media/actionmystique/SAMSUNG5-VMs/Images/GNS3/IOS/c3725-adventerprisek9-mz.124-15.T10.image 
Nov 27 16:24:19.546 HYPERVISOR: exec_cmd: vm slot_add_binding SW1 0 16 WIC-2T 
Nov 27 16:24:19.548 HYPERVISOR: exec_cmd: vm set_disk0 SW1 1 
Nov 27 16:24:19.549 HYPERVISOR: exec_cmd: vm set_config SW1 configs/i1_startup-config.cfg 
Nov 27 16:24:19.551 HYPERVISOR: exec_cmd: vm set_config SW1 configs/i1_startup-config.cfg configs/i1_private-config.cfg 
Nov 27 16:24:19.789 HYPERVISOR: exec_cmd: nio create_udp udp-f9702d9e-0250-416d-9f37-c5dfc6ab4f41 15004 127.0.0.1 15002 
Nov 27 16:24:19.792 HYPERVISOR: exec_cmd: vm slot_add_nio_binding SW1 1 0 udp-f9702d9e-0250-416d-9f37-c5dfc6ab4f41 
Nov 27 16:24:19.793 HYPERVISOR: exec_cmd: vm get_status SW1 
Nov 27 16:24:19.805 HYPERVISOR: exec_cmd: nio create_udp udp-4c885483-30ab-44f0-beca-01c63ebf3113 15006 127.0.0.1 15005 
Nov 27 16:24:19.809 HYPERVISOR: exec_cmd: vm slot_add_nio_binding SW1 0 0 udp-4c885483-30ab-44f0-beca-01c63ebf3113 
Nov 27 16:24:19.810 HYPERVISOR: exec_cmd: vm get_status SW1 
Nov 27 16:24:19.841 HYPERVISOR: exec_cmd: nio create_udp udp-52c792cd-9e6a-4102-857f-3b19502a9ae0 15001 127.0.0.1 15007 
Nov 27 16:24:19.841 HYPERVISOR: exec_cmd: vm slot_add_nio_binding SW1 1 6 udp-52c792cd-9e6a-4102-857f-3b19502a9ae0 
Nov 27 16:24:19.842 HYPERVISOR: exec_cmd: vm get_status SW1 
Nov 27 16:24:19.901 HYPERVISOR: exec_cmd: nio create_udp udp-b976e37e-d4ad-463c-b813-ec3183a0b5df 15010 127.0.0.1 15013 
Nov 27 16:24:19.901 HYPERVISOR: exec_cmd: vm slot_add_nio_binding SW1 1 1 udp-b976e37e-d4ad-463c-b813-ec3183a0b5df 
Nov 27 16:24:19.902 HYPERVISOR: exec_cmd: vm get_status SW1 
