Nov 27 16:24:24.790 HYPERVISOR: Release 0.2.17-amd64/Linux (tag 2017072410)
Nov 27 16:24:24.791 HYPERVISOR: Started on IP = 127.0.0.1, TCP port = 36493.
Nov 27 16:24:24.803 HYPERVISOR: exec_cmd: hypervisor version 
Nov 27 16:24:24.803 HYPERVISOR: exec_cmd: hypervisor working_dir /media/actionmystique/SAMSUNG5-VMs/Labs/GNS3/TT 2-solutions-linux-/project-files/dynamips 
Nov 27 16:24:24.803 GENERAL: working_dir=/media/actionmystique/SAMSUNG5-VMs/Labs/GNS3/TT 2-solutions-linux-/project-files/dynamips
Nov 27 16:24:24.804 HYPERVISOR: exec_cmd: vm create Core 4 c3725 
Nov 27 16:24:24.804 VM: VM Core created.
Nov 27 16:24:24.804 HYPERVISOR: exec_cmd: vm set_con_tcp_port Core 2005 
Nov 27 16:24:24.804 HYPERVISOR: exec_cmd: c3725 get_mac_addr Core 
Nov 27 16:24:24.805 HYPERVISOR: exec_cmd: vm set_ram Core 256 
Nov 27 16:24:24.805 HYPERVISOR: exec_cmd: vm set_nvram Core 256 
Nov 27 16:24:24.805 HYPERVISOR: exec_cmd: vm get_status Core 
Nov 27 16:24:24.806 HYPERVISOR: exec_cmd: vm set_idle_pc Core 0x60c056e4 
Nov 27 16:24:24.806 HYPERVISOR: exec_cmd: c3725 set_mac_addr Core c204.0c3e.0000 
Nov 27 16:24:24.807 HYPERVISOR: exec_cmd: vm get_status Core 
Nov 27 16:24:24.807 HYPERVISOR: exec_cmd: vm slot_add_binding Core 1 0 NM-16ESW 
Nov 27 16:24:24.807 HYPERVISOR: exec_cmd: vm set_disk0 Core 1 
Nov 27 16:24:24.808 HYPERVISOR: exec_cmd: vm set_ios Core /media/actionmystique/SAMSUNG5-VMs/Images/GNS3/IOS/c3725-adventerprisek9-mz.124-15.T10.image 
Nov 27 16:24:24.808 HYPERVISOR: exec_cmd: vm slot_add_binding Core 0 16 WIC-2T 
Nov 27 16:24:24.809 HYPERVISOR: exec_cmd: vm set_config Core configs/i4_startup-config.cfg 
Nov 27 16:24:24.809 HYPERVISOR: exec_cmd: vm set_config Core configs/i4_startup-config.cfg configs/i4_private-config.cfg 
Nov 27 16:24:25.073 HYPERVISOR: exec_cmd: nio create_udp udp-09084a77-f2b5-4fdd-9dd5-6a03a3abc463 15003 127.0.0.1 15004 
Nov 27 16:24:25.074 HYPERVISOR: exec_cmd: vm slot_add_nio_binding Core 1 1 udp-09084a77-f2b5-4fdd-9dd5-6a03a3abc463 
Nov 27 16:24:25.078 HYPERVISOR: exec_cmd: vm get_status Core 
Nov 27 16:24:25.123 HYPERVISOR: exec_cmd: nio create_udp udp-54022ba7-4652-4959-bf1a-69d9121f172b 15007 127.0.0.1 15005 
Nov 27 16:24:25.126 HYPERVISOR: exec_cmd: vm slot_add_nio_binding Core 1 0 udp-54022ba7-4652-4959-bf1a-69d9121f172b 
Nov 27 16:24:25.127 HYPERVISOR: exec_cmd: vm get_status Core 
Nov 27 16:24:46.056 HYPERVISOR: exec_cmd: vm get_status Core 
Nov 27 16:24:46.057 HYPERVISOR: exec_cmd: vm extract_config Core 
Nov 27 16:24:46.059 HYPERVISOR: exec_cmd: vm delete Core 
Nov 27 16:24:46.059 VM: VM Core destroyed.
Nov 27 16:24:46.061 HYPERVISOR: exec_cmd: hypervisor stop 
Nov 27 16:24:46.326 HYPERVISOR: Stopped.
Nov 27 16:24:46.326 GENERAL: reset done.
