Nov 27 16:24:24.845 HYPERVISOR: Release 0.2.17-amd64/Linux (tag 2017072410)
Nov 27 16:24:24.845 HYPERVISOR: Started on IP = 127.0.0.1, TCP port = 58949.
Nov 27 16:24:24.865 HYPERVISOR: exec_cmd: hypervisor version 
Nov 27 16:24:24.866 HYPERVISOR: exec_cmd: hypervisor working_dir /media/actionmystique/SAMSUNG5-VMs/Labs/GNS3/TT 2-solutions-linux-/project-files/dynamips 
Nov 27 16:24:24.866 GENERAL: working_dir=/media/actionmystique/SAMSUNG5-VMs/Labs/GNS3/TT 2-solutions-linux-/project-files/dynamips
Nov 27 16:24:24.867 HYPERVISOR: exec_cmd: vm create SW1 1 c3725 
Nov 27 16:24:24.867 VM: VM SW1 created.
Nov 27 16:24:24.868 HYPERVISOR: exec_cmd: vm set_con_tcp_port SW1 2001 
Nov 27 16:24:24.868 HYPERVISOR: exec_cmd: c3725 get_mac_addr SW1 
Nov 27 16:24:24.869 HYPERVISOR: exec_cmd: vm set_nvram SW1 256 
Nov 27 16:24:24.870 HYPERVISOR: exec_cmd: vm get_status SW1 
Nov 27 16:24:24.871 HYPERVISOR: exec_cmd: vm set_idle_pc SW1 0x60c056e4 
Nov 27 16:24:24.872 HYPERVISOR: exec_cmd: c3725 set_mac_addr SW1 aaaa.aaaa.aaaa 
Nov 27 16:24:24.873 HYPERVISOR: exec_cmd: vm set_exec_area SW1 16 
Nov 27 16:24:24.874 HYPERVISOR: exec_cmd: vm get_status SW1 
Nov 27 16:24:24.875 HYPERVISOR: exec_cmd: vm slot_add_binding SW1 1 0 NM-16ESW 
Nov 27 16:24:24.876 HYPERVISOR: exec_cmd: vm set_disk0 SW1 1 
Nov 27 16:24:24.877 HYPERVISOR: exec_cmd: vm set_ios SW1 /media/actionmystique/SAMSUNG5-VMs/Images/GNS3/IOS/c3725-adventerprisek9-mz.124-15.T10.image 
Nov 27 16:24:24.878 HYPERVISOR: exec_cmd: vm slot_add_binding SW1 0 16 WIC-2T 
Nov 27 16:24:24.879 HYPERVISOR: exec_cmd: vm set_config SW1 configs/i1_startup-config.cfg 
Nov 27 16:24:24.881 HYPERVISOR: exec_cmd: vm set_config SW1 configs/i1_startup-config.cfg configs/i1_private-config.cfg 
Nov 27 16:24:25.116 HYPERVISOR: exec_cmd: nio create_udp udp-9be9faab-fd86-468d-a3c8-66e4d716701a 15005 127.0.0.1 15007 
Nov 27 16:24:25.117 HYPERVISOR: exec_cmd: vm slot_add_nio_binding SW1 1 0 udp-9be9faab-fd86-468d-a3c8-66e4d716701a 
Nov 27 16:24:25.117 HYPERVISOR: exec_cmd: vm get_status SW1 
Nov 27 16:24:25.126 HYPERVISOR: exec_cmd: nio create_udp udp-8c099b52-eabb-45b1-9114-a02684ebc33f 15009 127.0.0.1 15008 
Nov 27 16:24:25.127 HYPERVISOR: exec_cmd: vm slot_add_nio_binding SW1 1 6 udp-8c099b52-eabb-45b1-9114-a02684ebc33f 
Nov 27 16:24:25.128 HYPERVISOR: exec_cmd: vm get_status SW1 
Nov 27 16:24:25.161 HYPERVISOR: exec_cmd: nio create_udp udp-c5148fb5-7cf9-4493-be8d-bf1e00b548dd 15011 127.0.0.1 15010 
Nov 27 16:24:25.161 HYPERVISOR: exec_cmd: vm slot_add_nio_binding SW1 0 0 udp-c5148fb5-7cf9-4493-be8d-bf1e00b548dd 
Nov 27 16:24:25.161 HYPERVISOR: exec_cmd: vm get_status SW1 
Nov 27 16:24:25.179 HYPERVISOR: exec_cmd: nio create_udp udp-16c5c87b-2991-4e93-8403-c2635cce0b89 15012 127.0.0.1 15013 
Nov 27 16:24:25.180 HYPERVISOR: exec_cmd: vm slot_add_nio_binding SW1 1 1 udp-16c5c87b-2991-4e93-8403-c2635cce0b89 
Nov 27 16:24:25.181 HYPERVISOR: exec_cmd: vm get_status SW1 
Nov 27 16:24:46.056 HYPERVISOR: exec_cmd: vm get_status SW1 
Nov 27 16:24:46.058 HYPERVISOR: exec_cmd: vm extract_config SW1 
Nov 27 16:24:46.061 HYPERVISOR: exec_cmd: vm delete SW1 
Nov 27 16:24:46.061 VM: VM SW1 destroyed.
Nov 27 16:24:46.062 HYPERVISOR: exec_cmd: hypervisor stop 
Nov 27 16:24:46.384 HYPERVISOR: Stopped.
Nov 27 16:24:46.384 GENERAL: reset done.
