Dec 04 11:20:04.062 HYPERVISOR: Release 0.2.17-amd64/Linux (tag 2017072410)
Dec 04 11:20:04.062 HYPERVISOR: Started on IP = 127.0.0.1, TCP port = 46819.
Dec 04 11:20:04.092 HYPERVISOR: exec_cmd: hypervisor version 
Dec 04 11:20:04.094 HYPERVISOR: exec_cmd: hypervisor working_dir /media/actionmystique/SAMSUNG5-VMs/Labs/GNS3/Data Center ASA - ASDM - AAA - VMs-linux-/project-files/dynamips 
Dec 04 11:20:04.094 GENERAL: working_dir=/media/actionmystique/SAMSUNG5-VMs/Labs/GNS3/Data Center ASA - ASDM - AAA - VMs-linux-/project-files/dynamips
Dec 04 11:20:04.102 HYPERVISOR: exec_cmd: vm create SW4 4 c3725 
Dec 04 11:20:04.102 VM: VM SW4 created.
Dec 04 11:20:04.113 HYPERVISOR: exec_cmd: vm set_con_tcp_port SW4 2004 
Dec 04 11:20:04.123 HYPERVISOR: exec_cmd: vm set_aux_tcp_port SW4 2504 
Dec 04 11:20:04.124 HYPERVISOR: exec_cmd: c3725 get_mac_addr SW4 
Dec 04 11:20:04.126 HYPERVISOR: exec_cmd: vm get_status SW4 
Dec 04 11:20:04.127 HYPERVISOR: exec_cmd: vm slot_add_binding SW4 1 0 NM-16ESW 
Dec 04 11:20:04.129 HYPERVISOR: exec_cmd: vm set_ios SW4 /media/actionmystique/SAMSUNG5-VMs/Images/GNS3/IOS/c3725-adventerprisek9-mz.124-15.T10.image 
Dec 04 11:20:04.130 HYPERVISOR: exec_cmd: vm set_exec_area SW4 16 
Dec 04 11:20:04.132 HYPERVISOR: exec_cmd: c3725 set_mac_addr SW4 c204.127c.0000 
Dec 04 11:20:04.133 HYPERVISOR: exec_cmd: vm get_status SW4 
Dec 04 11:20:04.134 HYPERVISOR: exec_cmd: vm set_idle_pc SW4 0x6148b5dc 
Dec 04 11:20:04.137 HYPERVISOR: exec_cmd: vm set_config SW4 configs/i4_startup-config.cfg 
Dec 04 11:20:05.307 HYPERVISOR: exec_cmd: nio create_udp udp-cb284068-32b4-43a7-bd98-611feb6dd4e7 15013 127.0.0.1 15012 
Dec 04 11:20:05.312 HYPERVISOR: exec_cmd: vm slot_add_nio_binding SW4 1 10 udp-cb284068-32b4-43a7-bd98-611feb6dd4e7 
Dec 04 11:20:05.315 HYPERVISOR: exec_cmd: vm get_status SW4 
Dec 04 11:20:05.327 HYPERVISOR: exec_cmd: nio create_udp udp-e4e045d7-4d88-4392-9de7-22e1dfc27747 15015 127.0.0.1 15014 
Dec 04 11:20:05.327 HYPERVISOR: exec_cmd: vm slot_add_nio_binding SW4 1 2 udp-e4e045d7-4d88-4392-9de7-22e1dfc27747 
Dec 04 11:20:05.327 HYPERVISOR: exec_cmd: vm get_status SW4 
Dec 04 11:20:05.357 HYPERVISOR: exec_cmd: nio create_udp udp-bb522483-db50-43f5-8ced-0e0a9f6b54b3 15017 127.0.0.1 15016 
Dec 04 11:20:05.358 HYPERVISOR: exec_cmd: vm slot_add_nio_binding SW4 1 3 udp-bb522483-db50-43f5-8ced-0e0a9f6b54b3 
Dec 04 11:20:05.358 HYPERVISOR: exec_cmd: vm get_status SW4 
Dec 04 11:20:05.369 HYPERVISOR: exec_cmd: nio create_udp udp-f10e0312-22ce-42e1-9dd6-c6824b240fc6 15019 127.0.0.1 15018 
Dec 04 11:20:05.370 HYPERVISOR: exec_cmd: vm slot_add_nio_binding SW4 1 7 udp-f10e0312-22ce-42e1-9dd6-c6824b240fc6 
Dec 04 11:20:05.370 HYPERVISOR: exec_cmd: vm get_status SW4 
Dec 04 11:20:05.399 HYPERVISOR: exec_cmd: nio create_udp udp-cfe6c3d2-9fdb-4de6-944e-3e33537386f7 15021 127.0.0.1 15020 
Dec 04 11:20:05.400 HYPERVISOR: exec_cmd: vm slot_add_nio_binding SW4 1 8 udp-cfe6c3d2-9fdb-4de6-944e-3e33537386f7 
Dec 04 11:20:05.401 HYPERVISOR: exec_cmd: vm get_status SW4 
Dec 04 11:20:05.420 HYPERVISOR: exec_cmd: nio create_udp udp-ae26cf30-20ea-4812-8192-ea5d1e91974c 15023 127.0.0.1 15022 
Dec 04 11:20:05.423 HYPERVISOR: exec_cmd: vm slot_add_nio_binding SW4 1 9 udp-ae26cf30-20ea-4812-8192-ea5d1e91974c 
Dec 04 11:20:05.424 HYPERVISOR: exec_cmd: vm get_status SW4 
Dec 04 11:20:05.436 HYPERVISOR: exec_cmd: nio create_udp udp-e2d42d9c-ce48-4f55-9212-b44ffaf6a35f 15025 127.0.0.1 15024 
Dec 04 11:20:05.437 HYPERVISOR: exec_cmd: vm slot_add_nio_binding SW4 1 4 udp-e2d42d9c-ce48-4f55-9212-b44ffaf6a35f 
Dec 04 11:20:05.438 HYPERVISOR: exec_cmd: vm get_status SW4 
Dec 04 11:20:05.472 HYPERVISOR: exec_cmd: nio create_udp udp-1e9245c7-aabf-453d-a9f1-c960c614407d 15028 127.0.0.1 15029 
Dec 04 11:20:05.473 HYPERVISOR: exec_cmd: vm slot_add_nio_binding SW4 1 1 udp-1e9245c7-aabf-453d-a9f1-c960c614407d 
Dec 04 11:20:05.474 HYPERVISOR: exec_cmd: vm get_status SW4 
Dec 04 11:20:05.490 HYPERVISOR: exec_cmd: nio create_udp udp-335f77c4-1509-46b7-8054-932931ecde1c 15030 127.0.0.1 15031 
Dec 04 11:20:05.490 HYPERVISOR: exec_cmd: vm slot_add_nio_binding SW4 1 0 udp-335f77c4-1509-46b7-8054-932931ecde1c 
Dec 04 11:20:05.491 HYPERVISOR: exec_cmd: vm get_status SW4 
Dec 04 11:20:55.989 HYPERVISOR: exec_cmd: vm get_status SW4 
Dec 04 11:20:55.993 HYPERVISOR: exec_cmd: vm extract_config SW4 
Dec 04 11:20:56.000 HYPERVISOR: exec_cmd: vm delete SW4 
Dec 04 11:20:56.000 VM: VM SW4 destroyed.
Dec 04 11:20:56.008 HYPERVISOR: exec_cmd: hypervisor stop 
Dec 04 11:20:56.144 HYPERVISOR: Stopped.
Dec 04 11:20:56.144 GENERAL: reset done.
