Dec 04 11:18:52.891 HYPERVISOR: Release 0.2.17-amd64/Linux (tag 2017072410)
Dec 04 11:18:52.891 HYPERVISOR: Started on IP = 127.0.0.1, TCP port = 59727.
Dec 04 11:18:52.921 HYPERVISOR: exec_cmd: hypervisor version 
Dec 04 11:18:52.923 HYPERVISOR: exec_cmd: hypervisor working_dir /media/actionmystique/SAMSUNG5-VMs/Labs/GNS3/git-Public-Labs-Collection/CCNP-Security/FIREWALL/Jean-Christophe_Manciot/1+/Data Center ASA - ASDM - AAA - VMs-linux/project-files/dynamips 
Dec 04 11:18:52.923 GENERAL: working_dir=/media/actionmystique/SAMSUNG5-VMs/Labs/GNS3/git-Public-Labs-Collection/CCNP-Security/FIREWALL/Jean-Christophe_Manciot/1+/Data Center ASA - ASDM - AAA - VMs-linux/project-files/dynamips
Dec 04 11:18:52.924 HYPERVISOR: exec_cmd: vm create SW7 7 c3725 
Dec 04 11:18:52.924 VM: VM SW7 created.
Dec 04 11:18:52.929 HYPERVISOR: exec_cmd: vm set_con_tcp_port SW7 2007 
Dec 04 11:18:52.944 HYPERVISOR: exec_cmd: vm set_aux_tcp_port SW7 2507 
Dec 04 11:18:52.946 HYPERVISOR: exec_cmd: c3725 get_mac_addr SW7 
Dec 04 11:18:52.948 HYPERVISOR: exec_cmd: vm get_status SW7 
Dec 04 11:18:52.949 HYPERVISOR: exec_cmd: vm slot_add_binding SW7 1 0 NM-16ESW 
Dec 04 11:18:52.951 HYPERVISOR: exec_cmd: vm set_ios SW7 /media/actionmystique/SAMSUNG5-VMs/Images/GNS3/IOS/c3725-adventerprisek9-mz.124-15.T10.image 
Dec 04 11:18:52.952 HYPERVISOR: exec_cmd: vm set_exec_area SW7 16 
Dec 04 11:18:52.954 HYPERVISOR: exec_cmd: c3725 set_mac_addr SW7 c207.1340.0000 
Dec 04 11:18:52.959 HYPERVISOR: exec_cmd: vm get_status SW7 
Dec 04 11:18:52.970 HYPERVISOR: exec_cmd: vm set_idle_pc SW7 0x6148b5dc 
Dec 04 11:18:52.972 HYPERVISOR: exec_cmd: vm set_config SW7 configs/i7_startup-config.cfg 
Dec 04 11:18:54.307 HYPERVISOR: exec_cmd: nio create_udp udp-a2ec6d8f-c299-4848-a2a8-401fd35e573b 15031 127.0.0.1 15030 
Dec 04 11:18:54.308 HYPERVISOR: exec_cmd: vm slot_add_nio_binding SW7 1 3 udp-a2ec6d8f-c299-4848-a2a8-401fd35e573b 
Dec 04 11:18:54.312 HYPERVISOR: exec_cmd: vm get_status SW7 
Dec 04 11:18:54.319 HYPERVISOR: exec_cmd: nio create_udp udp-2373e999-1ae6-4acd-bbcc-fb22e3a3fffe 15033 127.0.0.1 15032 
Dec 04 11:18:54.323 HYPERVISOR: exec_cmd: vm slot_add_nio_binding SW7 1 7 udp-2373e999-1ae6-4acd-bbcc-fb22e3a3fffe 
Dec 04 11:18:54.326 HYPERVISOR: exec_cmd: vm get_status SW7 
Dec 04 11:18:54.347 HYPERVISOR: exec_cmd: nio create_udp udp-0025d828-7be9-4018-8fea-62209ac460b7 15035 127.0.0.1 15034 
Dec 04 11:18:54.348 HYPERVISOR: exec_cmd: vm slot_add_nio_binding SW7 1 8 udp-0025d828-7be9-4018-8fea-62209ac460b7 
Dec 04 11:18:54.348 HYPERVISOR: exec_cmd: vm get_status SW7 
Dec 04 11:18:54.367 HYPERVISOR: exec_cmd: nio create_udp udp-6991c24c-2f20-4e42-b8d5-7b47b285b9d4 15037 127.0.0.1 15036 
Dec 04 11:18:54.368 HYPERVISOR: exec_cmd: vm slot_add_nio_binding SW7 1 9 udp-6991c24c-2f20-4e42-b8d5-7b47b285b9d4 
Dec 04 11:18:54.368 HYPERVISOR: exec_cmd: vm get_status SW7 
Dec 04 11:18:54.382 HYPERVISOR: exec_cmd: nio create_udp udp-8f3c2312-267d-433c-b4d3-2145e4a60ef2 15039 127.0.0.1 15038 
Dec 04 11:18:54.383 HYPERVISOR: exec_cmd: vm slot_add_nio_binding SW7 1 1 udp-8f3c2312-267d-433c-b4d3-2145e4a60ef2 
Dec 04 11:18:54.383 HYPERVISOR: exec_cmd: vm get_status SW7 
Dec 04 11:18:54.412 HYPERVISOR: exec_cmd: nio create_udp udp-3e213fc3-bdb8-4407-9ca6-0ee4cec705f3 15041 127.0.0.1 15040 
Dec 04 11:18:54.416 HYPERVISOR: exec_cmd: vm slot_add_nio_binding SW7 1 10 udp-3e213fc3-bdb8-4407-9ca6-0ee4cec705f3 
Dec 04 11:18:54.417 HYPERVISOR: exec_cmd: vm get_status SW7 
Dec 04 11:18:54.503 HYPERVISOR: exec_cmd: nio create_udp udp-15131969-9ffe-44c5-8427-d8dc00efb16c 15050 127.0.0.1 15051 
Dec 04 11:18:54.503 HYPERVISOR: exec_cmd: vm slot_add_nio_binding SW7 1 4 udp-15131969-9ffe-44c5-8427-d8dc00efb16c 
Dec 04 11:18:54.503 HYPERVISOR: exec_cmd: vm get_status SW7 
Dec 04 11:18:54.541 HYPERVISOR: exec_cmd: nio create_udp udp-ba7013b5-5e16-4834-ab7b-41c777040f99 15053 127.0.0.1 15052 
Dec 04 11:18:54.542 HYPERVISOR: exec_cmd: vm slot_add_nio_binding SW7 1 2 udp-ba7013b5-5e16-4834-ab7b-41c777040f99 
Dec 04 11:18:54.543 HYPERVISOR: exec_cmd: vm get_status SW7 
Dec 04 11:18:54.605 HYPERVISOR: exec_cmd: nio create_udp udp-63a903e0-a78d-462e-bb6b-43d65142939e 15060 127.0.0.1 15061 
Dec 04 11:18:54.605 HYPERVISOR: exec_cmd: vm slot_add_nio_binding SW7 1 0 udp-63a903e0-a78d-462e-bb6b-43d65142939e 
Dec 04 11:18:54.606 HYPERVISOR: exec_cmd: vm get_status SW7 
