Apr 10 15:30:19.011 HYPERVISOR: Release 0.2.14-amd64/Linux (tag 2014092320)
Apr 10 15:30:19.011 HYPERVISOR: Started on IP = 127.0.0.1, TCP port = 7207.
Apr 10 15:30:19.018 HYPERVISOR: exec_cmd: hypervisor version 
Apr 10 15:30:19.018 HYPERVISOR: exec_cmd: hypervisor uuid 
Apr 10 15:30:19.019 HYPERVISOR: exec_cmd: hypervisor working_dir /home/actionmystique/Google Drive/Missions/Certifications/Cisco/Labs/GNS3/CCNP-Security/FIREWALL/Jean-Christophe/1+/Data Center ASA - ASDM - AAA - VMs-linux/Data Center ASA - ASDM - AAA - VMs-linux-files/dynamips 
Apr 10 15:30:19.019 GENERAL: working_dir=/home/actionmystique/Google Drive/Missions/Certifications/Cisco/Labs/GNS3/CCNP-Security/FIREWALL/Jean-Christophe/1+/Data Center ASA - ASDM - AAA - VMs-linux/Data Center ASA - ASDM - AAA - VMs-linux-files/dynamips
Apr 10 15:30:19.019 HYPERVISOR: exec_cmd: vm create SW8 8 c3725 
Apr 10 15:30:19.019 VM: VM SW8 created.
Apr 10 15:30:19.019 HYPERVISOR: exec_cmd: vm set_con_tcp_port SW8 2008 
Apr 10 15:30:19.019 HYPERVISOR: exec_cmd: vm set_aux_tcp_port SW8 2508 
Apr 10 15:30:19.019 HYPERVISOR: exec_cmd: c3725 get_mac_addr SW8 
Apr 10 15:30:19.020 HYPERVISOR: exec_cmd: vm set_ios SW8 /media/actionmystique/SAMSUNG-Ext4/Images/GNS3/IOS/c3725-adventerprisek9-mz.124-15.T10.image 
Apr 10 15:30:19.020 HYPERVISOR: exec_cmd: vm set_sparse_mem SW8 1 
Apr 10 15:30:19.020 HYPERVISOR: exec_cmd: vm set_ram_mmap SW8 1 
Apr 10 15:30:19.020 HYPERVISOR: exec_cmd: vm set_con_tcp_port SW8 2015 
Apr 10 15:30:19.020 HYPERVISOR: exec_cmd: vm set_aux_tcp_port SW8 2515 
Apr 10 15:30:19.020 HYPERVISOR: exec_cmd: c3725 set_mac_addr SW8 c208.1264.0000 
Apr 10 15:30:19.021 HYPERVISOR: exec_cmd: vm set_ghost_status SW8 2 
Apr 10 15:30:19.021 HYPERVISOR: exec_cmd: vm set_ghost_file SW8 c3725-adventerprisek9-mz.124-15.T10.image-128.ghost 
