Dec 04 11:18:52.914 HYPERVISOR: Release 0.2.17-amd64/Linux (tag 2017072410)
Dec 04 11:18:52.914 HYPERVISOR: Started on IP = 127.0.0.1, TCP port = 47995.
Dec 04 11:18:52.950 HYPERVISOR: exec_cmd: hypervisor version 
Dec 04 11:18:52.951 HYPERVISOR: exec_cmd: hypervisor working_dir /media/actionmystique/SAMSUNG5-VMs/Labs/GNS3/git-Public-Labs-Collection/CCNP-Security/FIREWALL/Jean-Christophe_Manciot/1+/Data Center ASA - ASDM - AAA - VMs-linux/project-files/dynamips 
Dec 04 11:18:52.951 GENERAL: working_dir=/media/actionmystique/SAMSUNG5-VMs/Labs/GNS3/git-Public-Labs-Collection/CCNP-Security/FIREWALL/Jean-Christophe_Manciot/1+/Data Center ASA - ASDM - AAA - VMs-linux/project-files/dynamips
Dec 04 11:18:52.953 HYPERVISOR: exec_cmd: vm create SW8 8 c3725 
Dec 04 11:18:52.953 VM: VM SW8 created.
Dec 04 11:18:52.958 HYPERVISOR: exec_cmd: vm set_con_tcp_port SW8 2015 
Dec 04 11:18:52.969 HYPERVISOR: exec_cmd: vm set_aux_tcp_port SW8 2515 
Dec 04 11:18:52.971 HYPERVISOR: exec_cmd: c3725 get_mac_addr SW8 
Dec 04 11:18:52.973 HYPERVISOR: exec_cmd: vm get_status SW8 
Dec 04 11:18:52.980 HYPERVISOR: exec_cmd: vm slot_add_binding SW8 1 0 NM-16ESW 
Dec 04 11:18:52.995 HYPERVISOR: exec_cmd: vm set_ios SW8 /media/actionmystique/SAMSUNG5-VMs/Images/GNS3/IOS/c3725-adventerprisek9-mz.124-15.T10.image 
Dec 04 11:18:52.999 HYPERVISOR: exec_cmd: vm set_exec_area SW8 16 
Dec 04 11:18:53.000 HYPERVISOR: exec_cmd: c3725 set_mac_addr SW8 c208.1264.0000 
Dec 04 11:18:53.002 HYPERVISOR: exec_cmd: vm get_status SW8 
Dec 04 11:18:53.011 HYPERVISOR: exec_cmd: vm set_idle_pc SW8 0x6148b5dc 
Dec 04 11:18:53.013 HYPERVISOR: exec_cmd: vm set_config SW8 configs/i8_startup-config.cfg 
Dec 04 11:18:54.472 HYPERVISOR: exec_cmd: nio create_udp udp-086546a7-18b8-4882-bcd6-720b02dac3fe 15047 127.0.0.1 15046 
Dec 04 11:18:54.476 HYPERVISOR: exec_cmd: vm slot_add_nio_binding SW8 1 11 udp-086546a7-18b8-4882-bcd6-720b02dac3fe 
Dec 04 11:18:54.478 HYPERVISOR: exec_cmd: vm get_status SW8 
Dec 04 11:18:54.488 HYPERVISOR: exec_cmd: nio create_udp udp-1707d2b1-8801-4dd0-a5c4-c1247d9eefbc 15049 127.0.0.1 15048 
Dec 04 11:18:54.489 HYPERVISOR: exec_cmd: vm slot_add_nio_binding SW8 1 2 udp-1707d2b1-8801-4dd0-a5c4-c1247d9eefbc 
Dec 04 11:18:54.489 HYPERVISOR: exec_cmd: vm get_status SW8 
Dec 04 11:18:54.523 HYPERVISOR: exec_cmd: nio create_udp udp-93e63449-427a-4c39-baab-65201a291b6a 15051 127.0.0.1 15050 
Dec 04 11:18:54.523 HYPERVISOR: exec_cmd: vm slot_add_nio_binding SW8 1 4 udp-93e63449-427a-4c39-baab-65201a291b6a 
Dec 04 11:18:54.523 HYPERVISOR: exec_cmd: vm get_status SW8 
Dec 04 11:18:54.552 HYPERVISOR: exec_cmd: nio create_udp udp-34ab1c34-0549-4dbf-931e-bdd9672dd5dc 15055 127.0.0.1 15054 
Dec 04 11:18:54.553 HYPERVISOR: exec_cmd: vm slot_add_nio_binding SW8 1 3 udp-34ab1c34-0549-4dbf-931e-bdd9672dd5dc 
Dec 04 11:18:54.554 HYPERVISOR: exec_cmd: vm get_status SW8 
Dec 04 11:18:54.631 HYPERVISOR: exec_cmd: nio create_udp udp-9b20ea8b-c467-4ddb-8059-63f2aff2c96a 15062 127.0.0.1 15063 
Dec 04 11:18:54.631 HYPERVISOR: exec_cmd: vm slot_add_nio_binding SW8 1 1 udp-9b20ea8b-c467-4ddb-8059-63f2aff2c96a 
Dec 04 11:18:54.632 HYPERVISOR: exec_cmd: vm get_status SW8 
