Apr 10 15:30:19.029 HYPERVISOR: Release 0.2.14-amd64/Linux (tag 2014092320)
Apr 10 15:30:19.029 HYPERVISOR: Started on IP = 127.0.0.1, TCP port = 7208.
Apr 10 15:30:19.037 HYPERVISOR: exec_cmd: hypervisor version 
Apr 10 15:30:19.037 HYPERVISOR: exec_cmd: hypervisor uuid 
Apr 10 15:30:19.037 HYPERVISOR: exec_cmd: hypervisor working_dir /home/actionmystique/Google Drive/Missions/Certifications/Cisco/Labs/GNS3/CCNP-Security/FIREWALL/Jean-Christophe/1+/Data Center ASA - ASDM - AAA - VMs-linux/Data Center ASA - ASDM - AAA - VMs-linux-files/dynamips 
Apr 10 15:30:19.037 GENERAL: working_dir=/home/actionmystique/Google Drive/Missions/Certifications/Cisco/Labs/GNS3/CCNP-Security/FIREWALL/Jean-Christophe/1+/Data Center ASA - ASDM - AAA - VMs-linux/Data Center ASA - ASDM - AAA - VMs-linux-files/dynamips
Apr 10 15:30:19.037 HYPERVISOR: exec_cmd: vm create SW10 9 c3725 
Apr 10 15:30:19.037 VM: VM SW10 created.
Apr 10 15:30:19.038 HYPERVISOR: exec_cmd: vm set_con_tcp_port SW10 2008 
Apr 10 15:30:19.038 HYPERVISOR: exec_cmd: vm set_aux_tcp_port SW10 2508 
Apr 10 15:30:19.038 HYPERVISOR: exec_cmd: c3725 get_mac_addr SW10 
Apr 10 15:30:19.038 HYPERVISOR: exec_cmd: vm set_ios SW10 /media/actionmystique/SAMSUNG-Ext4/Images/GNS3/IOS/c3725-adventerprisek9-mz.124-15.T10.image 
Apr 10 15:30:19.038 HYPERVISOR: exec_cmd: vm set_sparse_mem SW10 1 
Apr 10 15:30:19.038 HYPERVISOR: exec_cmd: vm set_ram_mmap SW10 1 
Apr 10 15:30:19.038 HYPERVISOR: exec_cmd: vm set_con_tcp_port SW10 2019 
Apr 10 15:30:19.039 HYPERVISOR: exec_cmd: vm set_aux_tcp_port SW10 2519 
Apr 10 15:30:19.039 HYPERVISOR: exec_cmd: c3725 set_mac_addr SW10 c209.13f4.0000 
Apr 10 15:30:19.039 HYPERVISOR: exec_cmd: vm set_ghost_status SW10 2 
Apr 10 15:30:19.039 HYPERVISOR: exec_cmd: vm set_ghost_file SW10 c3725-adventerprisek9-mz.124-15.T10.image-128.ghost 
