Nov 27 16:13:15.438 HYPERVISOR: Release 0.2.17-amd64/Linux (tag 2017072410)
Nov 27 16:13:15.438 HYPERVISOR: Started on IP = 127.0.0.1, TCP port = 56763.
Nov 27 16:13:15.447 HYPERVISOR: exec_cmd: hypervisor version 
Nov 27 16:13:15.447 HYPERVISOR: exec_cmd: hypervisor working_dir /media/actionmystique/SAMSUNG5-VMs/Labs/GNS3/git-Public-Labs-Collection/CCNP/TBSHOOT/L2-Technologies/STP/Jean-Christophe_Manciot/1+/TT 1-linux/project-files/dynamips 
Nov 27 16:13:15.447 GENERAL: working_dir=/media/actionmystique/SAMSUNG5-VMs/Labs/GNS3/git-Public-Labs-Collection/CCNP/TBSHOOT/L2-Technologies/STP/Jean-Christophe_Manciot/1+/TT 1-linux/project-files/dynamips
Nov 27 16:13:15.448 HYPERVISOR: exec_cmd: vm create SW2 2 c3725 
Nov 27 16:13:15.448 VM: VM SW2 created.
Nov 27 16:13:15.450 HYPERVISOR: exec_cmd: vm set_con_tcp_port SW2 2002 
Nov 27 16:13:15.452 HYPERVISOR: exec_cmd: c3725 get_mac_addr SW2 
Nov 27 16:13:15.457 HYPERVISOR: exec_cmd: vm set_nvram SW2 256 
Nov 27 16:13:15.459 HYPERVISOR: exec_cmd: vm get_status SW2 
Nov 27 16:13:15.459 HYPERVISOR: exec_cmd: vm set_idle_pc SW2 0x614ac2c4 
Nov 27 16:13:15.463 HYPERVISOR: exec_cmd: c3725 set_mac_addr SW2 eeee.eeee.eeee 
Nov 27 16:13:15.463 HYPERVISOR: exec_cmd: vm set_exec_area SW2 16 
Nov 27 16:13:15.464 HYPERVISOR: exec_cmd: vm get_status SW2 
Nov 27 16:13:15.464 HYPERVISOR: exec_cmd: vm slot_add_binding SW2 1 0 NM-16ESW 
Nov 27 16:13:15.465 HYPERVISOR: exec_cmd: vm set_ios SW2 /media/actionmystique/SAMSUNG5-VMs/Images/GNS3/IOS/c3725-adventerprisek9-mz.124-15.T10.image 
Nov 27 16:13:15.465 HYPERVISOR: exec_cmd: vm slot_add_binding SW2 0 16 WIC-2T 
Nov 27 16:13:15.465 HYPERVISOR: exec_cmd: vm set_disk0 SW2 1 
Nov 27 16:13:15.466 HYPERVISOR: exec_cmd: vm set_config SW2 configs/i2_startup-config.cfg 
Nov 27 16:13:15.466 HYPERVISOR: exec_cmd: vm set_config SW2 configs/i2_startup-config.cfg configs/i2_private-config.cfg 
Nov 27 16:13:15.596 HYPERVISOR: exec_cmd: nio create_udp udp-7a7506ca-c542-4c5b-9e62-7364fc787a35 15005 127.0.0.1 15001 
Nov 27 16:13:15.597 HYPERVISOR: exec_cmd: vm slot_add_nio_binding SW2 1 0 udp-7a7506ca-c542-4c5b-9e62-7364fc787a35 
Nov 27 16:13:15.598 HYPERVISOR: exec_cmd: vm get_status SW2 
Nov 27 16:13:15.636 HYPERVISOR: exec_cmd: nio create_udp udp-eba56969-b738-4306-9729-a87a081c5138 15008 127.0.0.1 15006 
Nov 27 16:13:15.640 HYPERVISOR: exec_cmd: vm slot_add_nio_binding SW2 1 2 udp-eba56969-b738-4306-9729-a87a081c5138 
Nov 27 16:13:15.640 HYPERVISOR: exec_cmd: vm get_status SW2 
Nov 27 16:13:15.649 HYPERVISOR: exec_cmd: nio create_udp udp-6de7f103-4fd8-4ded-bef9-c80ccb01c7a2 15009 127.0.0.1 15007 
Nov 27 16:13:15.649 HYPERVISOR: exec_cmd: vm slot_add_nio_binding SW2 1 1 udp-6de7f103-4fd8-4ded-bef9-c80ccb01c7a2 
Nov 27 16:13:15.650 HYPERVISOR: exec_cmd: vm get_status SW2 
