Nov 27 16:16:14.755 HYPERVISOR: Release 0.2.17-amd64/Linux (tag 2017072410)
Nov 27 16:16:14.755 HYPERVISOR: Started on IP = 127.0.0.1, TCP port = 58761.
Nov 27 16:16:14.766 HYPERVISOR: exec_cmd: hypervisor version 
Nov 27 16:16:14.770 HYPERVISOR: exec_cmd: hypervisor working_dir /media/actionmystique/SAMSUNG5-VMs/Labs/GNS3/git-Public-Labs-Collection/CCNP/TBSHOOT/L3-Technologies/BFD/Jean-Christophe_Manciot/1+/TT 1-linux/project-files/dynamips 
Nov 27 16:16:14.770 GENERAL: working_dir=/media/actionmystique/SAMSUNG5-VMs/Labs/GNS3/git-Public-Labs-Collection/CCNP/TBSHOOT/L3-Technologies/BFD/Jean-Christophe_Manciot/1+/TT 1-linux/project-files/dynamips
Nov 27 16:16:14.774 HYPERVISOR: exec_cmd: vm create ESW1 1 c3725 
Nov 27 16:16:14.774 VM: VM ESW1 created.
Nov 27 16:16:14.776 HYPERVISOR: exec_cmd: vm set_con_tcp_port ESW1 2004 
Nov 27 16:16:14.778 HYPERVISOR: exec_cmd: c3725 get_mac_addr ESW1 
Nov 27 16:16:14.779 HYPERVISOR: exec_cmd: vm set_nvram ESW1 256 
Nov 27 16:16:14.779 HYPERVISOR: exec_cmd: vm get_status ESW1 
Nov 27 16:16:14.780 HYPERVISOR: exec_cmd: vm set_idle_pc ESW1 0x60c06d20 
Nov 27 16:16:14.780 HYPERVISOR: exec_cmd: c3725 set_mac_addr ESW1 c201.1b91.0000 
Nov 27 16:16:14.781 HYPERVISOR: exec_cmd: vm get_status ESW1 
Nov 27 16:16:14.782 HYPERVISOR: exec_cmd: vm slot_add_binding ESW1 1 0 NM-16ESW 
Nov 27 16:16:14.783 HYPERVISOR: exec_cmd: vm set_disk0 ESW1 1 
Nov 27 16:16:14.783 HYPERVISOR: exec_cmd: vm set_ios ESW1 /media/actionmystique/SAMSUNG5-VMs/Images/GNS3/IOS/c3725-adventerprisek9-mz.124-15.T10.image 
Nov 27 16:16:14.784 HYPERVISOR: exec_cmd: vm slot_add_binding ESW1 0 16 WIC-2T 
Nov 27 16:16:14.785 HYPERVISOR: exec_cmd: vm set_config ESW1 configs/ios_base_startup-config.txt 
Nov 27 16:16:14.786 HYPERVISOR: exec_cmd: vm set_config ESW1 configs/ios_base_startup-config.txt configs/ios_base_private-config.txt 
Nov 27 16:16:15.081 HYPERVISOR: exec_cmd: nio create_udp udp-5a659271-7b01-4cb1-8f09-c7e2caf2f59a 15004 127.0.0.1 15006 
Nov 27 16:16:15.081 HYPERVISOR: exec_cmd: vm slot_add_nio_binding ESW1 1 0 udp-5a659271-7b01-4cb1-8f09-c7e2caf2f59a 
Nov 27 16:16:15.082 HYPERVISOR: exec_cmd: vm get_status ESW1 
Nov 27 16:16:15.113 HYPERVISOR: exec_cmd: nio create_udp udp-7612090c-0803-4e15-8aca-d7a46474cc49 15005 127.0.0.1 15007 
Nov 27 16:16:15.113 HYPERVISOR: exec_cmd: vm slot_add_nio_binding ESW1 1 1 udp-7612090c-0803-4e15-8aca-d7a46474cc49 
Nov 27 16:16:15.114 HYPERVISOR: exec_cmd: vm get_status ESW1 
