Nov 27 16:17:05.215 HYPERVISOR: Release 0.2.17-amd64/Linux (tag 2017072410)
Nov 27 16:17:05.215 HYPERVISOR: Started on IP = 127.0.0.1, TCP port = 34651.
Nov 27 16:17:05.254 HYPERVISOR: exec_cmd: hypervisor version 
Nov 27 16:17:05.255 HYPERVISOR: exec_cmd: hypervisor working_dir /media/actionmystique/SAMSUNG5-VMs/Labs/GNS3/TT 1-linux-/project-files/dynamips 
Nov 27 16:17:05.255 GENERAL: working_dir=/media/actionmystique/SAMSUNG5-VMs/Labs/GNS3/TT 1-linux-/project-files/dynamips
Nov 27 16:17:05.256 HYPERVISOR: exec_cmd: vm create ESW5 5 c3725 
Nov 27 16:17:05.256 VM: VM ESW5 created.
Nov 27 16:17:05.257 HYPERVISOR: exec_cmd: vm set_con_tcp_port ESW5 2010 
Nov 27 16:17:05.257 HYPERVISOR: exec_cmd: c3725 get_mac_addr ESW5 
Nov 27 16:17:05.258 HYPERVISOR: exec_cmd: vm set_nvram ESW5 256 
Nov 27 16:17:05.259 HYPERVISOR: exec_cmd: vm get_status ESW5 
Nov 27 16:17:05.260 HYPERVISOR: exec_cmd: vm set_idle_pc ESW5 0x60c06d20 
Nov 27 16:17:05.261 HYPERVISOR: exec_cmd: c3725 set_mac_addr ESW5 c205.6a03.0000 
Nov 27 16:17:05.262 HYPERVISOR: exec_cmd: vm get_status ESW5 
Nov 27 16:17:05.262 HYPERVISOR: exec_cmd: vm slot_add_binding ESW5 1 0 NM-16ESW 
Nov 27 16:17:05.263 HYPERVISOR: exec_cmd: vm set_disk0 ESW5 1 
Nov 27 16:17:05.264 HYPERVISOR: exec_cmd: vm set_ios ESW5 /media/actionmystique/SAMSUNG5-VMs/Images/GNS3/IOS/c3725-adventerprisek9-mz.124-15.T10.image 
Nov 27 16:17:05.265 HYPERVISOR: exec_cmd: vm slot_add_binding ESW5 0 16 WIC-2T 
Nov 27 16:17:05.266 HYPERVISOR: exec_cmd: vm set_config ESW5 configs/ios_base_startup-config.txt 
Nov 27 16:17:05.267 HYPERVISOR: exec_cmd: vm set_config ESW5 configs/ios_base_startup-config.txt configs/ios_base_private-config.txt 
Nov 27 16:17:05.653 HYPERVISOR: exec_cmd: nio create_udp udp-5bfd7a86-5e6c-407e-b607-1901154c1469 15019 127.0.0.1 15017 
Nov 27 16:17:05.653 HYPERVISOR: exec_cmd: vm slot_add_nio_binding ESW5 1 0 udp-5bfd7a86-5e6c-407e-b607-1901154c1469 
Nov 27 16:17:05.654 HYPERVISOR: exec_cmd: vm get_status ESW5 
Nov 27 16:17:05.665 HYPERVISOR: exec_cmd: nio create_udp udp-6b6f4fc0-fab4-4cf8-bf19-12231e38b10a 15020 127.0.0.1 15021 
Nov 27 16:17:05.665 HYPERVISOR: exec_cmd: vm slot_add_nio_binding ESW5 1 1 udp-6b6f4fc0-fab4-4cf8-bf19-12231e38b10a 
Nov 27 16:17:05.666 HYPERVISOR: exec_cmd: vm get_status ESW5 
Nov 27 16:17:23.666 HYPERVISOR: exec_cmd: vm get_status ESW5 
Nov 27 16:17:23.669 HYPERVISOR: exec_cmd: vm extract_config ESW5 
Nov 27 16:17:23.671 HYPERVISOR: exec_cmd: vm delete ESW5 
Nov 27 16:17:23.671 VM: VM ESW5 destroyed.
Nov 27 16:17:23.674 HYPERVISOR: exec_cmd: hypervisor stop 
Nov 27 16:17:23.759 HYPERVISOR: Stopped.
Nov 27 16:17:23.759 GENERAL: reset done.
