autostart = False
[127.0.0.1:7200]
    workingdir = C:\Users\ActionMystique\Documents\Missions\GNS3\Temp
    udp = 10000
    [[3640]]
        image = C:\Users\ActionMystique\Documents\Missions\IOS\Binaries\c3640-jk9o3s-mz.124-16a.bin
        idlepc = 0x603e26f0
        ghostios = True
        sparsemem = True
        chassis = 3640
    [[ROUTER Mario]]
        model = 3640
        console = 2000
        slot0 = NM-1FE-TX
        f0/0 = Luigi f0/0
        cnfg = configs/Mario.cfg
        x = -444.455844123
        y = -117.970562748
    [[ROUTER Bowser]]
        model = 3640
        console = 2002
        slot0 = NM-1FE-TX
        f0/0 = Luigi f1/0
        cnfg = configs/Bowser.cfg
        x = 79.4299782087
        y = -120.287842585
    [[ROUTER Luigi]]
        model = 3640
        console = 2001
        slot0 = NM-1FE-TX
        f0/0 = Mario f0/0
        slot1 = NM-1FE-TX
        f1/0 = Bowser f0/0
        cnfg = configs/Luigi.cfg
        x = -178.663996924
        y = -118.166522241
[GNS3-DATA]
    configs = configs
    m11 = 1.41421356237
    m22 = 1.41421356237
    [[NOTE 1]]
        text = AS 2
        x = -162.634559673
        y = -63.1126983722
        color = "#323232"
    [[NOTE 2]]
        text = AS 1
        x = -429.21381618
        y = -66.4472221514
        color = "#323232"
    [[NOTE 3]]
        text = .3
        x = 58.6898628385
        y = -120.284271247
        color = "#0000ff"
    [[NOTE 4]]
        text = .2
        x = -113.13708499
        y = -117.961940777
        color = "#0000ff"
    [[NOTE 5]]
        text = 192.168.23.0 /24
        x = -74.9533188058
        y = -120.388347648
        color = "#0000ff"
    [[NOTE 6]]
        text = .2
        x = -200.111219076
        y = -122.710678119
        color = "#0000ff"
    [[NOTE 7]]
        text = .1
        x = -378.302127935
        y = -120.388347648
        color = "#0000ff"
    [[NOTE 8]]
        text = 192.168.12.0 /24
        x = -340.825468532
        y = -118.066017178
        color = "#0000ff"
    [[NOTE 9]]
        text = f0/0
        x = -34.5769641794
        y = 22.1265816447
        interface = Bowser f0/0
        color = "#323232"
    [[NOTE 10]]
        text = f1/0
        x = 68.0500522448
        y = 22.5805251365
        interface = Luigi f1/0
        color = "#323232"
    [[NOTE 11]]
        text = f0/0
        x = -33.8626394832
        y = 22.7703253369
        interface = Luigi f0/0
        color = "#323232"
    [[NOTE 12]]
        text = f0/0
        x = 65.214407205
        y = 19.8154611007
        interface = Mario f0/0
        color = "#323232"
    [[SHAPE 1]]
        type = ellipse
        x = -477.699097554
        y = -153.844191771
        width = 139.501046021
        height = 112.429978209
        fill_color = "#ff5500"
        border_style = 2
        z = -2.0
    [[SHAPE 2]]
        type = ellipse
        x = -212.333044483
        y = -150.107647738
        width = 139.501046021
        height = 112.429978209
        fill_color = "#aaff7f"
        border_style = 2
        z = -2.0
