Nov 27 15:44:03.646 HYPERVISOR: Release 0.2.17-amd64/Linux (tag 2017072410)
Nov 27 15:44:03.646 HYPERVISOR: Started on IP = 127.0.0.1, TCP port = 60121.
Nov 27 15:44:03.651 HYPERVISOR: exec_cmd: hypervisor version 
Nov 27 15:44:03.651 HYPERVISOR: exec_cmd: hypervisor working_dir /media/actionmystique/SAMSUNG5-VMs/Labs/GNS3/git-Public-Labs-Collection/CCNP/TBSHOOT/L2-Technologies/EtherChannel/L2/Jean-Christophe_Manciot/1+/TT 1-linux/project-files/dynamips 
Nov 27 15:44:03.651 GENERAL: working_dir=/media/actionmystique/SAMSUNG5-VMs/Labs/GNS3/git-Public-Labs-Collection/CCNP/TBSHOOT/L2-Technologies/EtherChannel/L2/Jean-Christophe_Manciot/1+/TT 1-linux/project-files/dynamips
Nov 27 15:44:03.652 HYPERVISOR: exec_cmd: vm create SW1 1 c3725 
Nov 27 15:44:03.652 VM: VM SW1 created.
Nov 27 15:44:03.652 HYPERVISOR: exec_cmd: vm set_con_tcp_port SW1 2001 
Nov 27 15:44:03.653 HYPERVISOR: exec_cmd: c3725 get_mac_addr SW1 
Nov 27 15:44:03.653 HYPERVISOR: exec_cmd: c3725 set_mac_addr SW1 aaaa.aaaa.aaaa 
Nov 27 15:44:03.654 HYPERVISOR: exec_cmd: vm get_status SW1 
Nov 27 15:44:03.654 HYPERVISOR: exec_cmd: vm slot_add_binding SW1 1 0 NM-16ESW 
Nov 27 15:44:03.655 HYPERVISOR: exec_cmd: vm get_status SW1 
Nov 27 15:44:03.656 HYPERVISOR: exec_cmd: vm set_idle_pc SW1 0x614ac2c4 
Nov 27 15:44:03.656 HYPERVISOR: exec_cmd: vm slot_add_binding SW1 0 16 WIC-2T 
Nov 27 15:44:03.658 HYPERVISOR: exec_cmd: vm set_ios SW1 /media/actionmystique/SAMSUNG5-VMs/Images/GNS3/IOS/c3725-adventerprisek9-mz.124-15.T10.image 
Nov 27 15:44:03.658 HYPERVISOR: exec_cmd: vm set_exec_area SW1 16 
Nov 27 15:44:03.659 HYPERVISOR: exec_cmd: vm set_disk0 SW1 1 
Nov 27 15:44:03.659 HYPERVISOR: exec_cmd: vm set_nvram SW1 256 
Nov 27 15:44:03.660 HYPERVISOR: exec_cmd: vm set_config SW1 configs/i1_startup-config.cfg 
Nov 27 15:44:03.665 HYPERVISOR: exec_cmd: vm set_config SW1 configs/i1_startup-config.cfg configs/i1_private-config.cfg 
Nov 27 15:44:03.738 HYPERVISOR: exec_cmd: nio create_null null-6d07e211-9c17-4176-a0a8-ad0b3d7894f4 
Nov 27 15:44:03.739 HYPERVISOR: exec_cmd: vm slot_add_nio_binding SW1 1 0 null-6d07e211-9c17-4176-a0a8-ad0b3d7894f4 
Nov 27 15:44:03.739 HYPERVISOR: exec_cmd: vm get_status SW1 
Nov 27 15:44:03.825 HYPERVISOR: exec_cmd: nio create_udp udp-06f042a9-7705-403b-baa0-d24afc602386 15002 127.0.0.1 15005 
Nov 27 15:44:03.826 HYPERVISOR: exec_cmd: vm slot_add_nio_binding SW1 1 5 udp-06f042a9-7705-403b-baa0-d24afc602386 
Nov 27 15:44:03.826 HYPERVISOR: exec_cmd: vm get_status SW1 
Nov 27 15:44:03.849 HYPERVISOR: exec_cmd: nio create_udp udp-bcd09948-b589-40e9-b218-5c17a6ae1adc 15006 127.0.0.1 15007 
Nov 27 15:44:03.849 HYPERVISOR: exec_cmd: vm slot_add_nio_binding SW1 1 6 udp-bcd09948-b589-40e9-b218-5c17a6ae1adc 
Nov 27 15:44:03.850 HYPERVISOR: exec_cmd: vm get_status SW1 
Nov 27 15:44:03.862 HYPERVISOR: exec_cmd: nio create_udp udp-0f5c5c6f-4909-4719-aadc-773bc8cbe967 15008 127.0.0.1 15009 
Nov 27 15:44:03.862 HYPERVISOR: exec_cmd: vm slot_add_nio_binding SW1 1 1 udp-0f5c5c6f-4909-4719-aadc-773bc8cbe967 
Nov 27 15:44:03.863 HYPERVISOR: exec_cmd: vm get_status SW1 
