Nov 29 15:26:44.650 HYPERVISOR: Release 0.2.17-amd64/Linux (tag 2017072410)
Nov 29 15:26:44.650 HYPERVISOR: Started on IP = 127.0.0.1, TCP port = 44337.
Nov 29 15:26:44.687 HYPERVISOR: exec_cmd: hypervisor version 
Nov 29 15:26:44.687 HYPERVISOR: exec_cmd: hypervisor working_dir /media/actionmystique/SAMSUNG5-VMs/Labs/GNS3/TT 3-solutions-linux-/project-files/dynamips 
Nov 29 15:26:44.687 GENERAL: working_dir=/media/actionmystique/SAMSUNG5-VMs/Labs/GNS3/TT 3-solutions-linux-/project-files/dynamips
Nov 29 15:26:44.688 HYPERVISOR: exec_cmd: vm create ESW1 1 c3725 
Nov 29 15:26:44.688 VM: VM ESW1 created.
Nov 29 15:26:44.688 HYPERVISOR: exec_cmd: vm set_con_tcp_port ESW1 2004 
Nov 29 15:26:44.688 HYPERVISOR: exec_cmd: c3725 get_mac_addr ESW1 
Nov 29 15:26:44.689 HYPERVISOR: exec_cmd: vm get_status ESW1 
Nov 29 15:26:44.689 HYPERVISOR: exec_cmd: vm slot_add_binding ESW1 1 0 NM-16ESW 
Nov 29 15:26:44.689 HYPERVISOR: exec_cmd: c3725 set_mac_addr ESW1 c201.1b91.0000 
Nov 29 15:26:44.690 HYPERVISOR: exec_cmd: vm set_disk0 ESW1 1 
Nov 29 15:26:44.690 HYPERVISOR: exec_cmd: vm set_nvram ESW1 256 
Nov 29 15:26:44.691 HYPERVISOR: exec_cmd: vm set_ios ESW1 /media/actionmystique/SAMSUNG5-VMs/Images/GNS3/IOS/c3725-adventerprisek9-mz.124-15.T10.image 
Nov 29 15:26:44.691 HYPERVISOR: exec_cmd: vm get_status ESW1 
Nov 29 15:26:44.691 HYPERVISOR: exec_cmd: vm set_idle_pc ESW1 0x60c05928 
Nov 29 15:26:44.692 HYPERVISOR: exec_cmd: vm slot_add_binding ESW1 0 16 WIC-2T 
Nov 29 15:26:44.692 HYPERVISOR: exec_cmd: vm set_config ESW1 configs/ios_base_startup-config.txt 
Nov 29 15:26:44.693 HYPERVISOR: exec_cmd: vm set_config ESW1 configs/ios_base_startup-config.txt configs/ios_base_private-config.txt 
Nov 29 15:26:45.016 HYPERVISOR: exec_cmd: nio create_udp udp-ced10666-ebd4-477c-9fd4-63b3230d552f 15004 127.0.0.1 15007 
Nov 29 15:26:45.017 HYPERVISOR: exec_cmd: vm slot_add_nio_binding ESW1 1 0 udp-ced10666-ebd4-477c-9fd4-63b3230d552f 
Nov 29 15:26:45.017 HYPERVISOR: exec_cmd: vm get_status ESW1 
Nov 29 15:26:45.047 HYPERVISOR: exec_cmd: nio create_udp udp-132574c3-7009-4d53-89c5-73070447ac2f 15009 127.0.0.1 15008 
Nov 29 15:26:45.047 HYPERVISOR: exec_cmd: vm slot_add_nio_binding ESW1 1 1 udp-132574c3-7009-4d53-89c5-73070447ac2f 
Nov 29 15:26:45.048 HYPERVISOR: exec_cmd: vm get_status ESW1 
Nov 29 15:27:07.170 HYPERVISOR: exec_cmd: vm get_status ESW1 
Nov 29 15:27:07.172 HYPERVISOR: exec_cmd: vm extract_config ESW1 
Nov 29 15:27:07.174 HYPERVISOR: exec_cmd: vm delete ESW1 
Nov 29 15:27:07.174 VM: VM ESW1 destroyed.
Nov 29 15:27:07.176 HYPERVISOR: exec_cmd: hypervisor stop 
Nov 29 15:27:07.210 HYPERVISOR: Stopped.
Nov 29 15:27:07.210 GENERAL: reset done.
