Nov 29 15:26:37.385 HYPERVISOR: Release 0.2.17-amd64/Linux (tag 2017072410)
Nov 29 15:26:37.385 HYPERVISOR: Started on IP = 127.0.0.1, TCP port = 54049.
Nov 29 15:26:37.393 HYPERVISOR: exec_cmd: hypervisor version 
Nov 29 15:26:37.396 HYPERVISOR: exec_cmd: hypervisor working_dir /media/actionmystique/SAMSUNG5-VMs/Labs/GNS3/git-Public-Labs-Collection/CCNP/TBSHOOT/L3-Technologies/IPv4/Routing-Protocols/Redistribution/Jean-Christophe_Manciot/1+/TT 3-solutions-linux/project-files/dynamips 
Nov 29 15:26:37.396 GENERAL: working_dir=/media/actionmystique/SAMSUNG5-VMs/Labs/GNS3/git-Public-Labs-Collection/CCNP/TBSHOOT/L3-Technologies/IPv4/Routing-Protocols/Redistribution/Jean-Christophe_Manciot/1+/TT 3-solutions-linux/project-files/dynamips
Nov 29 15:26:37.397 HYPERVISOR: exec_cmd: vm create ESW1 1 c3725 
Nov 29 15:26:37.397 VM: VM ESW1 created.
Nov 29 15:26:37.400 HYPERVISOR: exec_cmd: vm set_con_tcp_port ESW1 2004 
Nov 29 15:26:37.403 HYPERVISOR: exec_cmd: c3725 get_mac_addr ESW1 
Nov 29 15:26:37.405 HYPERVISOR: exec_cmd: vm get_status ESW1 
Nov 29 15:26:37.407 HYPERVISOR: exec_cmd: vm set_idle_pc ESW1 0x60c05928 
Nov 29 15:26:37.408 HYPERVISOR: exec_cmd: vm get_status ESW1 
Nov 29 15:26:37.408 HYPERVISOR: exec_cmd: vm slot_add_binding ESW1 1 0 NM-16ESW 
Nov 29 15:26:37.409 HYPERVISOR: exec_cmd: vm set_disk0 ESW1 1 
Nov 29 15:26:37.409 HYPERVISOR: exec_cmd: vm set_nvram ESW1 256 
Nov 29 15:26:37.410 HYPERVISOR: exec_cmd: vm set_ios ESW1 /media/actionmystique/SAMSUNG5-VMs/Images/GNS3/IOS/c3725-adventerprisek9-mz.124-15.T10.image 
Nov 29 15:26:37.411 HYPERVISOR: exec_cmd: c3725 set_mac_addr ESW1 c201.1b91.0000 
Nov 29 15:26:37.412 HYPERVISOR: exec_cmd: vm slot_add_binding ESW1 0 16 WIC-2T 
Nov 29 15:26:37.413 HYPERVISOR: exec_cmd: vm set_config ESW1 configs/ios_base_startup-config.txt 
Nov 29 15:26:37.414 HYPERVISOR: exec_cmd: vm set_config ESW1 configs/ios_base_startup-config.txt configs/ios_base_private-config.txt 
Nov 29 15:26:37.708 HYPERVISOR: exec_cmd: nio create_udp udp-aff42b74-6571-4aea-96d9-25fc99989c34 15006 127.0.0.1 15003 
Nov 29 15:26:37.709 HYPERVISOR: exec_cmd: vm slot_add_nio_binding ESW1 1 1 udp-aff42b74-6571-4aea-96d9-25fc99989c34 
Nov 29 15:26:37.709 HYPERVISOR: exec_cmd: vm get_status ESW1 
Nov 29 15:26:37.732 HYPERVISOR: exec_cmd: nio create_udp udp-c4e9e155-6d8a-4bd3-8388-b47360460f4c 15005 127.0.0.1 15007 
Nov 29 15:26:37.733 HYPERVISOR: exec_cmd: vm slot_add_nio_binding ESW1 1 0 udp-c4e9e155-6d8a-4bd3-8388-b47360460f4c 
Nov 29 15:26:37.733 HYPERVISOR: exec_cmd: vm get_status ESW1 
