Nov 29 15:29:52.555 HYPERVISOR: Release 0.2.17-amd64/Linux (tag 2017072410)
Nov 29 15:29:52.555 HYPERVISOR: Started on IP = 127.0.0.1, TCP port = 46615.
Nov 29 15:29:52.587 HYPERVISOR: exec_cmd: hypervisor version 
Nov 29 15:29:52.592 HYPERVISOR: exec_cmd: hypervisor working_dir /media/actionmystique/SAMSUNG5-VMs/Labs/GNS3/TT 4-solutions-linux-/project-files/dynamips 
Nov 29 15:29:52.592 GENERAL: working_dir=/media/actionmystique/SAMSUNG5-VMs/Labs/GNS3/TT 4-solutions-linux-/project-files/dynamips
Nov 29 15:29:52.593 HYPERVISOR: exec_cmd: vm create ESW5 5 c3725 
Nov 29 15:29:52.593 VM: VM ESW5 created.
Nov 29 15:29:52.594 HYPERVISOR: exec_cmd: vm set_con_tcp_port ESW5 2010 
Nov 29 15:29:52.594 HYPERVISOR: exec_cmd: c3725 get_mac_addr ESW5 
Nov 29 15:29:52.595 HYPERVISOR: exec_cmd: vm set_nvram ESW5 256 
Nov 29 15:29:52.596 HYPERVISOR: exec_cmd: vm slot_add_binding ESW5 0 16 WIC-2T 
Nov 29 15:29:52.596 HYPERVISOR: exec_cmd: c3725 set_mac_addr ESW5 c205.6a03.0000 
Nov 29 15:29:52.597 HYPERVISOR: exec_cmd: vm set_disk0 ESW5 1 
Nov 29 15:29:52.609 HYPERVISOR: exec_cmd: vm set_ios ESW5 /media/actionmystique/SAMSUNG5-VMs/Images/GNS3/IOS/c3725-adventerprisek9-mz.124-15.T10.image 
Nov 29 15:29:52.617 HYPERVISOR: exec_cmd: vm get_status ESW5 
Nov 29 15:29:52.618 HYPERVISOR: exec_cmd: vm set_idle_pc ESW5 0x6026b804 
Nov 29 15:29:52.618 HYPERVISOR: exec_cmd: vm get_status ESW5 
Nov 29 15:29:52.618 HYPERVISOR: exec_cmd: vm slot_add_binding ESW5 1 0 NM-16ESW 
Nov 29 15:29:52.619 HYPERVISOR: exec_cmd: vm set_config ESW5 configs/ios_base_startup-config.txt 
Nov 29 15:29:52.619 HYPERVISOR: exec_cmd: vm set_config ESW5 configs/ios_base_startup-config.txt configs/ios_base_private-config.txt 
Nov 29 15:29:53.265 HYPERVISOR: exec_cmd: nio create_udp udp-22aad81b-b80c-46a0-a508-e6f1b6a49622 15023 127.0.0.1 15022 
Nov 29 15:29:53.266 HYPERVISOR: exec_cmd: vm slot_add_nio_binding ESW5 1 0 udp-22aad81b-b80c-46a0-a508-e6f1b6a49622 
Nov 29 15:29:53.266 HYPERVISOR: exec_cmd: vm get_status ESW5 
Nov 29 15:29:53.272 HYPERVISOR: exec_cmd: nio create_udp udp-03f8e117-e588-49b0-974f-5c5a3ade686a 15025 127.0.0.1 15024 
Nov 29 15:29:53.273 HYPERVISOR: exec_cmd: vm slot_add_nio_binding ESW5 1 4 udp-03f8e117-e588-49b0-974f-5c5a3ade686a 
Nov 29 15:29:53.274 HYPERVISOR: exec_cmd: vm get_status ESW5 
Nov 29 15:29:53.304 HYPERVISOR: exec_cmd: nio create_udp udp-92969224-e046-40c1-ad98-f971603b5531 15026 127.0.0.1 15027 
Nov 29 15:29:53.305 HYPERVISOR: exec_cmd: vm slot_add_nio_binding ESW5 1 3 udp-92969224-e046-40c1-ad98-f971603b5531 
Nov 29 15:29:53.305 HYPERVISOR: exec_cmd: vm get_status ESW5 
Nov 29 15:30:03.910 HYPERVISOR: exec_cmd: vm get_status ESW5 
Nov 29 15:30:03.913 HYPERVISOR: exec_cmd: vm extract_config ESW5 
Nov 29 15:30:03.916 HYPERVISOR: exec_cmd: vm delete ESW5 
Nov 29 15:30:03.916 VM: VM ESW5 destroyed.
Nov 29 15:30:03.919 HYPERVISOR: exec_cmd: hypervisor stop 
Nov 29 15:30:04.095 HYPERVISOR: Stopped.
Nov 29 15:30:04.095 GENERAL: reset done.
