Nov 29 15:29:35.462 HYPERVISOR: Release 0.2.17-amd64/Linux (tag 2017072410)
Nov 29 15:29:35.462 HYPERVISOR: Started on IP = 127.0.0.1, TCP port = 36509.
Nov 29 15:29:35.479 HYPERVISOR: exec_cmd: hypervisor version 
Nov 29 15:29:35.480 HYPERVISOR: exec_cmd: hypervisor working_dir /media/actionmystique/SAMSUNG5-VMs/Labs/GNS3/git-Public-Labs-Collection/CCNP/TBSHOOT/L3-Technologies/IPv4/Routing-Protocols/Redistribution/Jean-Christophe_Manciot/1+/TT 4-solutions-linux/project-files/dynamips 
Nov 29 15:29:35.480 GENERAL: working_dir=/media/actionmystique/SAMSUNG5-VMs/Labs/GNS3/git-Public-Labs-Collection/CCNP/TBSHOOT/L3-Technologies/IPv4/Routing-Protocols/Redistribution/Jean-Christophe_Manciot/1+/TT 4-solutions-linux/project-files/dynamips
Nov 29 15:29:35.482 HYPERVISOR: exec_cmd: vm create ESW1 1 c3725 
Nov 29 15:29:35.482 VM: VM ESW1 created.
Nov 29 15:29:35.483 HYPERVISOR: exec_cmd: vm set_con_tcp_port ESW1 2004 
Nov 29 15:29:35.484 HYPERVISOR: exec_cmd: c3725 get_mac_addr ESW1 
Nov 29 15:29:35.485 HYPERVISOR: exec_cmd: vm set_nvram ESW1 256 
Nov 29 15:29:35.496 HYPERVISOR: exec_cmd: vm slot_add_binding ESW1 0 16 WIC-2T 
Nov 29 15:29:35.508 HYPERVISOR: exec_cmd: c3725 set_mac_addr ESW1 c201.1b91.0000 
Nov 29 15:29:35.529 HYPERVISOR: exec_cmd: vm set_disk0 ESW1 1 
Nov 29 15:29:35.531 HYPERVISOR: exec_cmd: vm set_ios ESW1 /media/actionmystique/SAMSUNG5-VMs/Images/GNS3/IOS/c3725-adventerprisek9-mz.124-15.T10.image 
Nov 29 15:29:35.532 HYPERVISOR: exec_cmd: vm get_status ESW1 
Nov 29 15:29:35.533 HYPERVISOR: exec_cmd: vm set_idle_pc ESW1 0x6026b804 
Nov 29 15:29:35.534 HYPERVISOR: exec_cmd: vm get_status ESW1 
Nov 29 15:29:35.535 HYPERVISOR: exec_cmd: vm slot_add_binding ESW1 1 0 NM-16ESW 
Nov 29 15:29:35.536 HYPERVISOR: exec_cmd: vm set_config ESW1 configs/ios_base_startup-config.txt 
Nov 29 15:29:35.537 HYPERVISOR: exec_cmd: vm set_config ESW1 configs/ios_base_startup-config.txt configs/ios_base_private-config.txt 
Nov 29 15:29:36.125 HYPERVISOR: exec_cmd: nio create_udp udp-4b35629d-60cc-46b1-a407-b8afce6510b9 15017 127.0.0.1 15016 
Nov 29 15:29:36.126 HYPERVISOR: exec_cmd: vm slot_add_nio_binding ESW1 1 1 udp-4b35629d-60cc-46b1-a407-b8afce6510b9 
Nov 29 15:29:36.126 HYPERVISOR: exec_cmd: vm get_status ESW1 
Nov 29 15:29:36.144 HYPERVISOR: exec_cmd: nio create_udp udp-534c1b2c-2ef8-4c0a-b14f-d9f0353e17de 15020 127.0.0.1 15018 
Nov 29 15:29:36.144 HYPERVISOR: exec_cmd: vm slot_add_nio_binding ESW1 1 0 udp-534c1b2c-2ef8-4c0a-b14f-d9f0353e17de 
Nov 29 15:29:36.145 HYPERVISOR: exec_cmd: vm get_status ESW1 
