Nov 26 20:50:06.180 HYPERVISOR: Release 0.2.17-amd64/Linux (tag 2017072410)
Nov 26 20:50:06.180 HYPERVISOR: Started on IP = 127.0.0.1, TCP port = 41955.
Nov 26 20:50:06.196 HYPERVISOR: exec_cmd: hypervisor version 
Nov 26 20:50:06.200 HYPERVISOR: exec_cmd: hypervisor working_dir /media/actionmystique/SAMSUNG5-VMs/Labs/GNS3/OSPF - EIGRP - RIP/project-files/dynamips 
Nov 26 20:50:06.200 GENERAL: working_dir=/media/actionmystique/SAMSUNG5-VMs/Labs/GNS3/OSPF - EIGRP - RIP/project-files/dynamips
Nov 26 20:50:06.204 HYPERVISOR: exec_cmd: vm create R4 5 c7200 
Nov 26 20:50:06.204 VM: VM R4 created.
Nov 26 20:50:06.206 HYPERVISOR: exec_cmd: vm set_con_tcp_port R4 2007 
Nov 26 20:50:06.208 HYPERVISOR: exec_cmd: vm set_aux_tcp_port R4 2107 
Nov 26 20:50:06.209 HYPERVISOR: exec_cmd: c7200 get_mac_addr R4 
Nov 26 20:50:06.209 HYPERVISOR: exec_cmd: vm get_status R4 
Nov 26 20:50:06.210 HYPERVISOR: exec_cmd: vm slot_add_binding R4 0 0 C7200-IO-FE 
Nov 26 20:50:06.210 HYPERVISOR: exec_cmd: vm get_status R4 
Nov 26 20:50:06.211 HYPERVISOR: exec_cmd: vm slot_remove_binding R4 0 0 
Nov 26 20:50:06.211 HYPERVISOR: exec_cmd: vm get_status R4 
Nov 26 20:50:06.212 HYPERVISOR: exec_cmd: vm slot_add_binding R4 0 0 C7200-IO-GE-E 
Nov 26 20:50:06.212 HYPERVISOR: exec_cmd: vm get_status R4 
Nov 26 20:50:06.214 HYPERVISOR: exec_cmd: vm slot_add_binding R4 2 0 PA-2FE-TX 
Nov 26 20:50:06.215 HYPERVISOR: exec_cmd: vm set_ram R4 512 
Nov 26 20:50:06.217 HYPERVISOR: exec_cmd: vm get_status R4 
Nov 26 20:50:06.219 HYPERVISOR: exec_cmd: vm set_idle_pc R4 0x60188e14 
Nov 26 20:50:06.223 HYPERVISOR: exec_cmd: vm get_status R4 
Nov 26 20:50:06.226 HYPERVISOR: exec_cmd: vm slot_add_binding R4 1 0 PA-8T 
Nov 26 20:50:06.228 HYPERVISOR: exec_cmd: vm get_status R4 
Nov 26 20:50:06.230 HYPERVISOR: exec_cmd: vm slot_add_binding R4 3 0 PA-2FE-TX 
Nov 26 20:50:06.232 HYPERVISOR: exec_cmd: vm get_status R4 
Nov 26 20:50:06.233 HYPERVISOR: exec_cmd: vm slot_add_binding R4 4 0 PA-2FE-TX 
Nov 26 20:50:06.234 HYPERVISOR: exec_cmd: vm set_ios R4 /media/actionmystique/SAMSUNG5-VMs/Images/GNS3/IOS/c7200-adventerprisek9-mz.152-4.M2.image 
Nov 26 20:50:06.235 HYPERVISOR: exec_cmd: vm get_status R4 
Nov 26 20:50:06.236 HYPERVISOR: exec_cmd: vm slot_add_binding R4 5 0 PA-2FE-TX 
Nov 26 20:50:06.236 HYPERVISOR: exec_cmd: vm set_config R4 configs/i5_startup-config.cfg 
Nov 26 20:50:07.185 HYPERVISOR: exec_cmd: nio create_udp udp-34d69513-c6eb-4a65-a8ee-de56e3f7a7b6 15000 127.0.0.1 15004 
Nov 26 20:50:07.187 HYPERVISOR: exec_cmd: vm slot_add_nio_binding R4 1 0 udp-34d69513-c6eb-4a65-a8ee-de56e3f7a7b6 
Nov 26 20:50:07.192 HYPERVISOR: exec_cmd: vm get_status R4 
Nov 26 20:50:07.245 HYPERVISOR: exec_cmd: vm extract_config R4 
Nov 26 20:50:07.277 HYPERVISOR: exec_cmd: nio create_udp udp-1be4df35-73a7-44ec-b3b9-d387730aad85 15002 127.0.0.1 15007 
Nov 26 20:50:07.283 HYPERVISOR: exec_cmd: vm slot_add_nio_binding R4 0 0 udp-1be4df35-73a7-44ec-b3b9-d387730aad85 
Nov 26 20:50:07.287 HYPERVISOR: exec_cmd: vm get_status R4 
Nov 26 20:50:07.411 HYPERVISOR: exec_cmd: nio create_udp udp-b94b7255-0845-4adf-b558-b4fb78d995cf 15016 127.0.0.1 15015 
Nov 26 20:50:07.412 HYPERVISOR: exec_cmd: vm slot_add_nio_binding R4 1 1 udp-b94b7255-0845-4adf-b558-b4fb78d995cf 
Nov 26 20:50:07.416 HYPERVISOR: exec_cmd: vm get_status R4 
Nov 26 20:50:07.579 HYPERVISOR: exec_cmd: nio create_udp udp-ec485828-9243-4d29-9054-c8e56540def8 15028 127.0.0.1 15029 
Nov 26 20:50:07.580 HYPERVISOR: exec_cmd: vm slot_add_nio_binding R4 1 2 udp-ec485828-9243-4d29-9054-c8e56540def8 
Nov 26 20:50:07.581 HYPERVISOR: exec_cmd: vm get_status R4 
Nov 26 20:53:18.109 HYPERVISOR: exec_cmd: vm get_status R4 
Nov 26 20:53:18.115 HYPERVISOR: exec_cmd: vm extract_config R4 
Nov 26 20:53:18.120 HYPERVISOR: exec_cmd: vm delete R4 
Nov 26 20:53:18.120 VM: VM R4 destroyed.
Nov 26 20:53:18.124 HYPERVISOR: exec_cmd: hypervisor stop 
Nov 26 20:53:18.392 HYPERVISOR: Stopped.
Nov 26 20:53:18.392 GENERAL: reset done.
