Nov 27 16:22:11.316 HYPERVISOR: Release 0.2.17-amd64/Linux (tag 2017072410)
Nov 27 16:22:11.316 HYPERVISOR: Started on IP = 127.0.0.1, TCP port = 50073.
Nov 27 16:22:11.348 HYPERVISOR: exec_cmd: hypervisor version 
Nov 27 16:22:11.349 HYPERVISOR: exec_cmd: hypervisor working_dir /media/actionmystique/SAMSUNG5-VMs/Labs/GNS3/TT 3-linux-/project-files/dynamips 
Nov 27 16:22:11.349 GENERAL: working_dir=/media/actionmystique/SAMSUNG5-VMs/Labs/GNS3/TT 3-linux-/project-files/dynamips
Nov 27 16:22:11.350 HYPERVISOR: exec_cmd: vm create SW3 3 c3725 
Nov 27 16:22:11.350 VM: VM SW3 created.
Nov 27 16:22:11.351 HYPERVISOR: exec_cmd: vm set_con_tcp_port SW3 2003 
Nov 27 16:22:11.352 HYPERVISOR: exec_cmd: c3725 get_mac_addr SW3 
Nov 27 16:22:11.353 HYPERVISOR: exec_cmd: vm set_nvram SW3 256 
Nov 27 16:22:11.354 HYPERVISOR: exec_cmd: vm get_status SW3 
Nov 27 16:22:11.355 HYPERVISOR: exec_cmd: vm set_idle_pc SW3 0x614ac21c 
Nov 27 16:22:11.355 HYPERVISOR: exec_cmd: c3725 set_mac_addr SW3 cccc.cccc.cccc 
Nov 27 16:22:11.356 HYPERVISOR: exec_cmd: vm set_exec_area SW3 16 
Nov 27 16:22:11.357 HYPERVISOR: exec_cmd: vm get_status SW3 
Nov 27 16:22:11.358 HYPERVISOR: exec_cmd: vm slot_add_binding SW3 1 0 NM-16ESW 
Nov 27 16:22:11.359 HYPERVISOR: exec_cmd: vm set_disk0 SW3 1 
Nov 27 16:22:11.360 HYPERVISOR: exec_cmd: vm set_ios SW3 /media/actionmystique/SAMSUNG5-VMs/Images/GNS3/IOS/c3725-adventerprisek9-mz.124-15.T10.image 
Nov 27 16:22:11.362 HYPERVISOR: exec_cmd: vm slot_add_binding SW3 0 16 WIC-2T 
Nov 27 16:22:11.363 HYPERVISOR: exec_cmd: vm set_config SW3 configs/i3_startup-config.cfg 
Nov 27 16:22:11.364 HYPERVISOR: exec_cmd: vm set_config SW3 configs/i3_startup-config.cfg configs/i3_private-config.cfg 
Nov 27 16:22:11.559 HYPERVISOR: exec_cmd: nio create_udp udp-53f3c4a5-e39c-47e9-968f-98dffd6b3af0 15004 127.0.0.1 15003 
Nov 27 16:22:11.565 HYPERVISOR: exec_cmd: vm slot_add_nio_binding SW3 1 1 udp-53f3c4a5-e39c-47e9-968f-98dffd6b3af0 
Nov 27 16:22:11.566 HYPERVISOR: exec_cmd: vm get_status SW3 
Nov 27 16:22:11.589 HYPERVISOR: exec_cmd: nio create_udp udp-1001d900-003c-41a5-af61-c0154f3b3f02 15001 127.0.0.1 15005 
Nov 27 16:22:11.589 HYPERVISOR: exec_cmd: vm slot_add_nio_binding SW3 1 2 udp-1001d900-003c-41a5-af61-c0154f3b3f02 
Nov 27 16:22:11.589 HYPERVISOR: exec_cmd: vm get_status SW3 
Nov 27 16:22:11.617 HYPERVISOR: exec_cmd: nio create_udp udp-a81db52b-bc6d-479a-af22-616df0774c21 15006 127.0.0.1 15007 
Nov 27 16:22:11.620 HYPERVISOR: exec_cmd: vm slot_add_nio_binding SW3 1 5 udp-a81db52b-bc6d-479a-af22-616df0774c21 
Nov 27 16:22:11.621 HYPERVISOR: exec_cmd: vm get_status SW3 
Nov 27 16:22:11.637 HYPERVISOR: exec_cmd: nio create_udp udp-c708aeeb-37af-40f6-9839-a919d358e714 15008 127.0.0.1 15009 
Nov 27 16:22:11.637 HYPERVISOR: exec_cmd: vm slot_add_nio_binding SW3 1 6 udp-c708aeeb-37af-40f6-9839-a919d358e714 
Nov 27 16:22:11.637 HYPERVISOR: exec_cmd: vm get_status SW3 
Nov 27 16:22:26.529 HYPERVISOR: exec_cmd: vm get_status SW3 
Nov 27 16:22:26.531 HYPERVISOR: exec_cmd: vm extract_config SW3 
Nov 27 16:22:26.536 HYPERVISOR: exec_cmd: vm delete SW3 
Nov 27 16:22:26.536 VM: VM SW3 destroyed.
Nov 27 16:22:26.537 HYPERVISOR: exec_cmd: hypervisor stop 
Nov 27 16:22:26.861 HYPERVISOR: Stopped.
Nov 27 16:22:26.861 GENERAL: reset done.
